<?xml version="1.0" encoding="UTF-8" standalone="no"?>
<svg width="19px" height="17px" viewBox="0 0 19 17" version="1.1" xmlns="http://www.w3.org/2000/svg"
>
  <!-- Generator: Sketch 47.1 (45422) - http://www.bohemiancoding.com/sketch -->
  <title>Icon_TransactionHistory</title>
  <desc>Created with Sketch.</desc>
  <defs></defs>
  <g id="Page-1" stroke="none" stroke-width="1" fill="none" fill-rule="evenodd" opacity="0.9">
    <g id="Celcom_Menu_Option-1" transform="translate(-23.000000, -324.000000)" stroke="#FFFFFF" fill-rule="nonzero"
       stroke-width="0.3" fill="#333333">
      <g id="Menu-Containe+List" transform="translate(0.000000, 168.000000)">
        <g transform="translate(0.000000, 92.000000)" id="Menu-List-items">
          <g>
            <g id="Icon_TransactionHistory" transform="translate(23.000000, 65.000000)">
              <path
                d="M10.2857143,0 C6.02571429,0 2.57142857,3.35833333 2.57142857,7.5 L0,7.5 L3.33428571,10.7416667 L3.39428571,10.8583333 L6.85714286,7.5 L4.28571429,7.5 C4.28571429,4.275 6.96857143,1.66666667 10.2857143,1.66666667 C13.6028571,1.66666667 16.2857143,4.275 16.2857143,7.5 C16.2857143,10.725 13.6028571,13.3333333 10.2857143,13.3333333 C8.63142857,13.3333333 7.13142857,12.675 6.05142857,11.6166667 L4.83428571,12.8 C6.23142857,14.1583333 8.15142857,15 10.2857143,15 C14.5457143,15 18,11.6416667 18,7.5 C18,3.35833333 14.5457143,0 10.2857143,0 Z M9.42857143,4.16666667 L9.42857143,8.33333333 L13.0971429,10.45 L13.7142857,9.44166667 L10.7142857,7.70833333 L10.7142857,4.16666667 L9.42857143,4.16666667 Z"
                id="Shape"></path>
            </g>
          </g>
        </g>
      </g>
    </g>
  </g>
</svg>
