<?xml version="1.0" encoding="UTF-8"?>
<svg width="147px" height="75px" viewBox="0 0 147 75" version="1.1" xmlns="http://www.w3.org/2000/svg"
>
  <!-- Generator: Sketch 47.1 (45422) - http://www.bohemiancoding.com/sketch -->
  <title>logo</title>
  <desc>Created with Sketch.</desc>
  <defs>
    <linearGradient x1="0%" y1="50%" x2="99.9437886%" y2="50%" id="linearGradient-1">
      <stop stop-color="#221E67" offset="0%"></stop>
      <stop stop-color="#3F1E6B" offset="9%"></stop>
      <stop stop-color="#5E1F70" offset="20%"></stop>
      <stop stop-color="#B63F81" offset="100%"></stop>
    </linearGradient>
    <linearGradient x1="49.9718943%" y1="0%" x2="49.9718943%" y2="100%" id="linearGradient-2">
      <stop stop-color="#F04E23" offset="10%"></stop>
      <stop stop-color="#F05223" offset="14%"></stop>
      <stop stop-color="#F5821F" offset="72%"></stop>
      <stop stop-color="#F7941E" offset="100%"></stop>
    </linearGradient>
    <linearGradient x1="0%" y1="50.0243784%" x2="99.9437886%" y2="50.0243784%" id="linearGradient-3">
      <stop stop-color="#AF2A47" offset="5%"></stop>
      <stop stop-color="#BC254B" offset="18%"></stop>
      <stop stop-color="#D71C54" offset="50%"></stop>
      <stop stop-color="#E71659" offset="78%"></stop>
      <stop stop-color="#ED145B" offset="100%"></stop>
    </linearGradient>
  </defs>
  <g id="Page-1" stroke="none" stroke-width="1" fill="none" fill-rule="evenodd">
    <g id="S0.1---Network-Login-Copy-2" transform="translate(-113.000000, -275.000000)" fill-rule="nonzero">
      <g id="header" transform="translate(113.000000, 275.000000)">
        <g id="Group-3">
          <g id="logo" transform="translate(0.770246, 0.932050)">
            <polygon id="Shape" fill="#EE3E80"
                     points="114.71831 36.1355634 130.360915 45.1584507 130.360915 27.1038732"></polygon>
            <polygon id="Shape" fill="#FDB933"
                     points="114.71831 0 114.71831 18.0721831 130.360915 9.02288732"></polygon>
            <polygon id="Shape" fill="#F7941E"
                     points="130.360915 9.02288732 130.360915 9.02288732 114.71831 18.0721831 130.360915 27.1038732"></polygon>
            <polygon id="Shape" fill="url(#linearGradient-1)"
                     points="146.021127 36.1355634 146.021127 18.0721831 130.360915 27.1038732"></polygon>
            <polygon id="Shape" fill="url(#linearGradient-2)"
                     points="130.360915 27.1038732 130.360915 27.1038732 146.021127 18.0721831 130.360915 9.02288732"></polygon>
            <polygon id="Shape" fill="url(#linearGradient-3)"
                     points="146.021127 36.1355634 146.021127 36.1355634 130.360915 27.1038732 130.360915 45.1584507"></polygon>
            <path
              d="M30.8362676,51.9982394 C24.5158451,51.9982394 20.6338028,56.6373239 20.6338028,62.8433099 C20.7130282,69.7007042 25.5017606,73.5915493 31.1971831,73.5915493 C33.6065026,73.6724416 35.995874,73.1296783 38.1338028,72.0158451 C38.628229,71.6979084 38.8874152,71.1173314 38.7940141,70.5369718 L38.7940141,67.7464789 C36.9986026,68.6330964 35.0301463,69.1139407 33.028169,69.1549296 C29.8855634,69.1549296 27.0598592,67.790493 26.4348592,64.6126761 L40.9507042,64.6126761 C41.0193471,64.1287519 41.0487855,63.6400734 41.0387324,63.1514085 C40.9947183,56.9190141 37.7024648,51.9982394 30.8362676,51.9982394 Z M26.3204225,61.1795775 C26.5492958,58.3626761 28.5211268,56.4084507 30.9066901,56.4084507 C33.6619718,56.4084507 35.2288732,58.3274648 35.4665493,61.1795775 L26.3292254,61.1795775 L26.3204225,61.1795775 Z"
              id="Shape" fill="#009BDF"></path>
            <path
              d="M10.9066901,57.0510563 C12.749573,57.0252674 14.5267698,57.734879 15.8450704,59.0228873 L19.2165493,55.4137324 C16.115113,52.1970268 11.3961519,51.1360465 7.21633732,52.7156832 C3.03652275,54.29532 0.198771634,58.2121352 5.68434189e-14,62.6760563 C5.68434189e-14,69.7183099 4.9471831,73.5915493 10.7130282,73.5915493 C13.0990383,73.6778105 15.4669671,73.1472246 17.5880282,72.0510563 C18.0788812,71.7300628 18.3369791,71.1519234 18.2482394,70.5721831 L18.2482394,67.7024648 C16.4665425,68.5934054 14.5091967,69.0774802 12.5176056,69.1197183 C8.8028169,69.1197183 5.80985915,67.1919014 5.80985915,62.6760563 C5.80985915,59.5422535 7.9665493,57.0510563 10.9066901,57.0510563 Z"
              id="Shape" fill="#009BDF"></path>
            <path
              d="M84.084507,51.9982394 C81.1459542,51.9148478 78.2990727,53.0260279 76.1939934,55.078024 C74.0889141,57.1300201 72.9054025,59.9475999 72.9137324,62.8873239 C72.9137324,68.9700704 77.7024648,73.5915493 84.0140845,73.5915493 C90.3257042,73.5915493 95.3609155,68.8732394 95.3609155,62.7112676 C95.3609155,56.5492958 90.4577465,51.9982394 84.084507,51.9982394 Z M84.084507,68.9612676 C80.7589441,68.8324055 78.1645215,66.0372006 78.2834507,62.7112676 C78.2834507,59.1901408 80.721831,56.7165493 84.0140845,56.7165493 C85.6143685,56.7342076 87.1392139,57.3995098 88.2406036,58.5606134 C89.3419933,59.721717 89.9259349,61.2795336 89.8591549,62.8785211 C89.8855634,66.3644366 87.4911972,68.9700704 84.084507,68.9700704 L84.084507,68.9612676 Z"
              id="Shape" fill="#009BDF"></path>
            <path
              d="M122.56162,51.9982394 C120.029805,51.9252475 117.607346,53.0307991 116.003521,54.9911972 C114.368339,53.0268856 111.920942,51.9232848 109.366197,51.9982394 C107.267518,51.9554531 105.267729,52.8886878 103.952465,54.5246479 L103.952465,51.9366197 C103.010563,52.0510563 100.809859,52.2887324 99.4454225,53.5827465 C98.9323926,54.0891721 98.6601346,54.790637 98.6971831,55.5105634 L98.6971831,73.1161972 L103.978873,73.1161972 L103.978873,59.8151408 C103.978873,58.0545775 105.739437,56.681338 107.992958,56.681338 C108.897662,56.654627 109.791578,56.883445 110.572183,57.3415493 C111.502339,57.9337173 112.032952,58.9881852 111.954225,60.0880282 L111.954225,73.1161972 L117.121479,73.1161972 L117.121479,59.8151408 C117.121479,58.0545775 118.882042,56.681338 121.126761,56.681338 C122.034433,56.6529595 122.931629,56.881836 123.714789,57.3415493 C124.643071,57.9345804 125.170572,58.9895841 125.088028,60.0880282 L125.088028,73.1161972 L130.369718,73.1161972 L130.369718,58.2042254 C130.360915,54.7183099 126.919014,51.9982394 122.56162,51.9982394 Z"
              id="Shape" fill="#009BDF"></path>
            <path
              d="M63.4771127,57.0510563 C65.3196349,57.0272135 67.0961134,57.7365382 68.415493,59.0228873 L71.7957746,55.4137324 C68.6928842,52.1933537 63.9703839,51.1299931 59.7866732,52.709655 C55.6029624,54.289317 52.7617576,58.2085389 52.5616197,62.6760563 C52.5616197,69.7183099 57.5176056,73.5915493 63.2834507,73.5915493 C65.6666892,73.6782832 68.0318947,73.1476281 70.1496479,72.0510563 C70.642097,71.7308552 70.9033044,71.1534494 70.818662,70.5721831 L70.818662,67.7024648 C69.0363558,68.591751 67.0793871,69.0757325 65.0880282,69.1197183 C61.3644366,69.1197183 58.3802817,67.1919014 58.3802817,62.6760563 C58.3802817,59.5422535 60.528169,57.0510563 63.4771127,57.0510563 Z"
              id="Shape" fill="#009BDF"></path>
            <path
              d="M44.0580986,48.6795775 L44.0580986,73.125 L49.3926056,73.125 L49.3926056,44.4806338 C48.8116197,44.6302817 46.2059859,45.2640845 44.8415493,46.6725352 C44.3304315,47.2149057 44.0495881,47.9343696 44.0580986,48.6795775 L44.0580986,48.6795775 Z"
              id="Shape" fill="#009BDF"></path>
          </g>
        </g>
      </g>
    </g>
  </g>
</svg>
