<?xml version="1.0" encoding="UTF-8"?>
<svg width="24px" height="24px" viewBox="0 0 24 24" version="1.1" xmlns="http://www.w3.org/2000/svg"
>
  <!-- Generator: Sketch 46.2 (44496) - http://www.bohemiancoding.com/sketch -->
  <title>Shape</title>
  <desc>Created with Sketch.</desc>
  <defs></defs>
  <g id="Symbols" stroke="none" stroke-width="1" fill="none" fill-rule="evenodd">
    <g id="Icon_RoamingFilled_24" fill-rule="nonzero" fill="#333333">
      <path
        d="M14.9658381,12.2159064 L10.3941787,16.7884609 C10.3679551,16.8146641 10.3535744,16.8492521 10.3535744,16.8858607 L10.3535744,21.9905083 L10.2487322,22.2428175 L8.55159722,23.9403416 L8.32596593,23.4888101 L5.74362255,18.3210453 C5.7299008,18.2936323 5.70797689,18.2716943 5.68110954,18.2583216 L0.0611251292,15.4485231 L1.75854929,13.7512456 L2.01673509,13.6446694 L7.11455489,13.6446694 C7.15218828,13.6446694 7.1880375,13.6298924 7.21420594,13.6037475 L11.7858632,9.03020029 C11.8197627,8.99631937 11.8335045,8.94776563 11.8221624,8.9006709 C11.8111063,8.85447119 11.7767524,8.81721123 11.73106,8.80200054 L0,4.89045186 L1.75821638,3.13242209 L2.04966319,3.02735791 L16.4115724,4.33364755 C16.4527196,4.33753454 16.4928494,4.32300748 16.5226504,4.29307838 L19.0068548,1.80803151 C20.0016803,0.818325761 21.3073003,0 22.3278472,0 C22.7913968,0 23.1969916,0.163834788 23.5141118,0.481567923 C24.6022585,1.56921365 23.7333527,3.44718696 22.1872302,4.99401006 L19.7028094,7.47860404 C19.6738981,7.50746116 19.6592851,7.54760895 19.6629004,7.58784254 L20.9690532,21.9570575 L20.8657301,22.2414291 L19.1084165,24 L18.9225833,23.4425077 L15.1984511,12.2702564 C15.1830523,12.2242155 15.1449701,12.1897494 15.0965579,12.1785586 C15.0277052,12.1749568 14.9921312,12.1895475 14.9658381,12.2159064 Z"
        id="Shape"></path>
    </g>
  </g>
</svg>
