<?xml version="1.0" encoding="UTF-8" standalone="no"?>
<svg width="20px" height="19px" viewBox="0 0 20 19" version="1.1" xmlns="http://www.w3.org/2000/svg" xmlns:xlink="http://www.w3.org/1999/xlink">
    <!-- Generator: Sketch 47.1 (45422) - http://www.bohemiancoding.com/sketch -->
    <title>sms-icon</title>
    <desc>Created with Sketch.</desc>
    <defs>
        <path d="M0,0.25 L0,14.5357143 L3.57142857,14.5357143 L3.57142857,18.1741071 L4.73214286,17.2366071 L8.10267857,14.5357143 L20,14.5357143 L20,0.25 L0,0.25 Z M1.42857143,1.67857143 L18.5714286,1.67857143 L18.5714286,13.1071429 L7.61160714,13.1071429 L7.41071429,13.2633929 L5,15.1830357 L5,13.1071429 L1.42857143,13.1071429 L1.42857143,1.67857143 Z M6.45425,6.22675 L6.72725,5.7165 C6.64274958,5.63849961 6.54687554,5.56862531 6.439625,5.506875 C6.33237446,5.44512469 6.21700062,5.39204189 6.0935,5.347625 C5.96999938,5.30320811 5.83945902,5.26962511 5.701875,5.246875 C5.56429098,5.22412489 5.42291739,5.21275 5.27775,5.21275 C5.0177487,5.21275 4.78700101,5.25229127 4.5855,5.331375 C4.38399899,5.41045873 4.21391736,5.51608267 4.07525,5.64825 C3.93658264,5.78041733 3.83150036,5.93099915 3.76,6.1 C3.68849964,6.26900084 3.65275,6.44233244 3.65275,6.62 C3.65275,6.8410011 3.68308303,7.02679091 3.74375,7.177375 C3.80441697,7.32795909 3.88404117,7.4536245 3.982625,7.554375 C4.08120883,7.6551255 4.19333271,7.73637469 4.319,7.798125 C4.4446673,7.85987531 4.57358267,7.91187479 4.70575,7.954125 C4.83791733,7.99637521 4.96683271,8.03483316 5.0925,8.0695 C5.2181673,8.10416684 5.33029117,8.14424977 5.428875,8.18975 C5.52745883,8.23525023 5.60708303,8.29266632 5.66775,8.362 C5.72841697,8.43133368 5.75875,8.52124945 5.75875,8.63175 C5.75875,8.82241762 5.70350055,8.96162456 5.593,9.049375 C5.48249945,9.13712544 5.32758433,9.181 5.12825,9.181 C4.98091593,9.181 4.85308388,9.16041687 4.74475,9.11925 C4.63641613,9.07808313 4.54054208,9.03258358 4.457125,8.98275 C4.37370792,8.93291642 4.29895866,8.88741687 4.232875,8.84625 C4.16679134,8.80508313 4.10125033,8.7845 4.03625,8.7845 C3.98641642,8.7845 3.93983355,8.79641655 3.8965,8.82025 C3.85316645,8.84408345 3.81958345,8.87549981 3.79575,8.9145 L3.47075,9.428 C3.56391713,9.52116713 3.67333271,9.60566629 3.799,9.6815 C3.9246673,9.75733371 4.05899929,9.82287472 4.202,9.878125 C4.34500072,9.93337528 4.49287424,9.97616651 4.645625,10.0065 C4.79837576,10.0368335 4.94841593,10.052 5.09575,10.052 C5.36441801,10.052 5.60437394,10.0113754 5.815625,9.930125 C6.02687606,9.84887459 6.20454095,9.73729238 6.348625,9.595375 C6.49270905,9.45345762 6.60266629,9.28716762 6.6785,9.0965 C6.75433371,8.90583238 6.79225,8.70108443 6.79225,8.48225 C6.79225,8.28508235 6.76191697,8.1166257 6.70125,7.976875 C6.64058303,7.8371243 6.56095883,7.71850049 6.462375,7.621 C6.36379117,7.52349951 6.25112563,7.44333365 6.124375,7.3805 C5.99762437,7.31766635 5.86816733,7.26295857 5.736,7.216375 C5.60383267,7.16979143 5.47437563,7.12754186 5.347625,7.089625 C5.22087437,7.05170814 5.10820883,7.01000023 5.009625,6.9645 C4.91104117,6.91899977 4.83141697,6.86483365 4.77075,6.802 C4.71008303,6.73916635 4.67975,6.66008381 4.67975,6.56475 C4.67975,6.41524925 4.7301245,6.29662544 4.830875,6.208875 C4.9316255,6.12112456 5.08491564,6.07725 5.29075,6.07725 C5.40991726,6.07725 5.51608287,6.09295818 5.60925,6.124375 C5.70241713,6.15579182 5.7852913,6.1909998 5.857875,6.23 C5.9304587,6.26900019 5.99545805,6.30420818 6.052875,6.335625 C6.11029195,6.36704182 6.16391642,6.38275 6.21375,6.38275 C6.27008362,6.38275 6.31612482,6.36975013 6.351875,6.34375 C6.38762518,6.31774987 6.42174984,6.27875026 6.45425,6.22675 Z M9.7595,7.8355 L8.54075,5.43375 C8.51908322,5.39258313 8.49687511,5.36062511 8.474125,5.337875 C8.45137489,5.31512489 8.42591681,5.29833339 8.39775,5.2875 C8.36958319,5.27666661 8.33762518,5.27016668 8.301875,5.268 C8.26612482,5.26583332 8.2244169,5.26475 8.17675,5.26475 L7.33825,5.26475 L7.33825,10 L8.30675,10 L8.30675,7.2765 C8.30675,7.21366635 8.30458335,7.14487537 8.30025,7.070125 C8.29591664,6.99537463 8.28941671,6.92008371 8.28075,6.84425 L9.54175,9.28175 C9.58075019,9.35758371 9.63329134,9.41499981 9.699375,9.454 C9.76545866,9.4930002 9.84074958,9.5125 9.92525,9.5125 L10.07475,9.5125 C10.1592504,9.5125 10.2345413,9.4930002 10.300625,9.454 C10.3667087,9.41499981 10.4192498,9.35758371 10.45825,9.28175 L11.71275,6.8475 C11.6997499,7.0013341 11.69325,7.14433267 11.69325,7.2765 L11.69325,10 L12.66175,10 L12.66175,5.26475 L11.82325,5.26475 C11.7755831,5.26475 11.7338752,5.26583332 11.698125,5.268 C11.6623748,5.27016668 11.6304168,5.27666661 11.60225,5.2875 C11.5740832,5.29833339 11.5486251,5.31512489 11.525875,5.337875 C11.5031249,5.36062511 11.4809168,5.39258313 11.45925,5.43375 L10.24375,7.82575 C10.2004164,7.91025042 10.1581669,7.99745788 10.117,8.087375 C10.0758331,8.17729212 10.0368335,8.26991619 10,8.36525 C9.96316648,8.27208287 9.92470853,8.18108378 9.884625,8.09225 C9.84454147,8.00341622 9.80283355,7.91783375 9.7595,7.8355 Z M16.08075,6.22675 L16.35375,5.7165 C16.2692496,5.63849961 16.1733755,5.56862531 16.066125,5.506875 C15.9588745,5.44512469 15.8435006,5.39204189 15.72,5.347625 C15.5964994,5.30320811 15.465959,5.26962511 15.328375,5.246875 C15.190791,5.22412489 15.0494174,5.21275 14.90425,5.21275 C14.6442487,5.21275 14.413501,5.25229127 14.212,5.331375 C14.010499,5.41045873 13.8404174,5.51608267 13.70175,5.64825 C13.5630826,5.78041733 13.4580004,5.93099915 13.3865,6.1 C13.3149996,6.26900084 13.27925,6.44233244 13.27925,6.62 C13.27925,6.8410011 13.309583,7.02679091 13.37025,7.177375 C13.430917,7.32795909 13.5105412,7.4536245 13.609125,7.554375 C13.7077088,7.6551255 13.8198327,7.73637469 13.9455,7.798125 C14.0711673,7.85987531 14.2000827,7.91187479 14.33225,7.954125 C14.4644173,7.99637521 14.5933327,8.03483316 14.719,8.0695 C14.8446673,8.10416684 14.9567912,8.14424977 15.055375,8.18975 C15.1539588,8.23525023 15.233583,8.29266632 15.29425,8.362 C15.354917,8.43133368 15.38525,8.52124945 15.38525,8.63175 C15.38525,8.82241762 15.3300006,8.96162456 15.2195,9.049375 C15.1089994,9.13712544 14.9540843,9.181 14.75475,9.181 C14.6074159,9.181 14.4795839,9.16041687 14.37125,9.11925 C14.2629161,9.07808313 14.1670421,9.03258358 14.083625,8.98275 C14.0002079,8.93291642 13.9254587,8.88741687 13.859375,8.84625 C13.7932913,8.80508313 13.7277503,8.7845 13.66275,8.7845 C13.6129164,8.7845 13.5663336,8.79641655 13.523,8.82025 C13.4796665,8.84408345 13.4460835,8.87549981 13.42225,8.9145 L13.09725,9.428 C13.1904171,9.52116713 13.2998327,9.60566629 13.4255,9.6815 C13.5511673,9.75733371 13.6854993,9.82287472 13.8285,9.878125 C13.9715007,9.93337528 14.1193742,9.97616651 14.272125,10.0065 C14.4248758,10.0368335 14.5749159,10.052 14.72225,10.052 C14.990918,10.052 15.2308739,10.0113754 15.442125,9.930125 C15.6533761,9.84887459 15.8310409,9.73729238 15.975125,9.595375 C16.1192091,9.45345762 16.2291663,9.28716762 16.305,9.0965 C16.3808337,8.90583238 16.41875,8.70108443 16.41875,8.48225 C16.41875,8.28508235 16.388417,8.1166257 16.32775,7.976875 C16.267083,7.8371243 16.1874588,7.71850049 16.088875,7.621 C15.9902912,7.52349951 15.8776256,7.44333365 15.750875,7.3805 C15.6241244,7.31766635 15.4946673,7.26295857 15.3625,7.216375 C15.2303327,7.16979143 15.1008756,7.12754186 14.974125,7.089625 C14.8473744,7.05170814 14.7347088,7.01000023 14.636125,6.9645 C14.5375412,6.91899977 14.457917,6.86483365 14.39725,6.802 C14.336583,6.73916635 14.30625,6.66008381 14.30625,6.56475 C14.30625,6.41524925 14.3566245,6.29662544 14.457375,6.208875 C14.5581255,6.12112456 14.7114156,6.07725 14.91725,6.07725 C15.0364173,6.07725 15.1425829,6.09295818 15.23575,6.124375 C15.3289171,6.15579182 15.4117913,6.1909998 15.484375,6.23 C15.5569587,6.26900019 15.621958,6.30420818 15.679375,6.335625 C15.736792,6.36704182 15.7904164,6.38275 15.84025,6.38275 C15.8965836,6.38275 15.9426248,6.36975013 15.978375,6.34375 C16.0141252,6.31774987 16.0482498,6.27875026 16.08075,6.22675 Z" id="path-1"></path>
    </defs>
    <g id="Drop2_Bucket2_VisualDesign" stroke="none" stroke-width="1" fill="none" fill-rule="evenodd">
        <g id="LATEST-PLAN-UPDATE_1" transform="translate(-16.000000, -297.000000)">
            <g id="Mobileapp/Listitem/Single-Line-Item-Copy" transform="translate(0.000000, 292.000000)">
                <g id="Label" transform="translate(16.000000, 4.000000)">
                    <g id="Icon" transform="translate(0.000000, 1.000000)">
                        <g id="sms-icon">
                            <mask id="mask-2" fill="white">
                                <use xlink:href="#path-1"></use>
                            </mask>
                            <use id="Combined-Shape" fill="#999999" fill-rule="nonzero" xlink:href="#path-1"></use>
                        </g>
                    </g>
                </g>
            </g>
        </g>
    </g>
</svg>