<?xml version="1.0" encoding="UTF-8"?>
<svg width="32px" height="32px" viewBox="0 0 32 32" version="1.1" xmlns="http://www.w3.org/2000/svg" xmlns:xlink="http://www.w3.org/1999/xlink">
    <!-- Generator: Sketch 48.2 (47327) - http://www.bohemiancoding.com/sketch -->
    <title>icon/icon_transaction-history</title>
    <desc>Created with Sketch.</desc>
    <defs>
        <path d="M2.4,2.4 L2.4,19.2 L12.64,19.2 C12.36,19.96 12.16,20.76 12.08,21.6 L2.4,21.6 C1.08,21.6 0,20.52 0,19.2 L0,2.4 C0,1.08 1.08,0 2.4,0 L27.6,0 C28.92,0 30,1.08 30,2.4 L30,6.4 L30,8.8 L30,14.76 C29.28,14.12 28.48,13.56 27.6,13.12 L27.6,8.8 L27.6,6.4 L27.6,2.4 L2.4,2.4 Z M9.3854,8.1218 C9.2564,8.3098 9.0964,8.4768 8.9064,8.6228 C8.7164,8.7698 8.4964,8.8908 8.2484,8.9848 C8.3634,9.0448 8.4724,9.1188 8.5734,9.2078 C8.6754,9.2968 8.7654,9.4028 8.8454,9.5248 L10.4714,12.1828 L8.8674,12.1828 C8.5704,12.1828 8.3564,12.0708 8.2274,11.8468 L6.9584,9.6298 C6.8994,9.5348 6.8334,9.4658 6.7594,9.4228 C6.6864,9.3788 6.5814,9.3568 6.4444,9.3568 L5.9944,9.3568 L5.9944,12.1828 L4.2234,12.1828 L4.2234,4.5448 L6.7074,4.5448 C7.2594,4.5448 7.7304,4.6018 8.1194,4.7158 C8.5094,4.8288 8.8274,4.9868 9.0744,5.1898 C9.3204,5.3928 9.4994,5.6318 9.6114,5.9078 C9.7224,6.1838 9.7794,6.4838 9.7794,6.8088 C9.7794,7.0578 9.7454,7.2918 9.6794,7.5118 C9.6124,7.7328 9.5154,7.9358 9.3854,8.1218 Z M7.9754,7.4098 C8.0244,7.2648 8.0484,7.1088 8.0484,6.9408 C8.0484,6.6048 7.9394,6.3438 7.7214,6.1538 C7.5024,5.9658 7.1644,5.8718 6.7074,5.8718 L5.9944,5.8718 L5.9944,8.1358 L6.7074,8.1358 C6.9484,8.1358 7.1534,8.1048 7.3224,8.0438 C7.4924,7.9828 7.6314,7.8978 7.7404,7.7898 C7.8484,7.6808 7.9264,7.5548 7.9754,7.4098 Z M12.6407,7.0873 C12.6507,7.2123 12.6607,7.3363 12.6667,7.4563 C12.6737,7.5773 12.6777,7.6893 12.6777,7.7893 L12.6777,12.1823 L11.1147,12.1823 L11.1147,4.5443 L12.4677,4.5443 C12.5447,4.5443 12.6117,4.5463 12.6697,4.5503 C12.7277,4.5533 12.7787,4.5643 12.8237,4.5813 C12.8697,4.5993 12.9117,4.6263 12.9477,4.6623 C12.9847,4.6993 13.0207,4.7513 13.0557,4.8173 L15.0207,8.6913 C15.0907,8.8243 15.1577,8.9623 15.2227,9.1053 C15.2877,9.2483 15.3497,9.3963 15.4087,9.5463 C15.4687,9.3923 15.5307,9.2413 15.5947,9.0953 C15.6597,8.9483 15.7287,8.8083 15.8017,8.6763 L17.7627,4.8173 C17.7977,4.7513 17.8337,4.6993 17.8697,4.6623 C17.9067,4.6263 17.9477,4.5993 17.9927,4.5813 C18.0377,4.5643 18.0897,4.5533 18.1477,4.5503 C18.2057,4.5463 18.2727,4.5443 18.3497,4.5443 L19.7017,4.5443 L19.7017,12.1823 L18.1397,12.1823 L18.1397,7.7893 C18.1397,7.6893 18.1417,7.5783 18.1477,7.4593 C18.1537,7.3403 18.1627,7.2203 18.1767,7.0973 L16.1487,11.0243 C16.0847,11.1473 15.9997,11.2393 15.8937,11.3023 C15.7877,11.3653 15.6657,11.3963 15.5297,11.3963 L15.2887,11.3963 C15.1517,11.3963 15.0307,11.3653 14.9237,11.3023 C14.8177,11.2393 14.7327,11.1473 14.6697,11.0243 L12.6407,7.0873 Z M22.84,13.68 C27.899,13.68 32,17.781 32,22.84 C32,27.899 27.899,32 22.84,32 C17.781,32 13.68,27.899 13.68,22.84 C13.68,17.781 17.781,13.68 22.84,13.68 Z M22.84,30 C26.788,30 30,26.788 30,22.84 C30,18.892 26.788,15.68 22.84,15.68 C18.892,15.68 15.68,18.892 15.68,22.84 C15.68,26.788 18.892,30 22.84,30 Z M23.1501,18.5106 L23.1501,22.6676 L26.6351,24.7026 L25.9181,25.8856 L21.6571,23.4016 L21.6571,18.5106 L23.1501,18.5106 Z" id="path-1"></path>
    </defs>
    <g id="Page-1" stroke="none" stroke-width="1" fill="none" fill-rule="evenodd">
        <g id="icon/icon_transaction-history">
            <mask id="mask-2" fill="white">
                <use xlink:href="#path-1"></use>
            </mask>
            <use id="Combined-Shape" fill="#333333" xlink:href="#path-1"></use>
        </g>
    </g>
</svg>