<?xml version="1.0" encoding="UTF-8"?>
<svg width="32px" height="32px" viewBox="0 0 32 32" version="1.1" xmlns="http://www.w3.org/2000/svg" xmlns:xlink="http://www.w3.org/1999/xlink">
    <!-- Generator: Sketch 48.2 (47327) - http://www.bohemiancoding.com/sketch -->
    <title>icon/icon_group-sharing</title>
    <desc>Created with Sketch.</desc>
    <defs>
        <path d="M31.6936104,13.7933626 C31.0246764,11.0340099 29.4777665,10.1978424 27.5127729,9.19444141 C27.8890483,8.4000823 28.0980902,7.56391481 28.0980902,6.68593894 C28.0980902,3.55031085 25.5477793,1 22.4121512,1 C19.2765231,1 16.7680207,3.55031085 16.7680207,6.68593894 C16.7680207,9.82156703 19.3183315,12.3718779 22.4539596,12.3718779 C23.7918276,12.3718779 25.0878872,11.9119858 26.0912882,11.0340099 L26.2585217,11.1176266 C28.3489404,12.162836 29.1014912,12.5391114 29.5195749,14.5877217 C29.645,15.2148473 29.6868084,15.5493143 29.6868084,15.5493143 C29.6868084,16.0510148 29.5195749,16.510907 29.1851079,16.845374 C28.8506409,17.179841 28.3907488,17.3888828 27.9308567,17.3888828 L22.0776842,17.3888828 C21.8686424,14.2114464 19.1929064,11.6611355 15.9736615,11.6611355 C12.7126083,11.6611355 10.0786807,14.169638 9.86963886,17.3888828 L4.01646642,17.3888828 C3.51476592,17.3888828 3.09668218,17.179841 2.76221518,16.845374 C2.42774819,16.510907 2.26051469,16.0510148 2.26051469,15.5911227 C2.26051469,15.5911227 2.30232306,15.2566557 2.42774819,14.5877217 C2.84583193,12.5391114 3.64019105,12.162836 5.6888014,11.1176266 L5.8560349,11.0340099 C6.85943589,11.9119858 8.1554955,12.3718779 9.49336349,12.3718779 C12.6289916,12.3718779 15.1793024,9.82156703 15.1793024,6.68593894 C15.1793024,3.55031085 12.6289916,1 9.49336349,1 C6.35773539,1 3.89104129,3.55031085 3.89104129,6.68593894 C3.89104129,7.56391481 4.10008317,8.4000823 4.47635854,9.19444141 C2.51136493,10.156034 0.964455076,10.9922015 0.295521083,13.7933626 C0.0446708357,14.9221887 0.00286246111,15.4656976 0.00286246111,15.507506 C-0.0389459134,16.6363321 0.379137832,17.6815414 1.13168857,18.4759006 C1.88423932,19.2702597 2.92944868,19.6883434 4.05827479,19.6883434 L10.2041059,19.6883434 C10.2877226,19.981002 10.4131477,20.2318523 10.5385728,20.4827025 C9.74421373,20.8589779 8.90804624,21.2770617 8.19730387,21.8623789 C7.69560338,22.2386543 7.27751963,22.7403548 6.85943589,23.3674804 C6.69220239,23.6183306 6.52496889,23.9109893 6.39954377,24.2454563 C6.35773539,24.4126898 6.14869352,24.9143902 6.10688515,25.2070489 C5.93965165,25.7087494 5.6888014,27.2138508 5.6888014,27.2974676 C5.64699303,28.4681021 6.10688515,29.5969282 6.90124426,30.4749041 C7.73741175,31.3110716 8.82442949,31.7709637 10.0368724,31.7709637 L21.9522591,31.7709637 C23.1228936,31.7709637 24.2517197,31.3110716 25.0878872,30.4330957 C25.9240547,29.5969282 26.3421384,28.4681021 26.3003301,27.2556592 C26.3003301,27.0884257 26.2585217,26.5449169 25.9658631,25.4160907 L25.7986296,24.7471567 L25.7150128,24.5381149 C25.5895877,24.2454563 25.4641626,23.9109893 25.2969291,23.6183306 C24.8370369,22.9493966 24.3771448,22.2386543 23.6664025,21.7369538 C23.0392768,21.2770617 22.3703428,20.9425947 21.7014089,20.5663193 L21.4505586,20.4827025 C21.5759837,20.2318523 21.7014089,19.9391937 21.7850256,19.6883434 L27.9308567,19.6883434 C29.0596828,19.6883434 30.0630838,19.2702597 30.8574429,18.4759006 C31.6099936,17.6815414 32.0280774,16.6363321 31.986269,15.507506 C32.0280774,15.4238892 31.986269,14.8803804 31.6936104,13.7933626 Z M25.8404379,6.68593894 C25.8404379,8.56731579 24.3353365,10.0724173 22.4539596,10.0724173 C20.5725827,10.0724173 19.0674813,8.56731579 19.0674813,6.68593894 C19.0674813,4.80456208 20.5725827,3.2994606 22.4539596,3.2994606 C24.3353365,3.2994606 25.8404379,4.80456208 25.8404379,6.68593894 Z M23.3737438,28.8025691 C22.9974685,29.1788445 22.495768,29.3878863 21.9522591,29.3878863 L10.0786807,29.3878863 C9.53517186,29.3878863 9.03347137,29.1788445 8.65719599,28.8025691 C8.28092062,28.4262937 8.07187875,27.9245932 8.11368712,27.4228927 C8.11368712,27.3810843 8.1554955,27.1302341 8.322729,26.2940666 C8.78262112,24.0782228 9.61878861,23.660139 11.8764408,22.5313129 L12.0854827,22.4476961 C13.1725004,23.3674804 14.5939852,23.9109893 16.0154699,23.9109893 C17.4369547,23.9109893 18.8584394,23.4092888 19.9454571,22.4476961 L20.154499,22.5731213 C22.4121512,23.7019474 23.2483187,24.1200311 23.7082108,26.335875 L23.7500192,26.5449169 C23.8754443,27.0884257 23.8754443,27.3810843 23.8754443,27.3810843 C23.9590611,27.9245932 23.7500192,28.4262937 23.3737438,28.8025691 Z M16.0154699,21.4861035 C13.9668596,21.4861035 12.2945246,19.8137685 12.2945246,17.7651582 C12.2945246,15.7165478 13.9668596,14.0442129 16.0154699,14.0442129 C18.0640803,14.0442129 19.7364153,15.7165478 19.7364153,17.7651582 C19.7364153,19.8137685 18.0640803,21.4861035 16.0154699,21.4861035 Z M6.1905019,6.68593894 C6.1905019,4.80456208 7.69560338,3.2994606 9.57698023,3.2994606 C11.4583571,3.2994606 12.9634586,4.80456208 12.9634586,6.68593894 C12.9634586,8.56731579 11.4583571,10.0724173 9.57698023,10.0724173 C7.69560338,10.0724173 6.1905019,8.56731579 6.1905019,6.68593894 Z" id="path-1"></path>
    </defs>
    <g id="Page-1" stroke="none" stroke-width="1" fill="none" fill-rule="evenodd">
        <g id="icon/icon_group-sharing">
            <mask id="mask-2" fill="white">
                <use xlink:href="#path-1"></use>
            </mask>
            <use id="Shape" fill="#000000" fill-rule="nonzero" xlink:href="#path-1"></use>
        </g>
    </g>
</svg>