<?xml version="1.0" encoding="UTF-8"?>
<svg width="32px" height="32px" viewBox="0 0 32 32" version="1.1" xmlns="http://www.w3.org/2000/svg" xmlns:xlink="http://www.w3.org/1999/xlink">
    <!-- Generator: Sketch 48.2 (47327) - http://www.bohemiancoding.com/sketch -->
    <title>icon/icon_log-out</title>
    <desc>Created with Sketch.</desc>
    <defs>
        <path d="M19.32,9.76 L14.52,14.48 L32,14.48 L32,17.52 L14.52,17.52 L19.32,22.24 L17.08,24.4 L8.48,16 L17.08,7.6 L19.32,9.76 Z M28.6,0 C30.48,0 32,1.52 32,3.4 L32,10.4 L28.8,10.4 L28.8,3.2 L3.2,3.2 L3.2,28.8 L28.8,28.8 L28.8,21.6 L32,21.6 L32,28.6 C32,30.48 30.48,32 28.6,32 L3.4,32 C1.52,32 0,30.48 0,28.6 L0,3.4 C0,1.52 1.52,0 3.4,0 L28.6,0 Z" id="path-1"></path>
    </defs>
    <g id="Page-1" stroke="none" stroke-width="1" fill="none" fill-rule="evenodd">
        <g id="icon/icon_log-out">
            <mask id="mask-2" fill="white">
                <use xlink:href="#path-1"></use>
            </mask>
            <use id="Combined-Shape" fill="#000000" fill-rule="nonzero" xlink:href="#path-1"></use>
        </g>
    </g>
</svg>