<?xml version="1.0" encoding="UTF-8"?>
<svg width="32px" height="32px" viewBox="0 0 32 32" version="1.1" xmlns="http://www.w3.org/2000/svg" xmlns:xlink="http://www.w3.org/1999/xlink">
    <!-- Generator: Sketch 48.2 (47327) - http://www.bohemiancoding.com/sketch -->
    <title>icon/icon_download</title>
    <desc>Created with Sketch.</desc>
    <defs></defs>
    <g id="Page-1" stroke="none" stroke-width="1" fill="none" fill-rule="evenodd">
        <g id="icon/icon_download" fill="#000000" fill-rule="nonzero">
            <path d="M14.6666667,0 L14.6666667,22.0833333 L7.625,15.0416667 L5.70833333,16.9583333 L15.0416667,26.2916667 L16,27.2083333 L16.9583333,26.2916667 L26.2916667,16.9583333 L24.375,15.0416667 L17.3333333,22.0833333 L17.3333333,0 L14.6666667,0 Z M4,29.3333333 L4,32 L28,32 L28,29.3333333 L4,29.3333333 Z" id="Shape"></path>
        </g>
    </g>
</svg>