<?xml version="1.0" encoding="UTF-8"?>
<svg width="32px" height="32px" viewBox="0 0 32 32" version="1.1" xmlns="http://www.w3.org/2000/svg" xmlns:xlink="http://www.w3.org/1999/xlink">
    <!-- Generator: Sketch 48.2 (47327) - http://www.bohemiancoding.com/sketch -->
    <title>icon/icon_edit</title>
    <desc>Created with Sketch.</desc>
    <defs>
        <path d="M26.5706941,0 C25.1928021,0 23.81491,0.53470437 22.7455013,1.60411311 L1.93316195,22.4164524 L1.85089974,22.8277635 L0.411311054,30.066838 L0,32 L1.93316195,31.5886889 L9.1722365,30.1491003 L9.58354756,30.066838 L30.3958869,9.25449871 C32.5347044,7.11568123 32.5347044,3.74293059 30.3958869,1.60411311 C29.3264781,0.53470437 27.9485861,0 26.5706941,0 Z M26.5706941,2.50899743 C27.2339328,2.50899743 27.902314,2.81233966 28.5449871,3.45501285 C29.8251925,4.73521818 29.8251925,6.12339365 28.5449871,7.40359897 L27.5989717,8.30848329 L23.6915167,4.40102828 L24.596401,3.45501285 C25.2390742,2.81233966 25.9074553,2.50899743 26.5706941,2.50899743 Z M21.840617,6.25192802 L25.748072,10.159383 L9.83033419,26.0771208 C8.96658098,24.3907455 7.6092545,23.033419 5.92287918,22.1696658 L21.840617,6.25192802 Z M4.23650386,24.3084833 C5.81491035,24.9460154 7.05398458,26.1850896 7.69151671,27.7634961 L3.37275064,28.6272494 L4.23650386,24.3084833 Z" id="path-1"></path>
    </defs>
    <g id="Page-1" stroke="none" stroke-width="1" fill="none" fill-rule="evenodd">
        <g id="icon/icon_edit">
            <mask id="mask-2" fill="white">
                <use xlink:href="#path-1"></use>
            </mask>
            <use id="Shape" fill="#000000" fill-rule="nonzero" xlink:href="#path-1"></use>
        </g>
    </g>
</svg>