<?xml version="1.0" encoding="UTF-8"?>
<svg width="32px" height="36px" viewBox="0 0 32 36" version="1.1" xmlns="http://www.w3.org/2000/svg" xmlns:xlink="http://www.w3.org/1999/xlink">
    <!-- Generator: Sketch 47.1 (45422) - http://www.bohemiancoding.com/sketch -->
    <title>Shape</title>
    <desc>Created with Sketch.</desc>
    <defs></defs>
    <g id="Symbols" stroke="none" stroke-width="1" fill="none" fill-rule="evenodd">
        <g id="Icons_QuickReload_333333-Copy-4" transform="translate(-1.000000, 0.000000)" fill-rule="nonzero" fill="#000000">
            <path d="M1,0 L1,36 L32.7593985,36 L32.7593985,0 L1,0 Z M4.17593985,3 L29.5834586,3 L29.5834586,33 L4.17593985,33 L4.17593985,3 Z M15,16 L15,19 L18.356391,19 L18.356391,16 L15,16 Z M8,16 L8,19 L11.356391,19 L11.356391,16 L8,16 Z M22,16 L22,19 L25.356391,19 L25.356391,16 L22,16 Z" id="Shape"></path>
        </g>
    </g>
</svg>