<?xml version="1.0" encoding="UTF-8"?>
<svg width="32px" height="32px" viewBox="0 0 32 32" version="1.1" xmlns="http://www.w3.org/2000/svg" xmlns:xlink="http://www.w3.org/1999/xlink">
    <!-- Generator: Sketch 48.1 (47250) - http://www.bohemiancoding.com/sketch -->
    <title>Combined Shape</title>
    <desc>Created with Sketch.</desc>
    <defs>
        <path d="M2.4,19.2 L12.64,19.2 C12.36,19.96 12.16,20.76 12.08,21.6 L2.4,21.6 C1.08,21.6 0,20.52 0,19.2 L0,2.4 C0,1.08 1.08,0 2.4,0 L27.6,0 C28.92,0 30,1.08 30,2.4 L30,6.4 L30,8.8 L30,14.76 C29.28,14.12 28.48,13.56 27.6,13.12 L27.6,8.8 L6.8,8.8 L6.8,6.4 L27.6,6.4 L27.6,2.4 L2.4,2.4 L2.4,19.2 Z M22.84,13.6 C27.88,13.6 32,17.72 32,22.76 C32,25.48 30.8,27.92 28.88,29.6 L32,29.6 L32,31.88 L25.12,31.88 L25.12,25.04 L27.4,25.04 L27.4,27.84 C28.8,26.56 29.68,24.76 29.68,22.76 C29.68,19 26.6,15.92 22.84,15.92 C19.08,15.92 16,18.96 16,22.76 C16,26.12 18.48,28.96 21.68,29.52 L21.68,31.84 C17.16,31.28 13.68,27.4 13.68,22.76 C13.68,17.72 17.8,13.6 22.84,13.6 Z" id="path-1"></path>
    </defs>
    <g id="Icons/CreditAdvance_2" stroke="none" stroke-width="1" fill="none" fill-rule="evenodd">
        <mask id="mask-2" fill="white">
            <use xlink:href="#path-1"></use>
        </mask>
        <use id="Combined-Shape" fill="#000000" fill-rule="nonzero" xlink:href="#path-1"></use>
    </g>
</svg>