<?xml version="1.0" encoding="UTF-8"?>
<svg width="32px" height="32px" viewBox="0 0 32 32" version="1.1" xmlns="http://www.w3.org/2000/svg" xmlns:xlink="http://www.w3.org/1999/xlink">
    <!-- Generator: Sketch 48.2 (47327) - http://www.bohemiancoding.com/sketch -->
    <title>icon/icon_security-setting</title>
    <desc>Created with Sketch.</desc>
    <defs></defs>
    <g id="Page-1" stroke="none" stroke-width="1" fill="none" fill-rule="evenodd">
        <g id="icon/icon_security-setting" fill="#000000">
            <path d="M12.3702,26.4357 C12.4472,26.4167 12.5202,26.3987 12.5902,26.3917 L14.0092,28.8497 C13.3542,29.1207 12.6882,29.3117 12.0432,29.4967 C5.1752,27.7907 0.0002,20.8927 0.0002,13.4407 L0.0002,5.3757 L12.0442,-0.0003 L23.9892,5.3747 L23.9892,11.7337 L23.6882,11.7337 L23.4872,11.7337 L21.6802,11.7337 L21.6802,7.3177 L21.6802,7.2527 L21.6212,7.2257 L12.0852,3.0097 L12.0442,2.9927 L12.0042,3.0097 L2.4682,7.2257 L2.4092,7.2527 L2.4092,7.3177 L2.4092,13.6407 C2.4092,19.6447 6.5412,25.1667 12.0442,26.4887 C12.1572,26.4887 12.2652,26.4617 12.3702,26.4357 Z M30.1054,23.0251 L31.6404,24.2251 C32.1004,24.5891 32.2244,25.2391 31.9344,25.7691 L30.1744,28.8141 C29.8824,29.3461 29.2574,29.5741 28.6834,29.3491 L26.8694,28.6211 C26.5714,28.8221 26.2694,28.9991 25.9684,29.1461 L25.6934,31.0621 C25.6204,31.6531 25.1084,32.0991 24.5044,32.0991 L20.9684,32.0991 C20.3644,32.0991 19.8534,31.6581 19.7804,31.0731 L19.5044,29.1481 C19.1954,28.9981 18.8914,28.8211 18.5994,28.6221 L16.7694,29.3571 C16.2124,29.5621 15.5824,29.3331 15.3054,28.8271 L13.5314,25.7571 C13.2444,25.2331 13.3734,24.5891 13.8354,24.2231 L15.3684,23.0241 C15.3534,22.8421 15.3454,22.6691 15.3454,22.5001 C15.3454,22.3311 15.3534,22.1581 15.3684,21.9751 L13.8334,20.7751 C13.3634,20.4041 13.2374,19.7391 13.5404,19.2271 L15.2984,16.1851 C15.5854,15.6611 16.2264,15.4301 16.7894,15.6501 L18.6034,16.3791 C18.9004,16.1781 19.2034,16.0011 19.5044,15.8521 L19.7794,13.9371 C19.8524,13.3471 20.3644,12.9001 20.9684,12.9001 L24.5044,12.9001 C25.1084,12.9001 25.6194,13.3421 25.6924,13.9281 L25.9684,15.8521 C26.2794,16.0031 26.5834,16.1801 26.8734,16.3781 L28.7034,15.6421 C29.2594,15.4401 29.8904,15.6671 30.1674,16.1731 L31.9424,19.2431 C32.2274,19.7671 32.0984,20.4121 31.6364,20.7761 L30.1054,21.9741 C30.1204,22.1591 30.1274,22.3281 30.1274,22.5001 C30.1274,22.6721 30.1204,22.8411 30.1054,23.0251 Z M28.9834,27.8271 L30.4734,25.2501 L28.4924,23.7001 L28.5454,23.2711 C28.5844,22.9631 28.6014,22.7321 28.6014,22.5001 C28.6014,22.2671 28.5844,22.0371 28.5454,21.7281 L28.4924,21.3001 L30.4734,19.7501 L28.9844,17.1731 L26.6464,18.1121 L26.3014,17.8471 C25.8874,17.5271 25.4444,17.2701 24.9834,17.0821 L24.5804,16.9171 L24.2224,14.4261 L21.2514,14.4261 L20.8934,16.9171 L20.4894,17.0821 C20.0464,17.2631 19.6134,17.5141 19.1654,17.8521 L18.8204,18.1101 L18.4224,17.9491 L16.4894,17.1731 L14.9994,19.7501 L16.9814,21.3001 L16.9274,21.7281 C16.8894,22.0301 16.8714,22.2751 16.8714,22.5001 C16.8714,22.7241 16.8894,22.9701 16.9274,23.2711 L16.9814,23.7001 L14.9994,25.2501 L16.4894,27.8271 L18.8264,26.8881 L19.1704,27.1531 C19.5854,27.4731 20.0284,27.7291 20.4894,27.9181 L20.8934,28.0831 L20.9554,28.5161 L21.2514,30.5751 L24.2224,30.5751 L24.5804,28.0831 L24.9834,27.9181 C25.4254,27.7371 25.8594,27.4851 26.3084,27.1471 L26.6524,26.8901 L27.0494,27.0511 L28.9834,27.8271 Z M22.7363,18.644 C24.8623,18.644 26.5913,20.374 26.5913,22.5 C26.5913,24.626 24.8623,26.355 22.7363,26.355 C20.6103,26.355 18.8813,24.626 18.8813,22.5 C18.8813,20.374 20.6103,18.644 22.7363,18.644 Z M22.7363,24.831 C24.0213,24.831 25.0673,23.785 25.0673,22.5 C25.0673,21.215 24.0213,20.169 22.7363,20.169 C21.4523,20.169 20.4063,21.215 20.4063,22.5 C20.4063,23.785 21.4523,24.831 22.7363,24.831 Z" id="Combined-Shape"></path>
        </g>
    </g>
</svg>