<?xml version="1.0" encoding="UTF-8"?>
<svg width="32px" height="32px" viewBox="0 0 32 32" version="1.1" xmlns="http://www.w3.org/2000/svg" xmlns:xlink="http://www.w3.org/1999/xlink">
    <!-- Generator: Sketch 48.2 (47327) - http://www.bohemiancoding.com/sketch -->
    <title>icon/icon_video-call</title>
    <desc>Created with Sketch.</desc>
    <defs>
        <path d="M21.7451737,21.988417 L21.7451737,23.965251 C21.7451737,24.4080618 21.3848958,24.7683398 20.9420849,24.7683398 L3.15057915,24.7683398 C2.70776834,24.7683398 2.34749035,24.4080618 2.34749035,23.965251 L2.34749035,8.15057915 C2.34749035,7.70776834 2.70776834,7.34749035 3.15057915,7.34749035 L20.9420849,7.34749035 C21.3848958,7.34749035 21.7451737,7.70776834 21.7451737,8.15057915 L21.7451737,18.034749 L21.7451737,18.2200772 L21.9305019,18.2200772 L23.9073359,18.2200772 L24.0926641,18.2200772 L24.0926641,18.034749 L24.0926641,11.3011583 L25.8841699,11.3011583 L25.8899768,11.3011583 C26.2016988,11.3011583 26.4951969,11.1802625 26.7164788,10.9607722 L28.3433514,9.32432432 L29.6525097,9.32432432 L29.6525097,22.7915058 L28.3430425,22.7915058 L26.7070888,21.1556139 C26.48661,20.9368649 26.1948417,20.8160309 25.884973,20.8146718 L22.9189189,20.8146718 C22.2716911,20.8146718 21.7451737,21.3411892 21.7451737,21.988417 M30.8262548,6.97683398 L27.8610039,6.97683398 L27.8551969,6.97683398 C27.5435985,6.9767722 27.2501004,7.09766795 27.0287568,7.31722008 L25.4018224,8.95366795 L24.0926641,8.95366795 L24.0926641,8.15057915 C24.0926641,6.41331274 22.6793514,5 20.9420849,5 L3.15057915,5 C1.41331274,5 0,6.41331274 0,8.15057915 L0,23.965251 C0,25.7025174 1.41331274,27.1158301 3.15057915,27.1158301 L20.9420849,27.1158301 C22.6793514,27.1158301 24.0926641,25.7025174 24.0926641,23.965251 L24.0926641,23.1621622 L25.4021313,23.1621622 L27.0380849,24.7980541 C27.2585637,25.0168031 27.550332,25.1376371 27.8602008,25.1389961 L30.8262548,25.1389961 C31.4734826,25.1389961 32,24.6124788 32,23.965251 L32,8.15057915 C32,7.50335135 31.4734826,6.97683398 30.8262548,6.97683398" id="path-1"></path>
    </defs>
    <g id="Page-1" stroke="none" stroke-width="1" fill="none" fill-rule="evenodd">
        <g id="icon/icon_video-call">
            <mask id="mask-2" fill="white">
                <use xlink:href="#path-1"></use>
            </mask>
            <use id="Page-1" fill="#000000" xlink:href="#path-1"></use>
        </g>
    </g>
</svg>