<?xml version="1.0" encoding="UTF-8"?>
<svg width="32px" height="32px" viewBox="0 0 32 32" version="1.1" xmlns="http://www.w3.org/2000/svg" xmlns:xlink="http://www.w3.org/1999/xlink">
    <!-- Generator: Sketch 48.2 (47327) - http://www.bohemiancoding.com/sketch -->
    <title>icon/icon_pass</title>
    <desc>Created with Sketch.</desc>
    <defs>
        <path d="M14.6666667,0 C13.2083333,0 12,1.38095238 12,3.04761905 L12,4.57142857 L0,4.57142857 L0,32 L32,32 L32,4.57142857 L20,4.57142857 L20,3.04761905 C20,1.38095238 18.7916667,0 17.3333333,0 L14.6666667,0 Z M14.6666667,3.04761905 L17.3333333,3.04761905 L17.3333333,6.0952381 L14.6666667,6.0952381 L14.6666667,3.04761905 Z M2.66666667,7.61904762 L12,7.61904762 L12,9.14285714 L20,9.14285714 L20,7.61904762 L29.3333333,7.61904762 L29.3333333,28.952381 L2.66666667,28.952381 L2.66666667,7.61904762 Z M16,14 C17.489584,14 18.6666667,15.177084 18.6666667,16.6666667 C18.6666667,18.1562507 17.489584,19.3333333 16,19.3333333 C14.5104173,19.3333333 13.3333333,18.1562507 13.3333333,16.6666667 C13.3333333,15.177084 14.5104173,14 16,14 Z M16,11.3333333 C13.067708,11.3333333 10.6666667,13.7343747 10.6666667,16.6666667 C10.6666667,18.1562507 11.2916667,19.505208 12.2864587,20.4739587 C10.505208,21.677084 9.33333333,23.7083333 9.33333333,26 L12,26 C12,23.7760413 13.7760413,22 16,22 C18.2239587,22 20,23.7760413 20,26 L22.6666667,26 C22.6666667,23.7083333 21.494792,21.677084 19.7135413,20.4739587 C20.7083333,19.505208 21.3333333,18.1562507 21.3333333,16.6666667 C21.3333333,13.7343747 18.932292,11.3333333 16,11.3333333 Z" id="path-1"></path>
    </defs>
    <g id="Page-1" stroke="none" stroke-width="1" fill="none" fill-rule="evenodd">
        <g id="icon/icon_pass">
            <mask id="mask-2" fill="white">
                <use xlink:href="#path-1"></use>
            </mask>
            <use id="Combined-Shape" fill="#000000" fill-rule="nonzero" xlink:href="#path-1"></use>
        </g>
    </g>
</svg>