<?xml version="1.0" encoding="UTF-8" standalone="no"?>
<svg width="19px" height="22px" viewBox="0 0 19 22" version="1.1" xmlns="http://www.w3.org/2000/svg"
>
  <!-- Generator: Sketch 47.1 (45422) - http://www.bohemiancoding.com/sketch -->
  <title>Icon_PayNow</title>
  <desc>Created with Sketch.</desc>
  <defs></defs>
  <g id="Symbols" stroke="none" stroke-width="1" fill="none" fill-rule="evenodd">
    <g id="QuickLink_PayNow" transform="translate(-23.000000, -13.000000)" fill="#333333">
      <g id="Pay-Now">
        <g id="icons8-refresh" transform="translate(23.000000, 13.000000)">
          <g id="Icon_PayNow">
            <g id="bill">
              <path
                d="M0,0 L0,22 L18.3333333,22 L18.3333333,0 L0,0 Z M1.83333333,1.83333333 L16.5,1.83333333 L16.5,20.1666667 L1.83333333,20.1666667 L1.83333333,1.83333333 Z M3.66666667,5.5 L3.66666667,7.33333333 L14.6666667,7.33333333 L14.6666667,5.5 L3.66666667,5.5 Z M3.66666667,11 L3.66666667,12.8333333 L10.0833333,12.8333333 L10.0833333,11 L3.66666667,11 Z M11.9166667,11 L11.9166667,12.8333333 L14.6666667,12.8333333 L14.6666667,11 L11.9166667,11 Z M3.66666667,14.6666667 L3.66666667,16.5 L10.0833333,16.5 L10.0833333,14.6666667 L3.66666667,14.6666667 Z M11.9166667,14.6666667 L11.9166667,16.5 L14.6666667,16.5 L14.6666667,14.6666667 L11.9166667,14.6666667 Z"
                id="Shape" fill-rule="nonzero"></path>
            </g>
          </g>
        </g>
      </g>
    </g>
  </g>
</svg>
