<?xml version="1.0" encoding="UTF-8" standalone="no"?>
<svg width="11px" height="17px" viewBox="0 0 11 17" version="1.1" xmlns="http://www.w3.org/2000/svg"
>
  <!-- Generator: Sketch 47 (45396) - http://www.bohemiancoding.com/sketch -->
  <title>chevron copy</title>
  <desc>Created with Sketch.</desc>
  <defs></defs>
  <g id="Page-1" stroke="none" stroke-width="1" fill="none" fill-rule="evenodd">
    <g id="Menu" transform="translate(-271.000000, -113.000000)" fill-rule="nonzero" stroke="#FFFFFF" stroke-width="1.3"
       fill="#FFFFFF">
      <g id="User-Avatar-&amp;-Name">
        <g id="User-Name" transform="translate(71.000000, 103.000000)">
          <polygon id="chevron-copy"
                   transform="translate(205.511587, 18.428126) scale(-1, 1) rotate(-180.000000) translate(-205.511587, -18.428126) "
                   points="201.877618 11 201.076158 11.8066744 208.387654 18.4303668 201.076158 25.0585416 201.877618 25.8562524 209.947017 18.4303668"></polygon>
        </g>
      </g>
    </g>
  </g>
</svg>
