<?xml version="1.0" encoding="UTF-8"?>
<svg width="32px" height="32px" viewBox="0 0 32 32" version="1.1" xmlns="http://www.w3.org/2000/svg" xmlns:xlink="http://www.w3.org/1999/xlink">
    <!-- Generator: Sketch 48.2 (47327) - http://www.bohemiancoding.com/sketch -->
    <title>icon/icon_whatsapp</title>
    <desc>Created with Sketch.</desc>
    <defs></defs>
    <g id="Page-1" stroke="none" stroke-width="1" fill="none" fill-rule="evenodd">
        <g id="icon/icon_whatsapp" fill="#000000" fill-rule="nonzero">
            <g id="icon-Whatsapp">
                <path d="M26.9880472,4.59999967 C24.0162263,1.63589776 20.0675083,0 15.8617118,0 C7.19304254,0 0.133681214,7.03589744 0.133681214,15.6820519 C0.128538667,18.4461535 0.85349959,21.1435901 2.23143762,23.5230773 L0,31.6512821 L8.33961071,29.4666673 C10.6327457,30.7179494 13.2240919,31.3743596 15.8565705,31.3794875 L15.8617118,31.3794875 C24.5303823,31.3794875 31.5846024,24.3435901 31.5897436,15.6923077 C31.5897436,11.5025644 29.9547282,7.56410289 26.9880472,4.59999967 Z M15.8617118,28.7282058 L15.8565705,28.7282058 C13.5120192,28.7282058 11.2086004,28.0974362 9.20339274,26.9128205 L8.72522671,26.6307689 L3.77390557,27.9230766 L5.09528611,23.1128208 L4.78679253,22.6205131 C3.47569445,20.5435904 2.78672608,18.1435904 2.78672608,15.6820519 C2.78672608,8.49743557 8.65324554,2.65128172 15.8668543,2.65128172 C19.3579724,2.65128172 22.6382882,4.01025707 25.106237,6.47179553 C27.5741857,8.93846187 28.9315575,12.2102561 28.9315575,15.6923077 C28.9315575,22.8820519 23.065038,28.7282058 15.8617118,28.7282058 Z M23.0290468,18.9641032 C22.6382882,18.7692308 20.7050617,17.8205131 20.3451519,17.6923083 C19.9852434,17.5589744 19.7230235,17.4974359 19.4608036,17.8871795 C19.1985851,18.282051 18.4479167,19.1641022 18.2165468,19.425641 C17.9903182,19.6820519 17.7589483,19.7179484 17.3681897,19.5230773 C16.9722887,19.3282048 15.7074656,18.9128205 14.2061301,17.5743593 C13.0389957,16.5384612 12.2471962,15.2512827 12.0209675,14.8615391 C11.7895963,14.4666663 11.9952587,14.2564103 12.1906387,14.0615391 C12.3705936,13.8871795 12.5865385,13.6051279 12.7819184,13.374359 C12.977297,13.1487179 13.0441369,12.9846154 13.1778182,12.7230766 C13.3063568,12.4615391 13.2395169,12.2307689 13.1418269,12.0358978 C13.0441369,11.8410253 12.2574786,9.90769231 11.9284188,9.12307725 C11.6096427,8.35897502 11.2857241,8.46666699 11.0440705,8.45128205 C10.8178419,8.4410263 10.555622,8.4410263 10.2934034,8.4410263 C10.0311835,8.4410263 9.60443376,8.53846121 9.24452521,8.93333399 C8.88461538,9.32307758 7.87172841,10.2717952 7.87172841,12.2000003 C7.87172841,14.1282055 9.28051516,15.9948721 9.4758951,16.2564109 C9.67127372,16.5128205 12.2471962,20.4717949 16.1907716,22.1692311 C17.1265361,22.5743596 17.856637,22.8153843 18.4273504,22.9948718 C19.3682562,23.2923083 20.226897,23.2512827 20.9055829,23.1538465 C21.6613912,23.0410253 23.229568,22.2051289 23.5586278,21.2871798 C23.8825451,20.3743586 23.8825451,19.5897436 23.7848564,19.425641 C23.6871664,19.2615385 23.4249466,19.1641022 23.0290468,18.9641032 Z" id="Shape"></path>
            </g>
        </g>
    </g>
</svg>