<?xml version="1.0" encoding="UTF-8"?>
<svg width="32px" height="32px" viewBox="0 0 32 32" version="1.1" xmlns="http://www.w3.org/2000/svg" xmlns:xlink="http://www.w3.org/1999/xlink">
    <!-- Generator: Sketch 48.2 (47327) - http://www.bohemiancoding.com/sketch -->
    <title>icon/icon_validity-extension</title>
    <desc>Created with Sketch.</desc>
    <defs>
        <path d="M2,8 L22,8 L22,13.6 L24.4,13.6 L24.4,1.48 L19.6,1.48 L19.6,0 L18,0 L18,1.48 L6.4,1.48 L6.4,0 L4.4,0 L4.4,1.48 L0,1.48 L0,24.4 L13.6,24.4 L13.6,22 L2,22 L2,8 Z M2,3.2 L4.4,3.2 L4.4,4.4 L6.4,4.4 L6.4,3.2 L18,3.2 L18,4.4 L19.6,4.4 L19.6,3.2 L22,3.2 L22,6 L2,6 L2,3.2 Z M23.4,14.8 C28.16,14.8 32,18.64 32,23.4 C32,28.16 28.16,32 23.4,32 C18.64,32 14.8,28.16 14.8,23.4 C14.8,18.64 18.64,14.8 23.4,14.8 Z M23.4,30 C27.04,30 30,27.04 30,23.4 C30,19.76 27.04,16.8 23.4,16.8 C19.76,16.8 16.8,19.76 16.8,23.4 C16.8,27.04 19.76,30 23.4,30 Z M23.6,19.2 L23.6,23.32 L27.12,25.44 L26.52,26.4 L22.4,23.92 L22.4,19.2 L23.6,19.2 Z" id="path-1"></path>
    </defs>
    <g id="Page-1" stroke="none" stroke-width="1" fill="none" fill-rule="evenodd">
        <g id="icon/icon_validity-extension">
            <mask id="mask-2" fill="white">
                <use xlink:href="#path-1"></use>
            </mask>
            <use id="Combined-Shape" fill="#000000" fill-rule="nonzero" xlink:href="#path-1"></use>
        </g>
    </g>
</svg>