<?xml version="1.0" encoding="UTF-8"?>
<svg width="32px" height="32px" viewBox="0 0 32 32" version="1.1" xmlns="http://www.w3.org/2000/svg" xmlns:xlink="http://www.w3.org/1999/xlink">
    <!-- Generator: Sketch 48.2 (47327) - http://www.bohemiancoding.com/sketch -->
    <title>icon/icon_change-phone-or-upgrade</title>
    <desc>Created with Sketch.</desc>
    <defs>
        <path d="M1.99982857,29.99991 L12.0001714,29.99991 L12.0001714,14.00009 L1.99982857,14.00009 L1.99982857,29.99991 Z M3.99995714,12 L6.00008572,12 L12.0001714,12 C12.5233789,12 13.0588866,12.1835991 13.437492,12.5624972 C13.8166974,12.9413953 14,13.4765926 14,14.00009 L14,29.99991 C14,30.5234074 13.8166974,31.0586047 13.437492,31.4375028 C13.0588866,31.8164009 12.5233789,32 12.0001714,32 L1.99982857,32 C1.47662109,32 0.941413449,31.8164009 0.562508036,31.4375028 C0.183602623,31.0586047 0,30.5234074 0,29.99991 L0,28.00012 L0,26.00003 L0,25.000135 L0,23.000045 L0,14.00009 C0,13.4765926 0.183602623,12.9413953 0.562508036,12.5624972 C0.941413449,12.1835991 1.47662109,12 1.99982857,12 L3.99995714,12 Z M5.25,29.3333333 L8.3125,29.3333333 L8.3125,27.1111111 L5.25,27.1111111 L5.25,29.3333333 Z M21.9999571,0 L24.0000857,0 L30.0001714,0 C30.5233789,0 31.0588866,0.183599082 31.437492,0.562497188 C31.8166974,0.941395293 32,1.47659262 32,2.00009 L32,17.99991 C32,18.5234074 31.8166974,19.0586047 31.437492,19.4375028 C31.0588866,19.8164009 30.5233789,20 30.0001714,20 L19.9998286,20 C19.4766211,20 18.9414134,19.8164009 18.562508,19.4375028 C18.1836026,19.0586047 18,18.5234074 18,17.99991 L18,16.00012 L18,14.00003 L18,13.000135 L18,11.000045 L18,2.00009 C18,1.47659262 18.1836026,0.941395293 18.562508,0.562497188 C18.9414134,0.183599082 19.4766211,0 19.9998286,0 L21.9999571,0 Z M19.9998286,17.99991 L30.0001714,17.99991 L30.0001714,2.00009 L19.9998286,2.00009 L19.9998286,17.99991 Z M23.25,17.3333333 L23.25,15.1111111 L26.3125,15.1111111 L26.3125,17.3333333 L23.25,17.3333333 Z M6,10 L6,6.01398601 C6,4.37062937 7.36046512,3.00699301 9,3.00699301 L10.9883721,3.00699301 L10.9883721,0 L13.9883721,3.00699301 L15,4.02097902 L13.9883721,5.03496503 L10.9883721,8.04195804 L10.9883721,5.03496503 L9,5.03496503 C8.44186047,5.03496503 7.98837209,5.45454545 7.98837209,6.04895105 L7.98837209,10 L6,10 Z M26,22 L26,25.986014 C26,27.6293706 24.6395349,28.993007 23,28.993007 L21.0116279,28.993007 L21.0116279,32 L18.0116279,28.993007 L17,27.979021 L18.0116279,26.965035 L21.0116279,23.958042 L21.0116279,26.965035 L23,26.965035 C23.5581395,26.965035 24.0116279,26.5454545 24.0116279,25.951049 L24.0116279,22 L26,22 Z" id="path-1"></path>
    </defs>
    <g id="Page-1" stroke="none" stroke-width="1" fill="none" fill-rule="evenodd">
        <g id="icon/icon_change-phone-or-upgrade">
            <mask id="mask-2" fill="white">
                <use xlink:href="#path-1"></use>
            </mask>
            <use id="Combined-Shape" fill="#000000" xlink:href="#path-1"></use>
        </g>
    </g>
</svg>