<?xml version="1.0" encoding="UTF-8"?>
<svg width="32px" height="32px" viewBox="0 0 32 32" version="1.1" xmlns="http://www.w3.org/2000/svg" xmlns:xlink="http://www.w3.org/1999/xlink">
    <!-- Generator: Sketch 48.2 (47327) - http://www.bohemiancoding.com/sketch -->
    <title>icon/icon_single-card</title>
    <desc>Created with Sketch.</desc>
    <defs>
        <path d="M3.42857143,5 C1.54910743,5 0,6.54910743 0,8.42857143 L0,24.4285714 C0,26.3080354 1.54910743,27.8571429 3.42857143,27.8571429 L28.5714286,27.8571429 C30.4508926,27.8571429 32,26.3080354 32,24.4285714 L32,8.42857143 C32,6.54910743 30.4508926,5 28.5714286,5 L3.42857143,5 Z M3.42857143,7.28571429 L28.5714286,7.28571429 C29.2187497,7.28571429 29.7142857,7.78125029 29.7142857,8.42857143 L29.7142857,11.8571429 L5.18580846,11.8571429 L5.18580846,14.1428571 L29.7142857,14.1428571 L29.7142857,24.4285714 C29.7142857,25.0758926 29.2187497,25.5714286 28.5714286,25.5714286 L3.42857143,25.5714286 C2.78125029,25.5714286 2.28571429,25.0758926 2.28571429,24.4285714 L2.28571429,8.42857143 C2.28571429,7.78125029 2.78125029,7.28571429 3.42857143,7.28571429 Z" id="path-1"></path>
    </defs>
    <g id="Page-1" stroke="none" stroke-width="1" fill="none" fill-rule="evenodd">
        <g id="icon/icon_single-card">
            <mask id="mask-2" fill="white">
                <use xlink:href="#path-1"></use>
            </mask>
            <use id="Shape" fill="#000000" fill-rule="nonzero" xlink:href="#path-1"></use>
        </g>
    </g>
</svg>