<?xml version="1.0" encoding="UTF-8"?>
<svg width="24px" height="16px" viewBox="0 0 24 16" version="1.1" xmlns="http://www.w3.org/2000/svg" xmlns:xlink="http://www.w3.org/1999/xlink">
    <!-- Generator: Sketch 48.1 (47250) - http://www.bohemiancoding.com/sketch -->
    <title>Button_Hamburger</title>
    <desc>Created with Sketch.</desc>
    <defs></defs>
    <g id="Dashboard_Celcom" stroke="none" stroke-width="1" fill="none" fill-rule="evenodd" transform="translate(-16.000000, -30.000000)">
        <g id="Button_Hamburger" transform="translate(16.000000, 30.000000)" stroke="#FFFFFF">
            <g id="Hamburger">
                <path d="M0,1 L24,1" id="Line" stroke-width="2"></path>
                <path d="M0,8 L24,8" id="Line-Copy" stroke-width="2"></path>
                <path d="M0,15 L24,15" id="Line-Copy-2" stroke-width="2"></path>
            </g>
        </g>
    </g>
</svg>