<?xml version="1.0" encoding="UTF-8"?>
<svg width="24px" height="24px" viewBox="0 0 24 24" version="1.1" xmlns="http://www.w3.org/2000/svg" xmlns:xlink="http://www.w3.org/1999/xlink">
    <!-- Generator: Sketch 47.1 (45422) - http://www.bohemiancoding.com/sketch -->
    <title>Shape Copy</title>
    <desc>Created with Sketch.</desc>
    <defs></defs>
    <g id="EPIC-14.0-Subscriptions" stroke="none" stroke-width="1" fill="none" fill-rule="evenodd" stroke-linecap="round" stroke-linejoin="round">
        <g id="POSTPAID-SUBSCRIPTIONS_2" transform="translate(-32.000000, -271.000000)" stroke="#FFFFFF" stroke-width="2">
            <g id="POPULAR" transform="translate(16.000000, 256.000000)">
                <g id="Shape" transform="translate(16.000000, 15.000000)">
                    <path d="M14.2665785,8.59994857 L14.2665785,4.06664462 C14.2665785,2.18888865 12.7443565,0.666666667 10.8666005,0.666666667 L6.3332966,10.8666005 L6.3332966,23.3331864 L19.1172137,23.3331864 C20.2474647,23.3459639 21.2143894,22.5240779 21.3838657,21.4065322 L22.9478556,11.2065983 C23.0476517,10.5491053 22.853673,9.88095691 22.4172986,9.37912643 C21.9809243,8.87729596 21.3461845,8.59241802 20.6812036,8.59994857 L14.2665785,8.59994857 Z"></path>
                    <path d="M6.3332966,23.3331864 L2.93331864,23.3331864 C1.68148132,23.3331864 0.666666667,22.3183717 0.666666667,21.0665344 L0.666666667,13.1332525 C0.666666667,11.8814152 1.68148132,10.8666005 2.93331864,10.8666005 L6.3332966,10.8666005 L6.3332966,23.3331864 Z" id="Path" fill="#FFFFFF" fill-rule="evenodd"></path>
                </g>
            </g>
        </g>
    </g>
</svg>