<?xml version="1.0" encoding="UTF-8"?>
<svg width="36px" height="25px" viewBox="0 0 36 25" version="1.1" xmlns="http://www.w3.org/2000/svg" xmlns:xlink="http://www.w3.org/1999/xlink">
    <!-- Generator: Sketch 47.1 (45422) - http://www.bohemiancoding.com/sketch -->
    <title>icons8-bank_card_front_side</title>
    <desc>Created with Sketch.</desc>
    <defs></defs>
    <g id="Symbols" stroke="none" stroke-width="1" fill="none" fill-rule="evenodd">
        <g id="Group-Copy-4" transform="translate(0.000000, -6.000000)" fill-rule="nonzero" fill="#000000">
            <g id="icons8-bank_card_front_side" transform="translate(0.000000, 6.000000)">
                <path d="M3.85714286,0 C1.74274586,0 0,1.69433625 0,3.75 L0,21.25 C0,23.3056638 1.74274586,25 3.85714286,25 L32.1428571,25 C34.2572541,25 36,23.3056638 36,21.25 L36,3.75 C36,1.69433625 34.2572541,0 32.1428571,0 L3.85714286,0 Z M3.85714286,2.5 L32.1428571,2.5 C32.8710934,2.5 33.4285714,3.0419925 33.4285714,3.75 L33.4285714,21.25 C33.4285714,21.9580075 32.8710934,22.5 32.1428571,22.5 L3.85714286,22.5 C3.12890657,22.5 2.57142857,21.9580075 2.57142857,21.25 L2.57142857,3.75 C2.57142857,3.0419925 3.12890657,2.5 3.85714286,2.5 Z M5.14285714,7.5 L5.14285714,12.5 L11.5714286,12.5 L11.5714286,7.5 L5.14285714,7.5 Z M18,7.5 L18,10 L29.5714286,10 L29.5714286,7.5 L18,7.5 Z M5.14285714,16.25 L5.14285714,18.75 L10.2857143,18.75 L10.2857143,16.25 L5.14285714,16.25 Z M11.5714286,16.25 L11.5714286,18.75 L16.7142857,18.75 L16.7142857,16.25 L11.5714286,16.25 Z M18,16.25 L18,18.75 L23.1428571,18.75 L23.1428571,16.25 L18,16.25 Z M24.4285714,16.25 L24.4285714,18.75 L29.5714286,18.75 L29.5714286,16.25 L24.4285714,16.25 Z" id="Shape"></path>
            </g>
        </g>
    </g>
</svg>