<?xml version="1.0" encoding="UTF-8" standalone="no"?>
<svg width="17px" height="17px" viewBox="0 0 17 17" version="1.1" xmlns="http://www.w3.org/2000/svg"
>
  <!-- Generator: Sketch 47.1 (45422) - http://www.bohemiancoding.com/sketch -->
  <title>Icon_Subscription</title>
  <desc>Created with Sketch.</desc>
  <defs></defs>
  <g id="Page-1" stroke="none" stroke-width="1" fill="none" fill-rule="evenodd" opacity="0.9">
    <g id="Celcom_Menu_Option-1" transform="translate(-23.000000, -372.000000)" stroke="#FFFFFF" fill-rule="nonzero"
       stroke-width="0.4" fill="#333333">
      <g id="Menu-Containe+List" transform="translate(0.000000, 168.000000)">
        <g transform="translate(0.000000, 92.000000)" id="Menu-List-items">
          <g>
            <g id="Icon_Subscription" transform="translate(24.000000, 113.000000)">
              <path
                d="M14.2105263,3.15789474 L12.4894737,3.15789474 C12.5763158,2.91315789 12.6315789,2.64473684 12.6315789,2.36842105 C12.6315789,1.05789474 11.5736842,0 10.2631579,0 C9.43421053,0 8.71578947,0.426315789 8.28947368,1.06578947 L7.89473684,1.59473684 L7.5,1.05789474 C7.07368421,0.426315789 6.35526316,0 5.52631579,0 C4.21578947,0 3.15789474,1.05789474 3.15789474,2.36842105 C3.15789474,2.64473684 3.21315789,2.91315789 3.3,3.15789474 L1.57894737,3.15789474 C0.702631579,3.15789474 0.00789473684,3.86052632 0.00789473684,4.73684211 L0,13.4210526 C0,14.2973684 0.702631579,15 1.57894737,15 L14.2105263,15 C15.0868421,15 15.7894737,14.2973684 15.7894737,13.4210526 L15.7894737,4.73684211 C15.7894737,3.86052632 15.0868421,3.15789474 14.2105263,3.15789474 Z M10.2631579,1.57894737 C10.6973684,1.57894737 11.0526316,1.93421053 11.0526316,2.36842105 C11.0526316,2.80263158 10.6973684,3.15789474 10.2631579,3.15789474 C9.82894737,3.15789474 9.47368421,2.80263158 9.47368421,2.36842105 C9.47368421,1.93421053 9.82894737,1.57894737 10.2631579,1.57894737 Z M5.52631579,1.57894737 C5.96052632,1.57894737 6.31578947,1.93421053 6.31578947,2.36842105 C6.31578947,2.80263158 5.96052632,3.15789474 5.52631579,3.15789474 C5.09210526,3.15789474 4.73684211,2.80263158 4.73684211,2.36842105 C4.73684211,1.93421053 5.09210526,1.57894737 5.52631579,1.57894737 Z M14.2105263,13.4210526 L1.57894737,13.4210526 L1.57894737,11.0526316 L14.2105263,11.0526316 L14.2105263,13.4210526 Z M14.2105263,9.47368421 L1.57894737,9.47368421 L1.57894737,4.73684211 L5.58947368,4.73684211 L3.94736842,6.97105263 L5.22631579,7.89473684 L7.10526316,5.33684211 L7.89473684,4.26315789 L8.68421053,5.33684211 L10.5631579,7.89473684 L11.8421053,6.97105263 L10.2,4.73684211 L14.2105263,4.73684211 L14.2105263,9.47368421 Z"
                id="Shape"></path>
            </g>
          </g>
        </g>
      </g>
    </g>
  </g>
</svg>
