<?xml version="1.0" encoding="UTF-8"?>
<svg width="60px" height="60px" viewBox="0 0 60 60" version="1.1" xmlns="http://www.w3.org/2000/svg" xmlns:xlink="http://www.w3.org/1999/xlink">
    <!-- Generator: Sketch 48.1 (47250) - http://www.bohemiancoding.com/sketch -->
    <title>Shape</title>
    <desc>Created with Sketch.</desc>
    <defs></defs>
    <g id="CONTACT-US_2" stroke="none" stroke-width="1" fill="none" fill-rule="evenodd" transform="translate(-244.000000, -167.000000)">
        <g id="Group-Copy-5" transform="translate(188.000000, 167.000000)" fill="#009ADE" fill-rule="nonzero">
            <path d="M73.6420455,0 L98.3579545,0 C108.052558,0 116,7.95809727 116,17.6420455 L116,42.3579545 C116,52.0525582 108.041903,60 98.3579545,60 L73.6420455,60 C63.9474445,60 56,52.0419027 56,42.3579545 L56,17.6420455 C56,7.94744455 63.9580973,0 73.6420455,0 Z M104.361206,8.36206895 C102.513024,8.36206895 101.037342,9.8377507 101.037342,11.6859326 C101.037342,13.5341145 102.513024,15.0097962 104.361206,15.0097962 C106.209388,15.0097962 107.685069,13.5341145 107.685069,11.6859326 C107.685069,9.8377507 106.209388,8.36206895 104.361206,8.36206895 Z M86,11.739689 C75.9544521,11.739689 67.739689,19.9544521 67.739689,30 C67.739689,40.0455479 75.9544521,48.260311 86,48.260311 C96.0455479,48.260311 104.260311,40.0455479 104.260311,30 C104.260311,19.9544521 96.0455479,11.739689 86,11.739689 Z M86,17.8264593 C92.7643983,17.8264593 98.1735407,23.2356017 98.1735407,30 C98.1735407,36.7643983 92.7643983,42.1735407 86,42.1735407 C79.2356017,42.1735407 73.8264593,36.7643983 73.8264593,30 C73.8264593,23.2356017 79.2356017,17.8264593 86,17.8264593 Z" id="Shape"></path>
        </g>
    </g>
</svg>