<?xml version="1.0" encoding="UTF-8"?>
<svg width="27px" height="40px" viewBox="0 0 27 40" version="1.1" xmlns="http://www.w3.org/2000/svg" xmlns:xlink="http://www.w3.org/1999/xlink">
    <!-- Generator: Sketch 48.1 (47250) - http://www.bohemiancoding.com/sketch -->
    <title>icons8-previous__location</title>
    <desc>Created with Sketch.</desc>
    <defs></defs>
    <g id="STORE-DETAIL_4" stroke="none" stroke-width="1" fill="none" fill-rule="evenodd" transform="translate(-117.000000, -374.000000)">
        <g id="icons8-previous__location" transform="translate(117.000000, 374.000000)" fill="#009ADE" fill-rule="nonzero">
            <path d="M13.5483871,0.0552571565 C20.8071722,0.0552571565 26.7268957,6.06894447 26.7268957,13.4429484 C26.7268957,15.5653593 25.9073193,17.9151836 24.7867985,20.506132 C23.6662776,23.0970803 22.1998539,25.864634 20.7392963,28.4223893 C17.8181843,33.5378997 14.902917,37.8225349 14.902917,37.8225349 L13.5483871,39.8163085 L12.1938572,37.8225349 C12.1938572,37.8225349 9.27858986,33.5378997 6.35747789,28.4223893 C4.89692026,25.864634 3.43049655,23.0970803 2.30997574,20.506132 C1.18945493,17.9151836 0.369878539,15.5653593 0.369878539,13.4429484 C0.369878539,6.06894447 6.28960199,0.0552571565 13.5483871,0.0552571565 Z M13.5483871,7.69309992 C10.1183084,7.69309992 7.33768018,10.5178651 7.33768018,14.0023895 C7.33768018,17.4869139 10.1183084,20.311679 13.5483871,20.311679 C16.9784658,20.311679 19.759094,17.4869139 19.759094,14.0023895 C19.759094,10.5178651 16.9784658,7.69309992 13.5483871,7.69309992 Z" id="Combined-Shape"></path>
        </g>
    </g>
</svg>