<?xml version="1.0" encoding="UTF-8"?>
<svg width="24px" height="24px" viewBox="0 0 24 24" version="1.1" xmlns="http://www.w3.org/2000/svg"
>
  <!-- Generator: Sketch 46.2 (44496) - http://www.bohemiancoding.com/sketch -->
  <title>Shape</title>
  <desc>Created with Sketch.</desc>
  <defs></defs>
  <g id="Page-1" stroke="none" stroke-width="1" fill="none" fill-rule="evenodd">
    <g id="Celcom---Notifications-full-screen-1" transform="translate(-129.000000, -69.000000)" fill-rule="nonzero"
       fill="#000000">
      <g id="entire-notification-page">
        <g id="icons8-price_tag" transform="translate(129.000000, 69.000000)">
          <path
            d="M13,0 L12.6875,0.28125 L1.28125,11.8125 L0.59375,12.5 L1.28125,13.21875 L10.78125,22.71875 L11.5,23.40625 L12.1875,22.71875 L23.71875,11.3125 L24,11 L24,0 L13,0 Z M13.84375,2 L22,2 L22,10.15625 L11.5,20.59375 L3.40625,12.5 L13.84375,2 Z M19,4 C18.449219,4 18,4.449219 18,5 C18,5.550781 18.449219,6 19,6 C19.550781,6 20,5.550781 20,5 C20,4.449219 19.550781,4 19,4 Z"
            id="Shape"></path>
        </g>
      </g>
    </g>
  </g>
</svg>
