<?xml version="1.0" encoding="UTF-8"?>
<svg width="74px" height="60px" viewBox="0 0 74 60" version="1.1" xmlns="http://www.w3.org/2000/svg" xmlns:xlink="http://www.w3.org/1999/xlink">
    <!-- Generator: Sketch 48.1 (47250) - http://www.bohemiancoding.com/sketch -->
    <title>Shape</title>
    <desc>Created with Sketch.</desc>
    <defs></defs>
    <g id="CONTACT-US_2" stroke="none" stroke-width="1" fill="none" fill-rule="evenodd" transform="translate(-237.000000, -309.000000)">
        <g id="Group-Copy-3" transform="translate(188.000000, 309.000000)" fill="#009ADE" fill-rule="nonzero">
            <path d="M122.816582,7.11253522 C120.101325,8.31397699 117.181821,9.13095738 114.118143,9.49138837 C117.241892,7.61713923 119.644776,4.64958038 120.774132,1.11734007 C117.854628,2.8474162 114.610734,4.10892928 111.162598,4.79375339 C108.399281,1.85021877 104.458552,0 100.109334,0 C91.7472994,0 84.9591511,6.78814518 84.9591511,15.1501798 C84.9591511,16.3396079 85.0913105,17.492992 85.3556292,18.5983185 C72.7645196,17.9735687 61.6031233,11.9423296 54.1421707,2.77533124 C52.8326,5.01001137 52.0877046,7.61713923 52.0877046,10.3924705 C52.0877046,15.6427702 54.7549068,20.2803369 58.8277951,22.9955938 C56.3408099,22.9114951 54.0100114,22.2386878 51.9675619,21.0973173 C51.9675619,21.1694023 51.9675619,21.2294767 51.9675619,21.289548 C51.9675619,28.6303579 57.1818176,34.7577094 64.1141389,36.1393682 C62.8406091,36.4877855 61.507008,36.6800162 60.1253522,36.6800162 C59.1521821,36.6800162 58.1910287,36.5839008 57.277933,36.4036838 C59.2002398,42.4229093 64.7989599,46.7961574 71.4189048,46.9283136 C66.24069,50.9891883 59.7048469,53.4040855 52.6163389,53.4040855 C51.3908699,53.4040855 50.1894281,53.3320005 49,53.1878275 C55.7040466,57.4889875 63.6575895,60 72.2118548,60 C100.07329,60 115.307572,36.9203045 115.307572,16.9042863 C115.307572,16.2555063 115.283541,15.5947125 115.259514,14.9459355 C118.215059,12.8073676 120.786146,10.1401685 122.816582,7.11253522 Z" id="Shape"></path>
        </g>
    </g>
</svg>