<?xml version="1.0" encoding="UTF-8"?>
<svg width="32px" height="32px" viewBox="0 0 32 32" version="1.1" xmlns="http://www.w3.org/2000/svg" xmlns:xlink="http://www.w3.org/1999/xlink">
    <!-- Generator: Sketch 48.2 (47327) - http://www.bohemiancoding.com/sketch -->
    <title>icon/icon_capzone-2</title>
    <desc>Created with Sketch.</desc>
    <defs>
        <path d="M24.896,19.584 C25.344,18.48 25.6,17.264 25.6,16 C25.6,10.704 21.296,6.4 16,6.4 C14.736,6.4 13.52,6.656 12.416,7.104 L15.008,9.696 C15.328,9.648 15.664,9.6 16,9.6 C19.536,9.6 22.4,12.464 22.4,16 C22.4,16.336 22.368,16.672 22.32,17.008 L24.896,19.584 Z M16,3.2 C23.072,3.2 28.8,8.928 28.8,16 C28.8,18.16 28.24,20.192 27.28,21.984 L29.632,24.336 C31.136,21.904 32,19.056 32,16 C32,7.168 24.832,0 16,0 C12.944,0 10.096,0.88 7.664,2.352 L10,4.688 C11.792,3.744 13.84,3.2 16,3.2 Z M2.032,0.8 L0,2.832 L3.36,6.192 C1.264,8.912 0,12.304 0,16 C0,21.92 3.216,27.072 7.984,29.84 L9.584,27.072 C5.776,24.848 3.2,20.736 3.2,16 C3.2,13.184 4.112,10.592 5.648,8.496 L7.936,10.8 C6.976,12.288 6.4,14.08 6.4,16 C6.4,19.552 8.336,22.64 11.2,24.304 L12.8,21.52 C10.896,20.4 9.6,18.368 9.6,16 C9.6,14.96 9.872,14 10.304,13.136 L12.832,15.664 L12.8,16 C12.8,17.76 14.24,19.2 16,19.2 L16.336,19.168 L16.352,19.184 L28.368,31.2 L30.4,29.168 L3.632,2.4 L2.032,0.8 Z" id="path-1"></path>
    </defs>
    <g id="Page-1" stroke="none" stroke-width="1" fill="none" fill-rule="evenodd">
        <g id="icon/icon_capzone-2">
            <mask id="mask-2" fill="white">
                <use xlink:href="#path-1"></use>
            </mask>
            <use id="Shape" fill="#000000" fill-rule="nonzero" xlink:href="#path-1"></use>
        </g>
    </g>
</svg>