<?xml version="1.0" encoding="UTF-8"?>
<svg width="32px" height="32px" viewBox="0 0 32 32" version="1.1" xmlns="http://www.w3.org/2000/svg" xmlns:xlink="http://www.w3.org/1999/xlink">
    <!-- Generator: Sketch 48.2 (47327) - http://www.bohemiancoding.com/sketch -->
    <title>icon/icon_allocate-more</title>
    <desc>Created with Sketch.</desc>
    <defs>
        <path d="M9.10900413,20.0000528 C10.3459707,19.9953138 12.0142171,20.3081094 13.4170607,21.5687735 L13.431279,21.5782515 C14.6350711,22.6209056 15.2274878,23.0806221 16.0616111,23.3365457 C16.8957343,23.6019485 18.1706155,23.6872572 20.6113741,23.6777779 L20.6208522,26.1043182 C18.1327008,26.1137975 16.6445498,26.0664035 15.3317526,25.6540809 C14.0189567,25.2417596 13.0758285,24.4834657 11.8246436,23.3981567 L11.8199046,23.3934177 L11.8056863,23.3839396 C10.957346,22.6161665 9.9620847,22.4265931 9.10900413,22.4265931 C8.26540284,22.4265931 7.69668246,22.6161665 7.68720318,22.6209056 L3.08056811,24.388679 L3.8578193,26.5782518 L8.57819845,24.7725649 L17.1943128,29.5166405 L31.07109,23.7725646 L32,26.0095315 L17.0473931,32.2038446 L8.38862499,27.4360714 L2.40758294,29.7299103 L0,22.9716171 L6.88151659,20.3318069 L6.90521297,20.3223277 C6.90521297,20.3223277 7.8578193,20.0047918 9.10900413,20.0000528 Z M10.2599202,12.5267711 C11.7834327,10.9422429 13.8293326,10.063149 16.0000798,10.0636183 C18.1745818,10.063149 20.2134415,10.9380188 21.7407088,12.5272404 L21.9664665,12.7614464 L20.1500791,14.5778338 L19.9154037,14.331894 C18.8771999,13.2411229 17.4865136,12.6408233 16.0000798,12.6403539 C14.513646,12.6408233 13.1238984,13.2279811 12.0847559,14.331894 L11.8500805,14.5778338 L10.0336931,12.7614464 L10.2599202,12.5267711 Z M6.88280074,9.14692939 C9.29150878,6.65467692 12.5572513,5.27947924 16.0004084,5.27947924 C19.4426267,5.27947924 22.6802082,6.65373822 25.1175466,9.14646004 L25.3465898,9.38113541 L23.5311411,11.1965841 L23.2969351,10.9558072 C21.3510069,8.95731169 18.7601907,7.85715354 15.999939,7.85668419 C13.2396873,7.85715354 10.6390148,8.97186156 8.70341229,10.9553378 L8.46873692,11.1965841 L6.65375758,9.38160477 L6.88280074,9.14692939 Z M16.0000798,0.495715615 C20.7137694,0.496184966 25.15195,2.36795575 28.4951354,5.76746321 L28.726056,6.00213858 L26.9110766,7.81711792 L26.6764013,7.57774904 C23.8250955,4.67293726 20.0336801,3.07245122 16.0005492,3.07292057 C11.9674182,3.07245122 8.18351247,4.68889519 5.32375836,7.57774904 L5.08908299,7.81711792 L3.27410365,6.00213858 L3.50502422,5.76746321 C6.86886102,2.38203627 11.2859209,0.495715615 16.0000798,0.495715615 Z" id="path-1"></path>
    </defs>
    <g id="Page-1" stroke="none" stroke-width="1" fill="none" fill-rule="evenodd">
        <g id="icon/icon_allocate-more">
            <mask id="mask-2" fill="white">
                <use xlink:href="#path-1"></use>
            </mask>
            <use id="Combined-Shape" fill="#000000" fill-rule="nonzero" xlink:href="#path-1"></use>
        </g>
    </g>
</svg>