<?xml version="1.0" encoding="UTF-8"?>
<svg width="32px" height="32px" viewBox="0 0 32 32" version="1.1" xmlns="http://www.w3.org/2000/svg" xmlns:xlink="http://www.w3.org/1999/xlink">
    <!-- Generator: Sketch 48.2 (47327) - http://www.bohemiancoding.com/sketch -->
    <title>icon/icon_MMS</title>
    <desc>Created with Sketch.</desc>
    <defs>
        <path d="M0,2 L0,24.8571429 L5.71428571,24.8571429 L5.71428571,30.6785714 L7.57142857,29.1785714 L12.9642857,24.8571429 L32,24.8571429 L32,2 L0,2 Z M2.28571429,4.28571429 L29.7142857,4.28571429 L29.7142857,22.5714286 L12.1785714,22.5714286 L11.8571429,22.8214286 L8,25.8928571 L8,22.5714286 L2.28571429,22.5714286 L2.28571429,4.28571429 Z M7.914,14.1368 L5.964,10.294 C5.92933316,10.228133 5.89380018,10.1770002 5.8574,10.1406 C5.82099982,10.1041998 5.78026689,10.0773334 5.7352,10.06 C5.69013311,10.0426666 5.63900029,10.0322667 5.5818,10.0288 C5.52459971,10.0253333 5.45786705,10.0236 5.3816,10.0236 L4.04,10.0236 L4.04,17.6 L5.5896,17.6 L5.5896,13.2424 C5.5896,13.1418662 5.58613337,13.0318006 5.5792,12.9122 C5.57226663,12.7925994 5.56186674,12.6721339 5.548,12.5508 L7.5656,16.4508 C7.62800031,16.5721339 7.71206614,16.6639997 7.8178,16.7264 C7.92353386,16.7888003 8.04399932,16.82 8.1792,16.82 L8.4184,16.82 C8.55360068,16.82 8.67406614,16.7888003 8.7798,16.7264 C8.88553386,16.6639997 8.96959969,16.5721339 9.032,16.4508 L11.0392,12.556 C11.0183999,12.8021346 11.008,13.0309323 11.008,13.2424 L11.008,17.6 L12.5576,17.6 L12.5576,10.0236 L11.216,10.0236 C11.139733,10.0236 11.0730003,10.0253333 11.0158,10.0288 C10.9585997,10.0322667 10.9074669,10.0426666 10.8624,10.06 C10.8173331,10.0773334 10.7766002,10.1041998 10.7402,10.1406 C10.7037998,10.1770002 10.6682668,10.228133 10.6336,10.294 L8.6888,14.1212 C8.61946632,14.2564007 8.551867,14.3959326 8.486,14.5398 C8.420133,14.6836674 8.35773363,14.8318659 8.2988,14.9844 C8.23986637,14.8353326 8.17833365,14.689734 8.1142,14.5476 C8.05006635,14.405466 7.98333368,14.268534 7.914,14.1368 Z M17.6796,14.1368 L15.7296,10.294 C15.6949332,10.228133 15.6594002,10.1770002 15.623,10.1406 C15.5865998,10.1041998 15.5458669,10.0773334 15.5008,10.06 C15.4557331,10.0426666 15.4046003,10.0322667 15.3474,10.0288 C15.2901997,10.0253333 15.223467,10.0236 15.1472,10.0236 L13.8056,10.0236 L13.8056,17.6 L15.3552,17.6 L15.3552,13.2424 C15.3552,13.1418662 15.3517334,13.0318006 15.3448,12.9122 C15.3378666,12.7925994 15.3274667,12.6721339 15.3136,12.5508 L17.3312,16.4508 C17.3936003,16.5721339 17.4776661,16.6639997 17.5834,16.7264 C17.6891339,16.7888003 17.8095993,16.82 17.9448,16.82 L18.184,16.82 C18.3192007,16.82 18.4396661,16.7888003 18.5454,16.7264 C18.6511339,16.6639997 18.7351997,16.5721339 18.7976,16.4508 L20.8048,12.556 C20.7839999,12.8021346 20.7736,13.0309323 20.7736,13.2424 L20.7736,17.6 L22.3232,17.6 L22.3232,10.0236 L20.9816,10.0236 C20.905333,10.0236 20.8386003,10.0253333 20.7814,10.0288 C20.7241997,10.0322667 20.6730669,10.0426666 20.628,10.06 C20.5829331,10.0773334 20.5422002,10.1041998 20.5058,10.1406 C20.4693998,10.1770002 20.4338668,10.228133 20.3992,10.294 L18.4544,14.1212 C18.3850663,14.2564007 18.317467,14.3959326 18.2516,14.5398 C18.185733,14.6836674 18.1233336,14.8318659 18.0644,14.9844 C18.0054664,14.8353326 17.9439337,14.689734 17.8798,14.5476 C17.8156663,14.405466 17.7489337,14.268534 17.6796,14.1368 Z M27.7936,11.5628 L28.2304,10.7464 C28.0951993,10.6215994 27.9418009,10.5098005 27.7702,10.411 C27.5985991,10.3121995 27.414001,10.227267 27.2164,10.1562 C27.018799,10.085133 26.8099344,10.0314002 26.5898,9.995 C26.3696656,9.95859982 26.1434678,9.9404 25.9112,9.9404 C25.4951979,9.9404 25.1260016,10.003666 24.8036,10.1302 C24.4811984,10.256734 24.2090678,10.4257323 23.9872,10.6372 C23.7653322,10.8486677 23.5972006,11.0895986 23.4828,11.36 C23.3683994,11.6304014 23.3112,11.9077319 23.3112,12.192 C23.3112,12.5456018 23.3597328,12.8428655 23.4568,13.0838 C23.5538672,13.3247345 23.6812659,13.5257992 23.839,13.687 C23.9967341,13.8482008 24.1761323,13.9781995 24.3772,14.077 C24.5782677,14.1758005 24.7845323,14.2589997 24.996,14.3266 C25.2074677,14.3942003 25.4137323,14.4557331 25.6148,14.5112 C25.8158677,14.5666669 25.9952659,14.6307996 26.153,14.7036 C26.3107341,14.7764004 26.4381328,14.8682661 26.5352,14.9792 C26.6322672,15.0901339 26.6808,15.2339991 26.6808,15.4108 C26.6808,15.7158682 26.5924009,15.9385993 26.4156,16.079 C26.2387991,16.2194007 25.9909349,16.2896 25.672,16.2896 C25.4362655,16.2896 25.2317342,16.256667 25.0584,16.1908 C24.8850658,16.124933 24.7316673,16.0521337 24.5982,15.9724 C24.4647327,15.8926663 24.3451339,15.819867 24.2394,15.754 C24.1336661,15.688133 24.0288005,15.6552 23.9248,15.6552 C23.8450663,15.6552 23.7705337,15.6742665 23.7012,15.7124 C23.6318663,15.7505335 23.5781335,15.8007997 23.54,15.8632 L23.02,16.6848 C23.1690674,16.8338674 23.3441323,16.9690661 23.5452,17.0904 C23.7462677,17.2117339 23.9611989,17.3165996 24.19,17.405 C24.4188011,17.4934004 24.6553988,17.5618664 24.8998,17.6104 C25.1442012,17.6589336 25.3842655,17.6832 25.62,17.6832 C26.0498688,17.6832 26.4337983,17.6182006 26.7718,17.4882 C27.1098017,17.3581993 27.3940655,17.1796678 27.6246,16.9526 C27.8551345,16.7255322 28.0310661,16.4594682 28.1524,16.1544 C28.2737339,15.8493318 28.3344,15.5217351 28.3344,15.1716 C28.3344,14.8561318 28.2858672,14.5866011 28.1888,14.363 C28.0917328,14.1393989 27.9643341,13.9496008 27.8066,13.7936 C27.6488659,13.6375992 27.468601,13.5093338 27.2658,13.4088 C27.062999,13.3082662 26.8558677,13.2207337 26.6444,13.1462 C26.4329323,13.0716663 26.225801,13.004067 26.023,12.9434 C25.820199,12.882733 25.6399341,12.8160004 25.4822,12.7432 C25.3244659,12.6703996 25.1970672,12.5837338 25.1,12.4832 C25.0029328,12.3826662 24.9544,12.2561341 24.9544,12.1036 C24.9544,11.8643988 25.0349992,11.6746007 25.1962,11.5342 C25.3574008,11.3937993 25.602665,11.3236 25.932,11.3236 C26.1226676,11.3236 26.2925326,11.3487331 26.4416,11.399 C26.5906674,11.4492669 26.7232661,11.5055997 26.8394,11.568 C26.9555339,11.6304003 27.0595329,11.6867331 27.1514,11.737 C27.2432671,11.7872669 27.3290663,11.8124 27.4088,11.8124 C27.4989338,11.8124 27.5725997,11.7916002 27.6298,11.75 C27.6870003,11.7083998 27.7415997,11.6460004 27.7936,11.5628 Z" id="path-1"></path>
    </defs>
    <g id="Page-1" stroke="none" stroke-width="1" fill="none" fill-rule="evenodd">
        <g id="icon/icon_MMS">
            <mask id="mask-2" fill="white">
                <use xlink:href="#path-1"></use>
            </mask>
            <use id="Combined-Shape" fill="#000000" fill-rule="nonzero" xlink:href="#path-1"></use>
        </g>
    </g>
</svg>