<?xml version="1.0" encoding="UTF-8"?>
<svg width="32px" height="32px" viewBox="0 0 32 32" version="1.1" xmlns="http://www.w3.org/2000/svg" xmlns:xlink="http://www.w3.org/1999/xlink">
    <!-- Generator: Sketch 48.2 (47327) - http://www.bohemiancoding.com/sketch -->
    <title>icon/icon_faq</title>
    <desc>Created with Sketch.</desc>
    <defs>
        <path d="M0,-0.0004 L0,26.6666 L10.667,26.6666 L10.667,31.9996 L32,31.9996 L32,5.3326 L26.667,5.3326 L26.667,-0.0004 L0,-0.0004 Z M2.667,24.0006 L24.001,24.0006 L24.001,2.6666 L2.667,2.6666 L2.667,24.0006 Z M13.333,26.6666 L26.667,26.6666 L26.667,7.9996 L29.334,7.9996 L29.334,29.3336 L13.333,29.3336 L13.333,26.6666 Z M6.6484,10.8528 L6.6484,12.3858 L8.7174,12.3858 L8.7174,13.4708 L6.6484,13.4708 L6.6484,15.8258 L5.2354,15.8258 L5.2354,9.7728 L9.1324,9.7728 L9.1324,10.8528 L6.6484,10.8528 Z M11.0851,9.773 L12.5231,9.773 L14.8671,15.826 L13.7781,15.826 C13.6561,15.826 13.5581,15.798 13.4831,15.741 C13.4081,15.684 13.3511,15.611 13.3131,15.523 L12.9551,14.467 L10.6531,14.467 L10.2961,15.523 C10.2661,15.6 10.2111,15.67 10.1321,15.733 C10.0541,15.795 9.9561,15.826 9.8391,15.826 L8.7421,15.826 L11.0851,9.773 Z M10.9781,13.512 L12.6351,13.512 L12.0751,11.854 C12.0331,11.749 11.9891,11.625 11.9421,11.482 C11.8941,11.34 11.8481,11.185 11.8001,11.019 C11.7591,11.188 11.7141,11.344 11.6681,11.489 C11.6201,11.632 11.5761,11.757 11.5351,11.862 L10.9781,13.512 Z M20.4027,14.8084 C20.2537,14.9884 20.0867,15.1474 19.8977,15.2864 L21.4307,16.9604 L20.2757,16.9604 C20.1097,16.9604 19.9607,16.9384 19.8297,16.8954 C19.6977,16.8524 19.5757,16.7734 19.4617,16.6574 L18.7097,15.8134 C18.4747,15.8664 18.2207,15.8924 17.9497,15.8924 C17.4787,15.8924 17.0487,15.8134 16.6617,15.6554 C16.2737,15.4974 15.9417,15.2794 15.6657,15.0014 C15.3907,14.7234 15.1777,14.3954 15.0267,14.0184 C14.8757,13.6424 14.7997,13.2354 14.7997,12.7974 C14.7997,12.3594 14.8757,11.9524 15.0267,11.5754 C15.1777,11.1994 15.3907,10.8724 15.6657,10.5954 C15.9417,10.3184 16.2737,10.1014 16.6617,9.9434 C17.0487,9.7854 17.4787,9.7064 17.9497,9.7064 C18.4207,9.7064 18.8487,9.7854 19.2347,9.9454 C19.6217,10.1044 19.9517,10.3224 20.2257,10.5994 C20.5007,10.8764 20.7127,11.2034 20.8637,11.5804 C21.0147,11.9564 21.0897,12.3624 21.0897,12.7974 C21.0897,13.0574 21.0627,13.3074 21.0097,13.5474 C20.9557,13.7864 20.8777,14.0114 20.7767,14.2224 C20.6757,14.4324 20.5507,14.6284 20.4027,14.8084 Z M19.5367,13.6094 C19.6137,13.3704 19.6527,13.0994 19.6527,12.7974 C19.6527,12.4984 19.6137,12.2294 19.5367,11.9894 C19.4587,11.7504 19.3477,11.5464 19.2017,11.3804 C19.0567,11.2144 18.8787,11.0874 18.6677,10.9984 C18.4577,10.9094 18.2177,10.8654 17.9497,10.8654 C17.6777,10.8654 17.4367,10.9094 17.2237,10.9984 C17.0127,11.0874 16.8337,11.2144 16.6887,11.3804 C16.5427,11.5464 16.4317,11.7504 16.3537,11.9894 C16.2757,12.2294 16.2377,12.4984 16.2377,12.7974 C16.2377,13.0994 16.2757,13.3704 16.3537,13.6094 C16.4317,13.8494 16.5427,14.0524 16.6887,14.2184 C16.8337,14.3844 17.0127,14.5114 17.2237,14.5984 C17.4367,14.6854 17.6777,14.7294 17.9497,14.7294 C18.2177,14.7294 18.4577,14.6854 18.6677,14.5984 C18.8787,14.5114 19.0567,14.3844 19.2017,14.2184 C19.3477,14.0524 19.4587,13.8494 19.5367,13.6094 Z" id="path-1"></path>
    </defs>
    <g id="Page-1" stroke="none" stroke-width="1" fill="none" fill-rule="evenodd">
        <g id="icon/icon_faq">
            <mask id="mask-2" fill="white">
                <use xlink:href="#path-1"></use>
            </mask>
            <use id="Combined-Shape" fill="#000000" xlink:href="#path-1"></use>
        </g>
    </g>
</svg>