<?xml version="1.0" encoding="UTF-8"?>
<svg width="32px" height="32px" viewBox="0 0 32 32" version="1.1" xmlns="http://www.w3.org/2000/svg" xmlns:xlink="http://www.w3.org/1999/xlink">
    <!-- Generator: Sketch 48.2 (47327) - http://www.bohemiancoding.com/sketch -->
    <title>icon/icon_online-banking</title>
    <desc>Created with Sketch.</desc>
    <defs></defs>
    <g id="Page-1" stroke="none" stroke-width="1" fill="none" fill-rule="evenodd">
        <g id="icon/icon_online-banking" fill="#000000">
            <path d="M27.2745,5.8619 C28.5785,5.8619 29.6395,6.9229 29.6395,8.2269 L29.6395,23.4999 C29.6395,24.8049 28.5785,25.8659 27.2745,25.8659 L18.0155,25.8659 L17.8355,25.8659 L17.8355,26.0459 L17.8355,28.5909 L17.8355,28.7709 L18.0155,28.7709 L20.7305,28.7709 L20.7305,30.9569 L10.9095,30.9569 L10.9095,28.7709 L13.6215,28.7709 L13.8015,28.7709 L13.8015,28.5909 L13.8015,26.0459 L13.8015,25.8659 L13.6215,25.8659 L4.3655,25.8659 C3.0615,25.8659 1.9995,24.8049 1.9995,23.4999 L1.9995,8.2269 C1.9995,6.9229 3.0615,5.8619 4.3655,5.8619 L6.7325,5.8619 L6.7325,8.0469 L4.3655,8.0469 L4.1855,8.0469 L4.1855,8.2269 L4.1855,23.4999 L4.1855,23.6799 L4.3655,23.6799 L27.2745,23.6799 L27.4545,23.6799 L27.4545,23.4999 L27.4545,8.2269 L27.4545,8.0469 L27.2745,8.0469 L24.9075,8.0469 L24.9075,5.8619 L27.2745,5.8619 Z M6.913,16.1274 L6.913,14.2184 L7.914,14.2184 L7.914,1.0454 L8.187,1.0454 L8.187,1.0004 L23.433,1.0004 L23.433,1.0454 L23.706,1.0454 L23.706,14.2184 L24.707,14.2184 L24.707,16.1274 L23.706,16.1274 L21.706,16.1274 L9.914,16.1274 L7.914,16.1274 L6.913,16.1274 Z M9.914,14.2184 L21.706,14.2184 L21.706,3.0004 L9.914,3.0004 L9.914,14.2184 Z M13.7939,7.1634 C13.8559,7.2164 13.9099,7.2804 13.9589,7.3544 L14.9379,8.9564 L13.9709,8.9564 C13.7919,8.9564 13.6639,8.8884 13.5859,8.7544 L12.8209,7.4174 C12.7859,7.3604 12.7449,7.3194 12.7009,7.2924 C12.6569,7.2664 12.5939,7.2534 12.5109,7.2534 L12.2399,7.2534 L12.2399,8.9564 L11.1719,8.9564 L11.1719,4.3524 L12.6699,4.3524 C13.0029,4.3524 13.2859,4.3874 13.5209,4.4554 C13.7559,4.5234 13.9479,4.6194 14.0959,4.7414 C14.2439,4.8634 14.3519,5.0074 14.4199,5.1744 C14.4869,5.3404 14.5209,5.5214 14.5209,5.7174 C14.5209,5.8674 14.5009,6.0084 14.4609,6.1404 C14.4209,6.2734 14.3619,6.3964 14.2839,6.5094 C14.2059,6.6214 14.1099,6.7224 13.9949,6.8104 C13.8799,6.8994 13.7479,6.9724 13.5989,7.0284 C13.6679,7.0644 13.7329,7.1094 13.7939,7.1634 Z M13.4339,6.0794 C13.4639,5.9924 13.4779,5.8974 13.4779,5.7964 C13.4779,5.5944 13.4119,5.4364 13.2809,5.3224 C13.1489,5.2084 12.9449,5.1524 12.6699,5.1524 L12.2399,5.1524 L12.2399,6.5174 L12.6699,6.5174 C12.8149,6.5174 12.9389,6.4984 13.0409,6.4614 C13.1429,6.4244 13.2269,6.3734 13.2919,6.3084 C13.3569,6.2434 13.4049,6.1664 13.4339,6.0794 Z M19.5649,4.3559 C19.5999,4.3539 19.6409,4.3529 19.6869,4.3529 L20.5019,4.3529 L20.5019,8.9559 L19.5599,8.9559 L19.5599,6.3089 C19.5599,6.2469 19.5619,6.1809 19.5649,6.1099 C19.5689,6.0379 19.5739,5.9649 19.5819,5.8919 L18.3599,8.2579 C18.3219,8.3319 18.2709,8.3879 18.2069,8.4259 C18.1429,8.4629 18.0689,8.4819 17.9869,8.4819 L17.8419,8.4819 C17.7589,8.4819 17.6859,8.4629 17.6219,8.4259 C17.5579,8.3879 17.5069,8.3319 17.4689,8.2579 L16.2459,5.8849 C16.2519,5.9609 16.2579,6.0349 16.2619,6.1079 C16.2659,6.1809 16.2679,6.2469 16.2679,6.3089 L16.2679,8.9559 L15.3259,8.9559 L15.3259,4.3529 L16.1419,4.3529 C16.1879,4.3529 16.2279,4.3539 16.2629,4.3559 C16.2979,4.3579 16.3289,4.3639 16.3569,4.3749 C16.3839,4.3849 16.4089,4.4019 16.4309,4.4239 C16.4529,4.4459 16.4749,4.4769 16.4959,4.5169 L17.6809,6.8519 C17.7219,6.9319 17.7629,7.0149 17.8019,7.1019 C17.8409,7.1879 17.8789,7.2769 17.9139,7.3669 C17.9499,7.2739 17.9879,7.1839 18.0259,7.0949 C18.0649,7.0069 18.1069,6.9229 18.1509,6.8429 L19.3329,4.5169 C19.3539,4.4769 19.3759,4.4459 19.3979,4.4239 C19.4199,4.4019 19.4449,4.3849 19.4719,4.3749 C19.4989,4.3639 19.5309,4.3579 19.5649,4.3559 Z" id="Combined-Shape"></path>
        </g>
    </g>
</svg>