<?xml version="1.0" encoding="UTF-8"?>
<svg width="14px" height="7px" viewBox="0 0 14 7" version="1.1" xmlns="http://www.w3.org/2000/svg"
>
  <!-- Generator: Sketch 46.2 (44496) - http://www.bohemiancoding.com/sketch -->
  <title>chevron</title>
  <desc>Created with Sketch.</desc>
  <defs></defs>
  <g id="Page-1" stroke="none" stroke-width="1" fill="none" fill-rule="evenodd">
    <g id="Celcom---Notifications-full-screen-1" transform="translate(-330.000000, -23.000000)" fill-rule="nonzero"
       fill="#000000">
      <g id="entire-notification-page">
        <g id="Group-2">
          <polygon id="chevron"
                   transform="translate(337.399733, 26.500000) scale(1, -1) rotate(-90.000000) translate(-337.399733, -26.500000) "
                   points="334.605064 20 333.890374 20.7058824 339.518553 26.5019607 333.890374 32.3019612 334.605064 33 340.909091 26.5019607"></polygon>
        </g>
      </g>
    </g>
  </g>
</svg>
