<?xml version="1.0" encoding="UTF-8"?>
<svg width="32px" height="32px" viewBox="0 0 32 32" version="1.1" xmlns="http://www.w3.org/2000/svg" xmlns:xlink="http://www.w3.org/1999/xlink">
    <!-- Generator: Sketch 48.2 (47327) - http://www.bohemiancoding.com/sketch -->
    <title>icon/icon_contact</title>
    <desc>Created with Sketch.</desc>
    <defs>
        <path d="M0,4 L0,27.8636364 L4.57142857,27.8636364 L4.57142857,29 L9.14285714,29 L9.14285714,27.8636364 L22.8571429,27.8636364 L22.8571429,29 L27.4285714,29 L27.4285714,27.8636364 L32,27.8636364 L32,6.27272727 L17.1428571,6.27272727 L17.1428571,4 L0,4 Z M2,6 L14.8333333,6 L14.8333333,8.23529412 L30,8.23529412 L30,25 L27.6666667,25 L27.6666667,23.8823529 L23,23.8823529 L23,25 L9,25 L9,23.8823529 L4.33333333,23.8823529 L4.33333333,25 L2,25 L2,6 Z M10.5,11 C8.6910159,11 7.2,12.4910159 7.2,14.3 C7.2,15.3527341 7.6941409,16.3066409 8.471875,16.9125 C6.4480466,17.7246091 5,19.6925784 5,22 L7.2,22 C7.2,20.1652341 8.6652341,18.7 10.5,18.7 C12.3347659,18.7 13.8,20.1652341 13.8,22 L16,22 C16,19.6925784 14.5519534,17.7246091 12.528125,16.9125 C13.3058591,16.3066409 13.8,15.3527341 13.8,14.3 C13.8,12.4910159 12.3089841,11 10.5,11 Z M10.5,12.8000002 C11.34375,12.8000002 12,13.4562502 12,14.3000002 C12,15.1437502 11.34375,15.8000002 10.5,15.8000002 C9.65625,15.8000002 9,15.1437502 9,14.3000002 C9,13.4562502 9.65625,12.8000002 10.5,12.8000002 Z M18,13 L18,15 L27,15 L27,13 L18,13 Z M18,18 L18,20 L27,20 L27,18 L18,18 Z" id="path-1"></path>
    </defs>
    <g id="Page-1" stroke="none" stroke-width="1" fill="none" fill-rule="evenodd">
        <g id="icon/icon_contact">
            <mask id="mask-2" fill="white">
                <use xlink:href="#path-1"></use>
            </mask>
            <use id="Shape" fill="#000000" fill-rule="nonzero" xlink:href="#path-1"></use>
        </g>
    </g>
</svg>