<?xml version="1.0" encoding="UTF-8"?>
<svg width="32px" height="32px" viewBox="0 0 32 32" version="1.1" xmlns="http://www.w3.org/2000/svg" xmlns:xlink="http://www.w3.org/1999/xlink">
    <!-- Generator: Sketch 48.2 (47327) - http://www.bohemiancoding.com/sketch -->
    <title>icon/icon_16-digit-pin</title>
    <desc>Created with Sketch.</desc>
    <defs>
        <path d="M3.42857143,5 C1.54910743,5 0,6.50607667 0,8.33333333 L0,23.8888889 C0,25.7161456 1.54910743,27.2222222 3.42857143,27.2222222 L28.5714286,27.2222222 C30.4508926,27.2222222 32,25.7161456 32,23.8888889 L32,8.33333333 C32,6.50607667 30.4508926,5 28.5714286,5 L3.42857143,5 Z M3.42857143,7.22222222 L28.5714286,7.22222222 C29.2187497,7.22222222 29.7142857,7.70399333 29.7142857,8.33333333 L29.7142857,23.8888889 C29.7142857,24.5182289 29.2187497,25 28.5714286,25 L3.42857143,25 C2.78125029,25 2.28571429,24.5182289 2.28571429,23.8888889 L2.28571429,8.33333333 C2.28571429,7.70399333 2.78125029,7.22222222 3.42857143,7.22222222 Z M4.57142857,19.4444444 L4.57142857,21.6666667 L9.14285714,21.6666667 L9.14285714,19.4444444 L4.57142857,19.4444444 Z M10.2857143,19.4444444 L10.2857143,21.6666667 L14.8571429,21.6666667 L14.8571429,19.4444444 L10.2857143,19.4444444 Z M16,19.4444444 L16,21.6666667 L20.5714286,21.6666667 L20.5714286,19.4444444 L16,19.4444444 Z M21.7142857,19.4444444 L21.7142857,21.6666667 L26.2857143,21.6666667 L26.2857143,19.4444444 L21.7142857,19.4444444 Z" id="path-1"></path>
    </defs>
    <g id="Page-1" stroke="none" stroke-width="1" fill="none" fill-rule="evenodd">
        <g id="icon/icon_16-digit-pin">
            <mask id="mask-2" fill="white">
                <use xlink:href="#path-1"></use>
            </mask>
            <use id="Shape" fill="#000000" fill-rule="nonzero" xlink:href="#path-1"></use>
        </g>
    </g>
</svg>