<?xml version="1.0" encoding="UTF-8"?>
<svg width="32px" height="32px" viewBox="0 0 32 32" version="1.1" xmlns="http://www.w3.org/2000/svg" xmlns:xlink="http://www.w3.org/1999/xlink">
    <!-- Generator: Sketch 48.2 (47327) - http://www.bohemiancoding.com/sketch -->
    <title>icon/icon_auto-billing</title>
    <desc>Created with Sketch.</desc>
    <defs>
        <path d="M32,22.88 C32,25.6 30.8,28.04 28.88,29.72 L32,29.72 L32,32 L25.12,32 L25.12,25.16 L27.4,25.16 L27.4,27.96 C28.8,26.68 29.68,24.88 29.68,22.88 C29.68,19.12 26.6,16.04 22.84,16.04 C19.08,16.04 16,19.08 16,22.88 C16,26.24 18.48,29.08 21.68,29.64 L21.68,31.96 C17.16,31.4 13.68,27.52 13.68,22.88 C13.68,17.84 17.8,13.72 22.84,13.72 C27.88,13.72 32,17.84 32,22.88 Z M4.687,19.531 L4.687,17.187 L13.281,17.187 L13.281,19.531 L4.687,19.531 Z M4.687,7.813 L4.687,5.469 L20.312,5.469 L20.312,7.813 L4.687,7.813 Z M12.6906,22.6563 C12.6886,22.7313 12.6796,22.8043 12.6796,22.8803 C12.6796,23.6103 12.7746,24.3173 12.9376,25.0003 L-0.0004,25.0003 L-0.0004,0.0003 L24.9996,0.0003 L24.9996,12.9883 C24.3056,12.8193 23.5846,12.7193 22.8396,12.7193 C22.7776,12.7193 22.7176,12.7273 22.6566,12.7283 L22.6566,2.3443 L2.3436,2.3443 L2.3436,22.6563 L12.6906,22.6563 Z M7.5541,12.59 C7.4821,12.694 7.3931,12.786 7.2881,12.868 C7.1821,12.949 7.0601,13.016 6.9231,13.068 C6.9871,13.102 7.0471,13.143 7.1031,13.192 C7.1591,13.242 7.2101,13.3 7.2541,13.368 L8.1561,14.844 L7.2661,14.844 C7.1011,14.844 6.9831,14.782 6.9111,14.658 L6.2061,13.427 C6.1741,13.374 6.1371,13.336 6.0961,13.311 C6.0551,13.287 5.9971,13.275 5.9211,13.275 L5.6711,13.275 L5.6711,14.844 L4.6871,14.844 L4.6871,10.603 L6.0671,10.603 C6.3741,10.603 6.6351,10.635 6.8511,10.698 C7.0681,10.761 7.2441,10.849 7.3811,10.962 C7.5181,11.074 7.6171,11.207 7.6791,11.36 C7.7411,11.513 7.7721,11.68 7.7721,11.861 C7.7721,11.999 7.7541,12.128 7.7171,12.251 C7.6801,12.373 7.6261,12.486 7.5541,12.59 Z M6.7711,12.194 C6.7981,12.113 6.8121,12.027 6.8121,11.934 C6.8121,11.747 6.7511,11.602 6.6301,11.497 C6.5091,11.392 6.3211,11.34 6.0671,11.34 L5.6711,11.34 L5.6711,12.597 L6.0671,12.597 C6.2011,12.597 6.3151,12.58 6.4091,12.546 C6.5031,12.512 6.5801,12.465 6.6401,12.405 C6.7001,12.345 6.7441,12.275 6.7711,12.194 Z M12.4183,10.6064 C12.4503,10.6044 12.4883,10.6034 12.5303,10.6034 L13.2813,10.6034 L13.2813,14.8434 L12.4143,14.8434 L12.4143,12.4054 C12.4143,12.3484 12.4153,12.2874 12.4183,12.2214 C12.4213,12.1554 12.4273,12.0884 12.4343,12.0204 L11.3083,14.2004 C11.2733,14.2684 11.2263,14.3194 11.1673,14.3544 C11.1083,14.3894 11.0403,14.4074 10.9653,14.4074 L10.8313,14.4074 C10.7553,14.4074 10.6883,14.3894 10.6283,14.3544 C10.5693,14.3194 10.5223,14.2684 10.4873,14.2004 L9.3613,12.0154 C9.3673,12.0844 9.3723,12.1534 9.3763,12.2204 C9.3793,12.2874 9.3813,12.3484 9.3813,12.4054 L9.3813,14.8434 L8.5143,14.8434 L8.5143,10.6034 L9.2653,10.6034 C9.3083,10.6034 9.3453,10.6044 9.3773,10.6064 C9.4093,10.6084 9.4383,10.6144 9.4633,10.6234 C9.4883,10.6334 9.5113,10.6484 9.5313,10.6684 C9.5523,10.6894 9.5723,10.7184 9.5913,10.7544 L10.6823,12.9054 C10.7213,12.9794 10.7583,13.0554 10.7943,13.1354 C10.8303,13.2154 10.8653,13.2964 10.8973,13.3794 C10.9313,13.2944 10.9653,13.2114 11.0013,13.1294 C11.0373,13.0484 11.0753,12.9704 11.1163,12.8964 L12.2043,10.7544 C12.2243,10.7184 12.2443,10.6894 12.2643,10.6684 C12.2843,10.6484 12.3073,10.6334 12.3323,10.6234 C12.3573,10.6144 12.3863,10.6084 12.4183,10.6064 Z" id="path-1"></path>
    </defs>
    <g id="Page-1" stroke="none" stroke-width="1" fill="none" fill-rule="evenodd">
        <g id="icon/icon_auto-billing">
            <mask id="mask-2" fill="white">
                <use xlink:href="#path-1"></use>
            </mask>
            <use id="Combined-Shape" fill="#000000" xlink:href="#path-1"></use>
        </g>
    </g>
</svg>