<?xml version="1.0" encoding="UTF-8"?>
<svg width="22px" height="24px" viewBox="0 0 22 24" version="1.1" xmlns="http://www.w3.org/2000/svg" xmlns:xlink="http://www.w3.org/1999/xlink">
    <!-- Generator: Sketch 47.1 (45422) - http://www.bohemiancoding.com/sketch -->
    <title>Icon_GroupSharingData</title>
    <desc>Created with Sketch.</desc>
    <defs></defs>
    <g id="Page-1" stroke="none" stroke-width="1" fill="none" fill-rule="evenodd">
        <g id="XPAX_DetailedUsage_Internet-Copy" transform="translate(-36.000000, -537.000000)" fill="#333333">
            <g id="Cards" transform="translate(16.000000, 180.000000)">
                <g id="Card_XPAXLateNightInternet" transform="translate(0.000000, 329.000000)">
                    <g id="20:0:20:0" transform="translate(0.000000, 20.000000)">
                        <g id="Header" transform="translate(20.000000, 0.000000)">
                            <g id="Icon_LateNight_24px" transform="translate(0.000000, 8.000000)">
                                <g id="Group">
                                    <path d="M17.8842772,17.9113663 C12.3112871,17.9113663 7.79358416,13.3934257 7.79358416,7.82067327 C7.79358416,5.18685149 8.80324752,2.78875248 10.4561584,0.991841584 C4.60134653,1.4739802 0,6.37805941 0,12.3571485 C0,18.6560792 5.10629703,23.7623762 11.4049901,23.7623762 C15.9961188,23.7623762 19.9530297,21.0491881 21.7618218,17.1390891 C20.5675248,17.636198 19.2582178,17.9113663 17.8842772,17.9113663 Z" id="Shape" fill-rule="nonzero"></path>
                                    <polygon id="Shape" fill-rule="nonzero" points="15.1119378 0.504039604 16.0756765 2.45635345 18.2303469 2.76966012 16.671346 4.28937053 17.0394151 6.43528713 15.1119378 5.422079 13.1850712 6.43528713 13.5529368 4.28937053 11.9937323 2.76966012 14.1484027 2.45635345"></polygon>
                                    <polygon id="Shape" fill-rule="nonzero" points="17.3425059 8.48636721 17.7983473 9.41023691 18.8176377 9.55803532 18.0802015 10.2775802 18.2541887 11.2927219 17.3425059 10.8132846 16.4305638 11.2927219 16.604551 10.2775802 15.8671148 9.55803532 16.8864052 9.41023691"></polygon>
                                </g>
                            </g>
                        </g>
                    </g>
                </g>
            </g>
        </g>
    </g>
</svg>