<?xml version="1.0" encoding="UTF-8"?>
<svg width="32px" height="32px" viewBox="0 0 32 32" version="1.1" xmlns="http://www.w3.org/2000/svg" xmlns:xlink="http://www.w3.org/1999/xlink">
    <!-- Generator: Sketch 48.2 (47327) - http://www.bohemiancoding.com/sketch -->
    <title>icon/icon_history</title>
    <desc>Created with Sketch.</desc>
    <defs>
        <path d="M17.843318,2 C10.0256836,2 3.68663594,8.22783626 3.68663594,15.9083192 L0,15.9083192 L5.0865745,21.9198038 L5.19668203,22.1361554 L10.5192012,15.9083192 L6.83256528,15.9083192 C6.83256528,9.92774194 11.7559447,5.0907376 17.843318,5.0907376 C23.9306912,5.0907376 28.8540707,9.92774194 28.8540707,15.9083192 C28.8540707,21.8888964 23.9306912,26.7259008 17.843318,26.7259008 C14.8074962,26.7259008 12.054808,25.5050594 10.0728725,23.542441 L7.83926267,25.7368647 C10.4031951,28.2558159 13.9266359,29.8166384 17.843318,29.8166384 C25.6609524,29.8166384 32,23.5888021 32,15.9083192 C32,8.22783626 25.6609524,2 17.843318,2 Z M16.2703533,9.72684399 L16.2703533,17.453688 L23.0026421,21.3789247 L24.1351767,19.5090285 L18.6298003,16.2946614 L18.6298003,9.72684399 L16.2703533,9.72684399 Z" id="path-1"></path>
    </defs>
    <g id="Page-1" stroke="none" stroke-width="1" fill="none" fill-rule="evenodd">
        <g id="icon/icon_history">
            <mask id="mask-2" fill="white">
                <use xlink:href="#path-1"></use>
            </mask>
            <use id="Shape" fill="#000000" fill-rule="nonzero" xlink:href="#path-1"></use>
        </g>
    </g>
</svg>