<?xml version="1.0" encoding="UTF-8"?>
<svg width="32px" height="32px" viewBox="0 0 32 32" version="1.1" xmlns="http://www.w3.org/2000/svg" xmlns:xlink="http://www.w3.org/1999/xlink">
    <!-- Generator: Sketch 48.2 (47327) - http://www.bohemiancoding.com/sketch -->
    <title>icon/icon_happy-face</title>
    <desc>Created with Sketch.</desc>
    <defs>
        <path d="M16,0 C7.177084,0 0,7.177084 0,16 C0,24.8229173 7.177084,32 16,32 C24.8229173,32 32,24.8229173 32,16 C32,7.177084 24.8229173,0 16,0 Z M16,2.66666667 C23.380208,2.66666667 29.3333333,8.619792 29.3333333,16 C29.3333333,23.380208 23.380208,29.3333333 16,29.3333333 C8.619792,29.3333333 2.66666667,23.380208 2.66666667,16 C2.66666667,8.619792 8.619792,2.66666667 16,2.66666667 Z M11,9.66666667 C9.89583333,9.66666667 9,10.5625 9,11.6666667 C9,12.7708333 9.89583333,13.6666667 11,13.6666667 C12.1041667,13.6666667 13,12.7708333 13,11.6666667 C13,10.5625 12.1041667,9.66666667 11,9.66666667 Z M21,9.66666667 C19.8958333,9.66666667 19,10.5625 19,11.6666667 C19,12.7708333 19.8958333,13.6666667 21,13.6666667 C22.1041667,13.6666667 23,12.7708333 23,11.6666667 C23,10.5625 22.1041667,9.66666667 21,9.66666667 Z M9.08333333,19 L6.79166667,20.3333333 C8.63541733,23.5156253 12.0625,25.6666667 16,25.6666667 C19.9375,25.6666667 23.364584,23.5156253 25.2083333,20.3333333 L22.9166667,19 C21.5312507,21.3906253 18.9687507,23 16,23 C13.0312507,23 10.4687507,21.3906253 9.08333333,19 Z" id="path-1"></path>
    </defs>
    <g id="Page-1" stroke="none" stroke-width="1" fill="none" fill-rule="evenodd">
        <g id="icon/icon_happy-face">
            <mask id="mask-2" fill="white">
                <use xlink:href="#path-1"></use>
            </mask>
            <use id="Shape" fill="#000000" fill-rule="nonzero" xlink:href="#path-1"></use>
        </g>
    </g>
</svg>