<?xml version="1.0" encoding="UTF-8"?>
<svg width="32px" height="32px" viewBox="0 0 32 32" version="1.1" xmlns="http://www.w3.org/2000/svg" xmlns:xlink="http://www.w3.org/1999/xlink">
    <!-- Generator: Sketch 48.2 (47327) - http://www.bohemiancoding.com/sketch -->
    <title>icon/icon_pay-bill-or-details</title>
    <desc>Created with Sketch.</desc>
    <defs>
        <path d="M0,0 L0,32 L32,32 L32,0 L0,0 Z M3,3 L29,3 L29,29 L3,29 L3,3 Z M6,7 L6,10 L26,10 L26,7 L6,7 Z M6,16 L6,19 L17,19 L17,16 L6,16 Z M21,16 L21,19 L26,19 L26,16 L21,16 Z M6,22 L6,25 L17,25 L17,22 L6,22 Z M21,22 L21,25 L26,25 L26,22 L21,22 Z" id="path-1"></path>
    </defs>
    <g id="Page-1" stroke="none" stroke-width="1" fill="none" fill-rule="evenodd">
        <g id="icon/icon_pay-bill-or-details">
            <mask id="mask-2" fill="white">
                <use xlink:href="#path-1"></use>
            </mask>
            <use id="Shape" fill="#000000" fill-rule="nonzero" xlink:href="#path-1"></use>
        </g>
    </g>
</svg>