<?xml version="1.0" encoding="UTF-8"?>
<svg width="32px" height="32px" viewBox="0 0 32 32" version="1.1" xmlns="http://www.w3.org/2000/svg" xmlns:xlink="http://www.w3.org/1999/xlink">
    <!-- Generator: Sketch 48.2 (47327) - http://www.bohemiancoding.com/sketch -->
    <title>icon/icon_call</title>
    <desc>Created with Sketch.</desc>
    <defs>
        <path d="M29.7142857,28.1904762 C29.7142857,29.0285714 29.0285714,29.7142857 28.1904762,29.7142857 C13.8819048,29.7142857 2.28571429,18.1180952 2.28571429,3.80952381 C2.28571429,2.97142857 2.97142857,2.28571429 3.80952381,2.28571429 L9.14285714,2.28571429 C9.98095238,2.28571429 10.6666667,2.97142857 10.6666667,3.80952381 C10.6666667,5.71428571 10.9714286,7.54285714 11.5352381,9.24952381 C11.7028571,9.78285714 11.5809524,10.3771429 11.1542857,10.8038095 L7.80190476,14.1561905 C9.99619048,18.4685714 13.5314286,21.9885714 17.8438095,24.1980952 L21.1961905,20.8457143 C21.4872381,20.5546667 21.8788571,20.4007619 22.2704762,20.4007619 C22.432,20.4007619 22.5950476,20.4266667 22.7504762,20.48 C24.4571429,21.0438095 26.3009524,21.3485714 28.1904762,21.3485714 C29.0285714,21.3485714 29.7142857,22.0342857 29.7142857,22.872381 L29.7142857,28.1904762 Z M28.1904762,19.0628571 C26.5691429,19.0628571 24.9798095,18.8099048 23.4681905,18.3100952 C23.0994286,18.183619 22.688,18.1150476 22.2704762,18.1150476 C21.2693333,18.1150476 20.288,18.520381 19.5794286,19.2289524 L17.4537143,21.3561905 C14.688,19.648 12.3352381,17.2967619 10.6422857,14.5493333 L12.7710476,12.4205714 C13.7828571,11.4072381 14.1455238,9.93066667 13.7158095,8.56380952 C13.2053333,7.02019048 12.952381,5.43085714 12.952381,3.80952381 C12.952381,1.70971429 11.2426667,0 9.14285714,0 L3.80952381,0 C1.70971429,0 0,1.70971429 0,3.80952381 C0,19.3539048 12.6460952,32 28.1904762,32 C30.2902857,32 32,30.2902857 32,28.1904762 L32,22.872381 C32,20.7710476 30.2902857,19.0628571 28.1904762,19.0628571 Z" id="path-1"></path>
    </defs>
    <g id="Page-1" stroke="none" stroke-width="1" fill="none" fill-rule="evenodd">
        <g id="icon/icon_call">
            <mask id="mask-2" fill="white">
                <use xlink:href="#path-1"></use>
            </mask>
            <use id="Page-1" fill="#000000" xlink:href="#path-1"></use>
        </g>
    </g>
</svg>