<?xml version="1.0" encoding="UTF-8"?>
<svg width="32px" height="32px" viewBox="0 0 32 32" version="1.1" xmlns="http://www.w3.org/2000/svg" xmlns:xlink="http://www.w3.org/1999/xlink">
    <!-- Generator: Sketch 48.2 (47327) - http://www.bohemiancoding.com/sketch -->
    <title>icon/icon_one-time-password</title>
    <desc>Created with Sketch.</desc>
    <defs>
        <path d="M0,3 L0,20.6551724 L14.3448276,20.6551724 C14.3448276,25.5172414 18.3103448,29.4827586 23.1724138,29.4827586 C28.0344828,29.4827586 32,25.5172414 32,20.6551724 C32,17.8750003 30.7068966,15.4137931 28.6896552,13.7931034 L28.6896552,3 L0,3 Z M2.20689655,5.20689655 L26.4827586,5.20689655 L26.4827586,12.4827586 C25.4568971,12.0603454 24.3491377,11.8275862 23.1724138,11.8275862 C23.1724138,10.6077583 22.1853451,9.62068966 20.9655172,9.62068966 C19.7456894,9.62068966 18.7586207,10.6077583 18.7586207,11.8275862 C18.7586207,12.2025865 18.8706902,12.5517241 19.0344828,12.862069 C16.8836204,14.0086212 15.2844833,16.0387928 14.6551724,18.4482759 L2.20689655,18.4482759 L2.20689655,5.20689655 Z M7.72413793,9.62068966 C6.50431007,9.62068966 5.51724138,10.6077583 5.51724138,11.8275862 C5.51724138,13.0474141 6.50431007,14.0344828 7.72413793,14.0344828 C8.94396579,14.0344828 9.93103448,13.0474141 9.93103448,11.8275862 C9.93103448,10.6077583 8.94396579,9.62068966 7.72413793,9.62068966 Z M14.3448276,9.62068966 C13.1249997,9.62068966 12.137931,10.6077583 12.137931,11.8275862 C12.137931,13.0474141 13.1249997,14.0344828 14.3448276,14.0344828 C15.5646554,14.0344828 16.5517241,13.0474141 16.5517241,11.8275862 C16.5517241,10.6077583 15.5646554,9.62068966 14.3448276,9.62068966 Z M23.1724138,14.0344828 C26.8405175,14.0344828 29.7931034,16.9870687 29.7931034,20.6551724 C29.7931034,24.3232761 26.8405175,27.2758621 23.1724138,27.2758621 C19.5043101,27.2758621 16.5517241,24.3232761 16.5517241,20.6551724 C16.5517241,16.9870687 19.5043101,14.0344828 23.1724138,14.0344828 Z M26.7931034,17.6551724 L23.1724138,21.2758621 L20.6551724,18.7586207 L19.0689655,20.3448276 L22.3793103,23.6551724 L23.1724138,24.4137931 L23.9655172,23.6551724 L28.3793103,19.2413793 L26.7931034,17.6551724 Z" id="path-1"></path>
    </defs>
    <g id="Page-1" stroke="none" stroke-width="1" fill="none" fill-rule="evenodd">
        <g id="icon/icon_one-time-password">
            <mask id="mask-2" fill="white">
                <use xlink:href="#path-1"></use>
            </mask>
            <use id="Shape" fill="#000000" fill-rule="nonzero" xlink:href="#path-1"></use>
        </g>
    </g>
</svg>