<?xml version="1.0" encoding="UTF-8"?>
<svg width="32px" height="32px" viewBox="0 0 32 32" version="1.1" xmlns="http://www.w3.org/2000/svg" xmlns:xlink="http://www.w3.org/1999/xlink">
    <!-- Generator: Sketch 48.2 (47327) - http://www.bohemiancoding.com/sketch -->
    <title>icon/icon_redemption-reward-notification</title>
    <desc>Created with Sketch.</desc>
    <defs>
        <path d="M24.2,32 C25.3,32 26.1,31.1 26.1,30.1 L22.2,30.1 C22.3,31.1 23.1,32 24.2,32 Z M30.1,26.2 L30.1,21.3 C30.1,18.3 28.5,15.8 25.7,15.1 L25.7,14.4 C25.7,13.6 25,12.9 24.2,12.9 C23.4,12.9 22.7,13.6 22.7,14.4 L22.7,15.1 C19.9,15.8 18.3,18.3 18.3,21.3 L18.3,26.2 L16.4,28.1 L16.4,29.1 L32,29.1 L32,28.1 L30.1,26.2 Z M28.1,27.1 L20.3,27.1 L20.3,21.3 C20.3,18.9 21.8,16.9 24.2,16.9 C26.6,16.9 28.1,18.9 28.1,21.3 L28.1,27.1 Z M13,21 L17,21 L17,23 L1,23 L1,10 L0,10 L0,4 L5.2,4 C5.1,3.7 5,3.4 5,3 C5,1.4 6.4,0 8,0 C9.8,0 10.9,1.3 11.7,2.4 C11.8,2.5 11.9,2.7 12,2.8 C12.1,2.7 12.2,2.5 12.3,2.4 C13.1,1.3 14.2,0 16,0 C17.6,0 19,1.4 19,3 C19,3.4 18.9,3.7 18.8,4 L24,4 L24,10 L22.3,10 L22.3,12.5 C21.5,12.7 20.9,13.1 20.3,13.6 L20.3,10 L3,10 L3,21 L11,21 L11,11 L13,11 L13,21 Z M13.9,3.6 C13.8,3.8 13.8,3.8 13.7,4 L16,4 C16.6,4 17,3.6 17,3 C17,2.4 16.6,2 16,2 C15.4,2 14.6,2.7 13.9,3.6 Z M8,2 C7.4,2 7,2.4 7,3 C7,3.6 7.4,4 8,4 L10.3,4 C10.2,3.8 10.3,3.8 10.1,3.6 C9.4,2.7 8.6,2 8,2 Z M2,6 L2,8 L11,8 L11,7 L13,7 L13,8 L22,8 L22,6 L2,6 Z" id="path-1"></path>
    </defs>
    <g id="Page-1" stroke="none" stroke-width="1" fill="none" fill-rule="evenodd">
        <g id="icon/icon_redemption-reward-notification">
            <mask id="mask-2" fill="white">
                <use xlink:href="#path-1"></use>
            </mask>
            <use id="Combined-Shape" fill="#000000" fill-rule="nonzero" xlink:href="#path-1"></use>
        </g>
    </g>
</svg>