<?xml version="1.0" encoding="UTF-8"?>
<svg width="32px" height="32px" viewBox="0 0 32 32" version="1.1" xmlns="http://www.w3.org/2000/svg" xmlns:xlink="http://www.w3.org/1999/xlink">
    <!-- Generator: Sketch 48.2 (47327) - http://www.bohemiancoding.com/sketch -->
    <title>icon/icon_pay-per-use</title>
    <desc>Created with Sketch.</desc>
    <defs>
        <path d="M31.0711,23.5687 L32.0001,25.8057 L17.0471,31.9997 L8.3891,27.2327 L2.4071,29.5257 L0.0001,22.7677 L6.8811,20.1277 L6.9051,20.1187 C6.9051,20.1187 7.8581,19.8007 9.1091,19.7957 C10.3461,19.7917 12.0141,20.1047 13.4171,21.3647 L13.4311,21.3747 C14.6351,22.4167 15.2271,22.8767 16.0611,23.1327 C16.8961,23.3977 18.1701,23.4837 20.6111,23.4737 L20.6211,25.9007 C18.1331,25.9097 16.6441,25.8627 15.3321,25.4497 C14.0191,25.0377 13.0761,24.2797 11.8251,23.1947 L11.8201,23.1897 L11.8061,23.1797 C10.9571,22.4127 9.9621,22.2227 9.1091,22.2227 C8.2651,22.2227 7.6971,22.4127 7.6871,22.4167 L3.0801,24.1847 L3.8581,26.3747 L8.5781,24.5687 L17.1941,29.3127 L31.0711,23.5687 Z M7.5,18 C5.567,18 4,16.433 4,14.5 L4,3.5 C4,1.567 5.567,0 7.5,0 L24.5,0 C26.433,0 28,1.567 28,3.5 L28,14.5 C28,16.433 26.433,18 24.5,18 L7.5,18 Z M6.5,3.5 L6.5,14.5 C6.5,15.051 6.949,15.5 7.5,15.5 L24.5,15.5 C25.051,15.5 25.5,15.051 25.5,14.5 L25.5,3.5 C25.5,2.949 25.051,2.5 24.5,2.5 L7.5,2.5 C6.949,2.5 6.5,2.949 6.5,3.5 Z M10.7941,9.8659 L10.7941,12.3309 L9.2481,12.3309 L9.2481,5.6689 L11.4161,5.6689 C11.8981,5.6689 12.3091,5.7189 12.6481,5.8179 C12.9881,5.9169 13.2661,6.0539 13.4811,6.2309 C13.6951,6.4089 13.8511,6.6169 13.9491,6.8579 C14.0471,7.0979 14.0961,7.3599 14.0961,7.6439 C14.0961,7.8609 14.0671,8.0649 14.0091,8.2569 C13.9501,8.4489 13.8661,8.6259 13.7521,8.7889 C13.6401,8.9529 13.5001,9.0979 13.3341,9.2259 C13.1681,9.3539 12.9771,9.4599 12.7601,9.5419 C12.8611,9.5939 12.9551,9.6589 13.0441,9.7359 C13.1331,9.8139 13.2111,9.9069 13.2811,10.0129 L14.6991,12.3309 L13.3001,12.3309 C13.0411,12.3309 12.8551,12.2339 12.7421,12.0389 L11.6351,10.1049 C11.5841,10.0219 11.5261,9.9619 11.4621,9.9239 C11.3981,9.8859 11.3061,9.8659 11.1871,9.8659 L10.7941,9.8659 Z M10.7941,6.8259 L10.7941,8.8009 L11.4161,8.8009 C11.6261,8.8009 11.8051,8.7749 11.9531,8.7209 C12.1011,8.6679 12.2221,8.5939 12.3171,8.4989 C12.4111,8.4049 12.4801,8.2949 12.5221,8.1679 C12.5651,8.0409 12.5861,7.9049 12.5861,7.7589 C12.5861,7.4659 12.4911,7.2379 12.3001,7.0719 C12.1101,6.9079 11.8151,6.8259 11.4161,6.8259 L10.7941,6.8259 Z M16.6241,8.4991 L16.6241,12.3311 L15.2611,12.3311 L15.2611,5.6681 L16.4411,5.6681 C16.5091,5.6681 16.5671,5.6701 16.6171,5.6731 C16.6681,5.6761 16.7131,5.6861 16.7521,5.7011 C16.7911,5.7161 16.8281,5.7391 16.8601,5.7711 C16.8921,5.8031 16.9231,5.8491 16.9541,5.9071 L18.6681,9.2861 C18.7291,9.4021 18.7881,9.5221 18.8441,9.6471 C18.9011,9.7721 18.9551,9.9001 19.0061,10.0311 C19.0591,9.8971 19.1131,9.7661 19.1691,9.6381 C19.2251,9.5101 19.2851,9.3881 19.3501,9.2721 L21.0601,5.9071 C21.0901,5.8491 21.1221,5.8031 21.1541,5.7711 C21.1861,5.7391 21.2211,5.7161 21.2611,5.7011 C21.3001,5.6861 21.3461,5.6761 21.3961,5.6731 C21.4461,5.6701 21.5051,5.6681 21.5721,5.6681 L22.7521,5.6681 L22.7521,12.3311 L21.3891,12.3311 L21.3891,8.4991 C21.3891,8.4111 21.3911,8.3151 21.3961,8.2111 C21.4011,8.1081 21.4091,8.0031 21.4211,7.8951 L19.6521,11.3211 C19.5971,11.4281 19.5221,11.5081 19.4301,11.5631 C19.3371,11.6181 19.2301,11.6451 19.1121,11.6451 L18.9011,11.6451 C18.7821,11.6451 18.6771,11.6181 18.5841,11.5631 C18.4911,11.5081 18.4171,11.4281 18.3621,11.3211 L16.5921,7.8861 C16.6011,7.9961 16.6091,8.1041 16.6151,8.2091 C16.6211,8.3141 16.6241,8.4111 16.6241,8.4991 Z" id="path-1"></path>
    </defs>
    <g id="Page-1" stroke="none" stroke-width="1" fill="none" fill-rule="evenodd">
        <g id="icon/icon_pay-per-use">
            <mask id="mask-2" fill="white">
                <use xlink:href="#path-1"></use>
            </mask>
            <use id="Combined-Shape" fill="#000000" xlink:href="#path-1"></use>
        </g>
    </g>
</svg>