<?xml version="1.0" encoding="UTF-8"?>
<svg width="20px" height="19px" viewBox="0 0 20 19" version="1.1" xmlns="http://www.w3.org/2000/svg" xmlns:xlink="http://www.w3.org/1999/xlink">
    <!-- Generator: Sketch 47.1 (45422) - http://www.bohemiancoding.com/sketch -->
    <title>Icon_PayNow</title>
    <desc>Created with Sketch.</desc>
    <defs></defs>
    <g id="Paybill|WIP" stroke="none" stroke-width="1" fill="none" fill-rule="evenodd" opacity="0.9">
        <g id="MA_reload-1" transform="translate(-51.000000, -197.000000)" fill-rule="nonzero" fill="#009ADE">
            <g id="reloadmethod-card" transform="translate(-39.000000, 159.000000)">
                <g id="Tab1" transform="translate(38.000000, 36.000000)">
                    <g id="Group-4">
                        <g id="tab">
                            <g id="Icons_QuickReload_333333-Copy-3" transform="translate(52.000000, 2.000000)">
                                <path d="M0.588235294,0 L0.588235294,19 L19.2702344,19 L19.2702344,0 L0.588235294,0 Z M2.45643521,1.58333333 L17.4020345,1.58333333 L17.4020345,17.4166667 L2.45643521,17.4166667 L2.45643521,1.58333333 Z M4.32463512,4.75 L4.32463512,6.33333333 L15.5338346,6.33333333 L15.5338346,4.75 L4.32463512,4.75 Z M4.32463512,9.5 L4.32463512,11.0833333 L10.8633348,11.0833333 L10.8633348,9.5 L4.32463512,9.5 Z M12.7315347,9.5 L12.7315347,11.0833333 L15.5338346,11.0833333 L15.5338346,9.5 L12.7315347,9.5 Z M4.32463512,12.6666667 L4.32463512,14.25 L10.8633348,14.25 L10.8633348,12.6666667 L4.32463512,12.6666667 Z M12.7315347,12.6666667 L12.7315347,14.25 L15.5338346,14.25 L15.5338346,12.6666667 L12.7315347,12.6666667 Z" id="Shape"></path>
                            </g>
                        </g>
                    </g>
                </g>
            </g>
        </g>
    </g>
</svg>