<?xml version="1.0" encoding="UTF-8"?>
<svg width="32px" height="32px" viewBox="0 0 32 32" version="1.1" xmlns="http://www.w3.org/2000/svg" xmlns:xlink="http://www.w3.org/1999/xlink">
    <!-- Generator: Sketch 48.2 (47327) - http://www.bohemiancoding.com/sketch -->
    <title>icon/icon_pin</title>
    <desc>Created with Sketch.</desc>
    <defs>
        <path d="M8.19975933,28.7998396 L24.2001604,28.7998396 L24.2001604,3.20016045 L8.19975933,3.20016045 L8.19975933,28.7998396 Z M26.4997994,0.899719214 C27.1062976,1.50621741 27.3995187,2.3622142 27.3995187,3.20016045 L27.3995187,28.7998396 C27.3995187,29.6373847 27.1062976,30.4937826 26.4997994,31.0998797 C25.8941035,31.7063779 25.0373045,32 24.2001604,32 L8.19975933,32 C7.36261532,32 6.50621741,31.7063779 5.90012034,31.0998797 C5.29362214,30.4937826 5,29.6373847 5,28.7998396 L5,25.6000802 L5,22.3999198 L5,20.8002407 L5,17.6000802 L5,3.20016045 C5,2.3622142 5.29362214,1.50621741 5.90012034,0.899719214 C6.50621741,0.293622142 7.36261532,0 8.19975933,0 L11.3999198,0 L14.6000802,0 L24.2001604,0 C25.0373045,0 25.8941035,0.293622142 26.4997994,0.899719214 Z M13.7998396,27.2001604 L18.5996791,27.2001604 L18.5996791,24 L13.7998396,24 L13.7998396,27.2001604 Z M11.9481996,12.7100442 C12.2817452,12.7100442 12.5217933,12.6304493 12.6683512,12.4712571 C12.8149091,12.3120649 12.888187,12.0897045 12.888187,11.8041693 C12.888187,11.6778263 12.8692358,11.5628559 12.8313329,11.4592546 C12.79343,11.3556533 12.7359448,11.2665828 12.6588756,11.1920404 C12.5818063,11.117498 12.4845236,11.0600128 12.3670246,11.0195831 C12.2495256,10.9791533 12.1099187,10.9589387 11.9481996,10.9589387 L11.2811118,10.9589387 L11.2811118,12.7100442 L11.9481996,12.7100442 Z M11.9481996,10 C12.3373361,10 12.6715084,10.0461145 12.9507265,10.1383449 C13.2299445,10.2305753 13.4598854,10.3575481 13.6405559,10.5192672 C13.8212264,10.6809863 13.9545163,10.8717614 14.0404296,11.0915982 C14.1263428,11.3114351 14.1692988,11.5489564 14.1692988,11.8041693 C14.1692988,12.0795971 14.1250794,12.3322793 14.0366393,12.5622236 C13.9481992,12.7921679 13.8130142,12.9892601 13.6310802,13.153506 C13.4491463,13.3177519 13.2185737,13.4459882 12.9393557,13.5382186 C12.6601376,13.630449 12.3297555,13.6765635 11.9481996,13.6765635 L11.2811118,13.6765635 L11.2811118,15.5224258 L10,15.5224258 L10,10 L11.9481996,10 Z M16.1099179,15.5224258 L14.8212255,15.5224258 L14.8212255,10 L16.1099179,10 L16.1099179,15.5224258 Z M22,10 L22,15.5224258 L21.3329122,15.5224258 C21.2343646,15.5224258 21.1516112,15.5066331 21.0846494,15.4750474 C21.0176876,15.4434616 20.9513585,15.3885032 20.8856601,15.3101706 L18.2817435,12.0164245 C18.291851,12.1149721 18.2987997,12.2103596 18.30259,12.30259 C18.3063803,12.3948204 18.3082754,12.4813641 18.3082754,12.5622236 L18.3082754,15.5224258 L17.1787745,15.5224258 L17.1787745,10 L17.8534428,10 C17.9090338,10 17.95578,10.0025268 17.9936829,10.0075805 C18.0315858,10.0126343 18.0656979,10.0221098 18.0960202,10.0360076 C18.1263425,10.0499053 18.155401,10.0694882 18.1831965,10.0947568 C18.2109919,10.1200254 18.2425772,10.1541375 18.2779533,10.1970941 L20.9046115,13.5135818 C20.8919772,13.4074537 20.8831333,13.3044857 20.8780796,13.2046747 C20.8730259,13.1048637 20.8704991,13.0107395 20.8704991,12.9222994 L20.8704991,10 L22,10 Z" id="path-1"></path>
    </defs>
    <g id="Page-1" stroke="none" stroke-width="1" fill="none" fill-rule="evenodd">
        <g id="icon/icon_pin">
            <mask id="mask-2" fill="white">
                <use xlink:href="#path-1"></use>
            </mask>
            <use id="Combined-Shape" fill="#000000" xlink:href="#path-1"></use>
        </g>
    </g>
</svg>