<?xml version="1.0" encoding="UTF-8"?>
<svg width="32px" height="32px" viewBox="0 0 32 32" version="1.1" xmlns="http://www.w3.org/2000/svg" xmlns:xlink="http://www.w3.org/1999/xlink">
    <!-- Generator: Sketch 48.2 (47327) - http://www.bohemiancoding.com/sketch -->
    <title>icon/icon_internet</title>
    <desc>Created with Sketch.</desc>
    <defs>
        <path d="M16.1578947,0 C9.55938868,0 3.86237587,3.83333333 1.26458037,9.33333333 L4.3371266,9.33333333 C5.80938834,6.85937467 8.07112376,4.89062533 10.7809388,3.75 C9.87411164,5.255208 9.13264615,7.15104133 8.64722617,9.33333333 L11.5064011,9.33333333 C12.5412525,5.28125067 14.4135843,2.66666667 16.1578947,2.66666667 C17.9022052,2.66666667 19.7745384,5.28125067 20.8093883,9.33333333 L23.6685633,9.33333333 C23.1831433,7.15104133 22.4416792,5.255208 21.5348506,3.75 C24.2446657,4.89062533 26.5064011,6.85937467 27.9786629,9.33333333 L31.0512091,9.33333333 C28.4534136,3.83333333 22.7564008,0 16.1578947,0 Z M1.26458037,22.6666667 L4.3371266,22.6666667 C5.80938834,25.1406253 8.07112376,27.1093747 10.7809388,28.25 C9.87411164,26.744792 9.13264615,24.8489587 8.64722617,22.6666667 L11.5064011,22.6666667 C12.5412525,26.7187507 14.4135843,29.3333333 16.1578947,29.3333333 C17.9022052,29.3333333 19.7745384,26.7187507 20.8093883,22.6666667 L23.6685633,22.6666667 C23.1831433,24.8489587 22.4416792,26.744792 21.5348506,28.25 C24.2446657,27.1093747 26.5064011,25.1406253 27.9786629,22.6666667 L31.0512091,22.6666667 C28.4534136,28.1666667 22.7564008,32 16.1578947,32 C9.55938868,32 3.86237587,28.1666667 1.26458037,22.6666667 Z M10.63,12.715 L8.38,20 L6.85,20 L5.48,15.485 C5.4533332,15.4149996 5.42833345,15.3375004 5.405,15.2525 C5.38166655,15.1674996 5.35833345,15.0783338 5.335,14.985 C5.31166655,15.0783338 5.28833345,15.1674996 5.265,15.2525 C5.24166655,15.3375004 5.2166668,15.4149996 5.19,15.485 L3.8,20 L2.27,20 L0.02,12.715 L1.44,12.715 C1.5866674,12.715 1.70916617,12.748333 1.8075,12.815 C1.90583382,12.881667 1.96999985,12.9699994 2,13.08 L3,16.88 C3.03000015,17.0000006 3.05999985,17.1308326 3.09,17.2725 C3.12000015,17.4141674 3.14999985,17.5616659 3.18,17.715 C3.2400003,17.4016651 3.3133329,17.1233345 3.4,16.88 L4.58,13.08 C4.61000015,12.9866662 4.67416617,12.9025004 4.7725,12.8275 C4.87083382,12.7524996 4.9899993,12.715 5.13,12.715 L5.63,12.715 C5.7766674,12.715 5.89499955,12.7491663 5.985,12.8175 C6.07500045,12.8858337 6.1433331,12.9733328 6.19,13.08 L7.36,16.88 C7.4466671,17.1133345 7.5199997,17.3783318 7.58,17.675 C7.6066668,17.5249992 7.63416652,17.3841673 7.6625,17.2525 C7.69083347,17.1208327 7.71999985,16.9966672 7.75,16.88 L8.75,13.08 C8.7766668,12.9833328 8.8399995,12.8983337 8.94,12.825 C9.0400005,12.7516663 9.1599993,12.715 9.3,12.715 L10.63,12.715 Z M21.28,12.715 L19.03,20 L17.5,20 L16.13,15.485 C16.1033332,15.4149996 16.0783334,15.3375004 16.055,15.2525 C16.0316665,15.1674996 16.0083334,15.0783338 15.985,14.985 C15.9616665,15.0783338 15.9383334,15.1674996 15.915,15.2525 C15.8916665,15.3375004 15.8666668,15.4149996 15.84,15.485 L14.45,20 L12.92,20 L10.67,12.715 L12.09,12.715 C12.2366674,12.715 12.3591662,12.748333 12.4575,12.815 C12.5558338,12.881667 12.6199998,12.9699994 12.65,13.08 L13.65,16.88 C13.6800001,17.0000006 13.7099998,17.1308326 13.74,17.2725 C13.7700001,17.4141674 13.7999998,17.5616659 13.83,17.715 C13.8900003,17.4016651 13.9633329,17.1233345 14.05,16.88 L15.23,13.08 C15.2600001,12.9866662 15.3241662,12.9025004 15.4225,12.8275 C15.5208338,12.7524996 15.6399993,12.715 15.78,12.715 L16.28,12.715 C16.4266674,12.715 16.5449995,12.7491663 16.635,12.8175 C16.7250004,12.8858337 16.7933331,12.9733328 16.84,13.08 L18.01,16.88 C18.0966671,17.1133345 18.1699997,17.3783318 18.23,17.675 C18.2566668,17.5249992 18.2841665,17.3841673 18.3125,17.2525 C18.3408335,17.1208327 18.3699998,16.9966672 18.4,16.88 L19.4,13.08 C19.4266668,12.9833328 19.4899995,12.8983337 19.59,12.825 C19.6900005,12.7516663 19.8099993,12.715 19.95,12.715 L21.28,12.715 Z M31.93,12.715 L29.68,20 L28.15,20 L26.78,15.485 C26.7533332,15.4149996 26.7283335,15.3375004 26.705,15.2525 C26.6816666,15.1674996 26.6583335,15.0783338 26.635,14.985 C26.6116666,15.0783338 26.5883335,15.1674996 26.565,15.2525 C26.5416666,15.3375004 26.5166668,15.4149996 26.49,15.485 L25.1,20 L23.57,20 L21.32,12.715 L22.74,12.715 C22.8866674,12.715 23.0091662,12.748333 23.1075,12.815 C23.2058338,12.881667 23.2699999,12.9699994 23.3,13.08 L24.3,16.88 C24.3300002,17.0000006 24.3599999,17.1308326 24.39,17.2725 C24.4200002,17.4141674 24.4499999,17.5616659 24.48,17.715 C24.5400003,17.4016651 24.6133329,17.1233345 24.7,16.88 L25.88,13.08 C25.9100002,12.9866662 25.9741662,12.9025004 26.0725,12.8275 C26.1708338,12.7524996 26.2899993,12.715 26.43,12.715 L26.93,12.715 C27.0766674,12.715 27.1949996,12.7491663 27.285,12.8175 C27.3750005,12.8858337 27.4433331,12.9733328 27.49,13.08 L28.66,16.88 C28.7466671,17.1133345 28.8199997,17.3783318 28.88,17.675 C28.9066668,17.5249992 28.9341665,17.3841673 28.9625,17.2525 C28.9908335,17.1208327 29.0199999,16.9966672 29.05,16.88 L30.05,13.08 C30.0766668,12.9833328 30.1399995,12.8983337 30.24,12.825 C30.3400005,12.7516663 30.4599993,12.715 30.6,12.715 L31.93,12.715 Z" id="path-1"></path>
    </defs>
    <g id="Page-1" stroke="none" stroke-width="1" fill="none" fill-rule="evenodd">
        <g id="icon/icon_internet">
            <mask id="mask-2" fill="white">
                <use xlink:href="#path-1"></use>
            </mask>
            <use id="Combined-Shape" fill="#000000" fill-rule="nonzero" xlink:href="#path-1"></use>
        </g>
    </g>
</svg>