<?xml version="1.0" encoding="UTF-8"?>
<svg width="14px" height="14px" viewBox="0 0 14 14" version="1.1" xmlns="http://www.w3.org/2000/svg" xmlns:xlink="http://www.w3.org/1999/xlink">
    <!-- Generator: Sketch 47.1 (45422) - http://www.bohemiancoding.com/sketch -->
    <title>icons8-add_tag</title>
    <desc>Created with Sketch.</desc>
    <defs></defs>
    <g id="WIP-|-Symbols" stroke="none" stroke-width="1" fill="none" fill-rule="evenodd">
        <g id="Icon_AddOns_14px" transform="translate(0.000000, -1.000000)">
            <g id="icons8-add_tag" transform="translate(0.000000, 1.000000)"></g>
        </g>
    </g>
</svg>