<?xml version="1.0" encoding="UTF-8"?>
<svg width="28px" height="19px" viewBox="0 0 28 19" version="1.1" xmlns="http://www.w3.org/2000/svg"
>
  <!-- Generator: Sketch 46.2 (44496) - http://www.bohemiancoding.com/sketch -->
  <title>Shape</title>
  <desc>Created with Sketch.</desc>
  <defs></defs>
  <g id="Page-1" stroke="none" stroke-width="1" fill="none" fill-rule="evenodd">
    <g id="Celcom---Notifications-full-screen-1" transform="translate(-314.000000, -70.000000)" fill-rule="nonzero"
       fill="#000000">
      <g id="entire-notification-page">
        <g id="icons8-controller" transform="translate(313.000000, 70.000000)">
          <path
            d="M15,0 C8.617188,0 3.03125,2.0625 3.03125,2.0625 L2.4375,2.28125 L2.375,2.875 L1.03125,13.125 C0.667969,15.960938 2.695313,18.605469 5.53125,18.96875 C8.171875,19.308594 10.539063,17.527344 11.15625,15 L18.84375,15 C19.464844,17.527344 21.828125,19.308594 24.46875,18.96875 C27.304688,18.605469 29.332031,15.960938 28.96875,13.125 L27.625,2.875 L27.5625,2.28125 L26.96875,2.0625 C26.96875,2.0625 21.382813,0 15,0 Z M15,2 C20.484375,2 25.007813,3.523438 25.75,3.78125 L26.96875,13.40625 C27.195313,15.167969 25.980469,16.742188 24.21875,16.96875 C22.457031,17.195313 20.851563,15.980469 20.625,14.21875 L20.59375,13.875 L20.46875,13 L9.53125,13 L9.40625,13.875 L9.375,14.21875 C9.148438,15.980469 7.542969,17.195313 5.78125,16.96875 C4.019531,16.742188 2.804688,15.167969 3.03125,13.40625 L4.25,3.78125 C4.992188,3.523438 9.515625,2 15,2 Z M8,5 L8,7 L6,7 L6,9 L8,9 L8,11 L10,11 L10,9 L12,9 L12,7 L10,7 L10,5 L8,5 Z M21,5 C20.449219,5 20,5.449219 20,6 C20,6.550781 20.449219,7 21,7 C21.550781,7 22,6.550781 22,6 C22,5.449219 21.550781,5 21,5 Z M19,7 C18.449219,7 18,7.449219 18,8 C18,8.550781 18.449219,9 19,9 C19.550781,9 20,8.550781 20,8 C20,7.449219 19.550781,7 19,7 Z M23,7 C22.449219,7 22,7.449219 22,8 C22,8.550781 22.449219,9 23,9 C23.550781,9 24,8.550781 24,8 C24,7.449219 23.550781,7 23,7 Z M21,9 C20.449219,9 20,9.449219 20,10 C20,10.550781 20.449219,11 21,11 C21.550781,11 22,10.550781 22,10 C22,9.449219 21.550781,9 21,9 Z"
            id="Shape"></path>
        </g>
      </g>
    </g>
  </g>
</svg>
