<?xml version="1.0" encoding="UTF-8" standalone="no"?>
<svg width="32px" height="26px" viewBox="0 0 32 26" version="1.1" xmlns="http://www.w3.org/2000/svg" xmlns:xlink="http://www.w3.org/1999/xlink">
    <!-- Generator: Sketch 47.1 (45422) - http://www.bohemiancoding.com/sketch -->
    <title>deliveryshop_icon</title>
    <desc>Created with Sketch.</desc>
    <defs>
        <path d="M0,0 L19.2,0 L19.2,4.26666667 L24.9666667,4.26666667 L25.3,4.56666667 L31.7,10.9666667 L32,11.3 L32,22.4 L28.6333333,22.4 C28.1583339,24.2333333 26.5083339,25.6 24.5333333,25.6 C22.5583339,25.6 20.9083339,24.2333333 20.4333333,22.4 L11.5666667,22.4 C11.0916672,24.2333333 9.4416672,25.6 7.46666667,25.6 C5.4916672,25.6 3.8416672,24.2333333 3.36666667,22.4 L0,22.4 L0,0 Z M2.13333333,2.13333333 L2.13333333,20.2666667 L3.36666667,20.2666667 C3.8416672,18.4333333 5.4916672,17.0666667 7.46666667,17.0666667 C9.4416672,17.0666667 11.0916672,18.4333333 11.5666667,20.2666667 L17.0666667,20.2666667 L17.0666667,2.13333333 L2.13333333,2.13333333 Z M19.2,6.4 L19.2,20.2666667 L20.4333333,20.2666667 C20.9083339,18.4333333 22.5583339,17.0666667 24.5333333,17.0666667 C26.5083339,17.0666667 28.1583339,18.4333333 28.6333333,20.2666667 L29.8666667,20.2666667 L29.8666667,12.2 L24.0666667,6.4 L19.2,6.4 Z M7.46666667,19.2 C6.27500053,19.2 5.33333333,20.1416672 5.33333333,21.3333333 C5.33333333,22.5250005 6.27500053,23.4666667 7.46666667,23.4666667 C8.65833387,23.4666667 9.6,22.5250005 9.6,21.3333333 C9.6,20.1416672 8.65833387,19.2 7.46666667,19.2 Z M24.5333333,19.2 C23.3416672,19.2 22.4,20.1416672 22.4,21.3333333 C22.4,22.5250005 23.3416672,23.4666667 24.5333333,23.4666667 C25.7250005,23.4666667 26.6666667,22.5250005 26.6666667,21.3333333 C26.6666667,20.1416672 25.7250005,19.2 24.5333333,19.2 Z" id="path-1"></path>
    </defs>
    <g id="Drop2_Bucket2_VisualDesign" stroke="none" stroke-width="1" fill="none" fill-rule="evenodd">
        <g id="SIM-REPLACEMENT_1-Copy-2" transform="translate(-80.000000, -165.000000)">
            <g id="Icons/Delivery" transform="translate(80.000000, 165.000000)">
                <g id="deliveryshop_icon">
                    <mask id="mask-2" fill="white">
                        <use xlink:href="#path-1"></use>
                    </mask>
                    <use id="Shape" fill="#FFFFFF" fill-rule="nonzero" xlink:href="#path-1"></use>
                </g>
            </g>
        </g>
    </g>
</svg>