<?xml version="1.0" encoding="UTF-8"?>
<svg width="16px" height="16px" viewBox="0 0 16 16" version="1.1" xmlns="http://www.w3.org/2000/svg"
>
  <!-- Generator: Sketch 47.1 (45422) - http://www.bohemiancoding.com/sketch -->
  <title>Facebook Logo</title>
  <desc>Created with Sketch.</desc>
  <defs></defs>
  <g id="Symbols" stroke="none" stroke-width="1" fill="none" fill-rule="evenodd">
    <g id="Icon_Facebook" fill="#333333">
      <g id="Facebook-Logo">
        <path
          d="M0.883333333,0 L15.1166667,0 C15.6045556,0 16,0.395444444 16,0.883333333 L16,15.1166667 C16,15.6045556 15.6045556,16 15.1166667,16 L0.883333333,16 C0.395444444,16 0,15.6045556 0,15.1166667 L0,0.883333333 C0,0.395444444 0.395444444,0 0.883333333,0 Z M11.04,16 L11.04,9.80444444 L13.12,9.80444444 L13.4277778,7.38888889 L11.04,7.38888889 L11.04,5.84777778 C11.04,5.14888889 11.2344444,4.67222222 12.2366667,4.67222222 L13.5155556,4.67222222 L13.5155556,2.51222222 C12.8966667,2.44655556 12.2745556,2.41455556 11.6522222,2.41666667 C9.80888889,2.41666667 8.54111111,3.54222222 8.54111111,5.60888889 L8.54111111,7.38666667 L6.46111111,7.38666667 L6.46111111,9.80111111 L8.54666667,9.80111111 L8.54666667,16 L11.04,16 Z"
          id="Combined-Shape"></path>
      </g>
    </g>
  </g>
</svg>
