<?xml version="1.0" encoding="UTF-8"?>
<svg width="20px" height="15px" viewBox="0 0 20 15" version="1.1" xmlns="http://www.w3.org/2000/svg" xmlns:xlink="http://www.w3.org/1999/xlink">
    <!-- Generator: Sketch 47.1 (45422) - http://www.bohemiancoding.com/sketch -->
    <title>Group</title>
    <desc>Created with Sketch.</desc>
    <defs></defs>
    <g id="Reload|WIP" stroke="none" stroke-width="1" fill="none" fill-rule="evenodd">
        <g id="MA_reload-1-Copy" transform="translate(-303.000000, -197.000000)" fill="#000000">
            <g id="reloadmethod-card" transform="translate(-37.000000, 159.000000)">
                <g id="Tab1" transform="translate(35.000000, 36.000000)">
                    <g id="Group-4">
                        <g id="tab">
                            <g id="Tab1" transform="translate(252.000000, 0.000000)">
                                <g id="Group" transform="translate(53.000000, 0.000000)">
                                    <g id="icons8-bank_card_front_side" transform="translate(0.000000, 2.777778)">
                                        <path d="M2.14285714,0 C0.968192143,0 0,0.941297917 0,2.08333333 L0,11.8055556 C0,12.947591 0.968192143,13.8888889 2.14285714,13.8888889 L17.8571429,13.8888889 C19.0318079,13.8888889 20,12.947591 20,11.8055556 L20,2.08333333 C20,0.941297917 19.0318079,0 17.8571429,0 L2.14285714,0 Z M2.14285714,1.38888889 L17.8571429,1.38888889 C18.2617186,1.38888889 18.5714286,1.68999583 18.5714286,2.08333333 L18.5714286,11.8055556 C18.5714286,12.1988931 18.2617186,12.5 17.8571429,12.5 L2.14285714,12.5 C1.73828143,12.5 1.42857143,12.1988931 1.42857143,11.8055556 L1.42857143,2.08333333 C1.42857143,1.68999583 1.73828143,1.38888889 2.14285714,1.38888889 Z M2.85714286,9.02777778 L2.85714286,10.4166667 L5.71428571,10.4166667 L5.71428571,9.02777778 L2.85714286,9.02777778 Z M6.42857143,9.02777778 L6.42857143,10.4166667 L9.28571429,10.4166667 L9.28571429,9.02777778 L6.42857143,9.02777778 Z M10,9.02777778 L10,10.4166667 L12.8571429,10.4166667 L12.8571429,9.02777778 L10,9.02777778 Z M13.5714286,9.02777778 L13.5714286,10.4166667 L16.4285714,10.4166667 L16.4285714,9.02777778 L13.5714286,9.02777778 Z" id="Shape" fill-rule="nonzero"></path>
                                    </g>
                                </g>
                            </g>
                        </g>
                    </g>
                </g>
            </g>
        </g>
    </g>
</svg>