<?xml version="1.0" encoding="UTF-8" standalone="no"?>
<svg width="33px" height="24px" viewBox="0 0 33 24" version="1.1" xmlns="http://www.w3.org/2000/svg"
>
  <!-- Generator: Sketch 47.1 (45422) - http://www.bohemiancoding.com/sketch -->
  <title>Icon_GBShare</title>
  <desc>Created with Sketch.</desc>
  <defs></defs>
  <g id="Symbols" stroke="none" stroke-width="1" fill="none" fill-rule="evenodd">
    <g id="QuickLink_GBShare" transform="translate(-15.000000, -12.000000)" stroke-width="0.5" stroke="#333333"
       fill="#333333" fill-rule="nonzero">
      <g id="GBShare">
        <g id="Icon_GBShare" transform="translate(16.000000, 13.000000)">
          <path
            d="M3.14931907,15.9028081 L8.39220329,15.9028081 C8.20893712,16.2430594 8.05370402,16.6344711 7.9296577,17.0966663 L7.91318827,17.0931622 C7.91318827,17.0931622 7.61778984,18.613956 7.61393529,18.7460618 C7.58765429,19.6105315 7.90302628,20.4262937 8.50118184,21.043722 C9.0996878,21.6604495 9.90598887,22 10.7715098,22 L20.76705,22 C21.6329213,22 22.4385216,21.6600991 23.0345746,21.043722 C23.6313285,20.4259433 23.9435468,19.6101811 23.9144625,18.7450106 C23.9127104,18.6963031 23.8923865,18.2474237 23.6607633,17.298154 L23.5398707,16.8012679 C23.5398707,16.8012679 23.2889747,16.1684214 23.1456557,15.9031585 L28.3885399,15.9031585 C29.2544112,15.9031585 30.0603619,15.5632576 30.6567654,14.9465301 C31.2528184,14.3294522 31.5653871,13.5129892 31.5359524,12.6471179 C31.5345507,12.5991112 31.5138764,12.1505822 31.2822531,11.200962 L31.2794498,11.2016629 C30.7135323,8.85179109 29.439079,8.21333801 27.5454454,7.27352946 L27.2812338,7.13826991 C27.7486851,6.4150168 28.0230588,5.55580332 28.0230588,4.6324642 C28.0230588,2.07830145 25.9447573,0.000350413328 23.3905946,0.000350413328 C20.8360814,0.000350413328 18.7581304,2.07830145 18.7581304,4.6324642 C18.7581304,7.18662695 20.8360814,9.2649284 23.3905946,9.2649284 C24.6450743,9.2649284 25.7828664,8.76138445 26.6179013,7.94877594 L27.0909593,8.19021073 C28.9730293,9.12371183 29.9170428,9.59256487 30.3452479,11.7013523 L30.3480512,11.7010019 C30.4966265,12.3664368 30.5134463,12.6811079 30.5134463,12.6821592 C30.5337703,13.2680503 30.3231719,13.8192504 29.9212478,14.2351911 C29.5196741,14.6514821 28.9754822,14.8806524 28.3888903,14.8806524 L22.3722934,14.8806524 C21.7331395,14.2691811 20.9131723,13.8620009 19.9243059,13.3714222 L19.6600943,13.2358122 C20.1275457,12.5129095 20.4019193,11.6533457 20.4019193,10.7300065 C20.4019193,8.17584378 18.3236178,6.09789274 15.7694551,6.09789274 C13.2152923,6.09789274 11.1369909,8.17584378 11.1369909,10.7300065 C11.1369909,11.6536961 11.4117149,12.5122087 11.8791663,13.2358122 L11.6146043,13.3714222 C10.6260883,13.8616504 9.80612107,14.2691811 9.16696716,14.8806524 L3.14931907,14.8806524 C2.56307757,14.8806524 2.01888567,14.6518325 1.61696159,14.2351911 C1.2150375,13.8192504 1.00443909,13.2680503 1.02476306,12.6856633 C1.02476306,12.6814584 1.04123249,12.367488 1.19015815,11.7010019 L1.19226063,11.7010019 C1.62046572,9.59221445 2.56482964,9.12371183 4.44689963,8.18986031 L4.91960721,7.94842553 C5.75464217,8.76103404 6.89243425,9.26457799 8.14656355,9.26457799 C10.7010767,9.26457799 12.7793782,7.18627654 12.7793782,4.63211379 C12.7793782,2.07795104 10.7010767,0 8.14656355,0 C5.59275121,0 3.51444976,2.07795104 3.51444976,4.63211379 C3.51444976,5.55580332 3.78917381,6.41466639 4.25662519,7.1379195 L3.99206313,7.27317905 C2.09877991,8.21298759 0.823976223,8.85144068 0.258409111,11.2013125 L0.255255391,11.2006116 C0.0246834209,12.1502318 0.00330820784,12.5987608 0.00190655453,12.6471179 C-0.0275281651,13.5126388 0.284690111,14.3287514 0.881093596,14.9461797 C1.47749708,15.563608 2.28344774,15.9028081 3.14931907,15.9028081 Z M23.3905946,8.24137107 C21.3998965,8.24137107 19.7813373,6.62246149 19.7813373,4.63211379 C19.7813373,2.6421165 21.3998965,1.02320692 23.3905946,1.02320692 C25.3805919,1.02320692 26.9998519,2.6421165 26.9998519,4.63211379 C26.9998519,6.62246149 25.3805919,8.24137107 23.3905946,8.24137107 Z M15.7687543,7.12074925 C17.759102,7.12074925 19.3780116,8.73965882 19.3780116,10.7296561 C19.3780116,12.7196534 17.759102,14.338563 15.7687543,14.338563 C13.7784066,14.338563 12.159497,12.7196534 12.159497,10.7296561 C12.159497,8.73965882 13.7784066,7.12074925 15.7687543,7.12074925 Z M12.0683895,14.2874026 L12.5410971,14.0459679 C13.3764825,14.8585764 14.5139241,15.3624707 15.7687543,15.3624707 C17.0235844,15.3624707 18.1610261,14.8585764 18.9964114,14.0459679 L19.4687686,14.2874026 C21.3508386,15.2209037 22.2955529,15.6897568 22.723758,17.7985442 L22.7265613,17.7985442 C22.8751366,18.4632783 22.8919564,18.7779494 22.8919564,18.7797015 C22.91193,19.3652422 22.7013316,19.9167928 22.2997579,20.3327334 C21.8974834,20.748674 21.3532915,20.9778443 20.7674004,20.9778443 L10.7711594,20.9778443 C10.1849179,20.9778443 9.63967474,20.748674 9.23529776,20.3320326 C8.8316216,19.9157415 8.6185703,19.3631397 8.63539014,18.793718 C8.63609097,18.786009 8.65291081,18.5939824 8.81410094,17.799245 L8.81480177,17.7957409 C9.24300685,15.6894064 10.1873708,15.2205533 12.0683895,14.2874026 Z M8.14656355,1.02320692 C10.1372617,1.02320692 11.7561712,2.6421165 11.7561712,4.63211379 C11.7561712,6.62246149 10.1372617,8.24137107 8.14656355,8.24137107 C6.15691667,8.24137107 4.53765668,6.62246149 4.53765668,4.63211379 C4.53765668,2.6421165 6.15691667,1.02320692 8.14656355,1.02320692 Z"
            id="Shape"></path>
        </g>
      </g>
    </g>
  </g>
</svg>
