<?xml version="1.0" encoding="UTF-8"?>
<svg width="13px" height="12px" viewBox="0 0 13 12" version="1.1" xmlns="http://www.w3.org/2000/svg" xmlns:xlink="http://www.w3.org/1999/xlink">
    <!-- Generator: Sketch 46.2 (44496) - http://www.bohemiancoding.com/sketch -->
    <title>Shape</title>
    <desc>Created with Sketch.</desc>
    <defs></defs>
    <g id="WIP-|-Symbols" stroke="none" stroke-width="1" fill="none" fill-rule="evenodd">
        <g id="Card_Notification_Celcom" transform="translate(-20.000000, -15.000000)" fill-rule="nonzero" fill="#999999">
            <g id="Card_FirstLifestyle">
                <g id="14:0:16:0" transform="translate(0.000000, 14.000000)">
                    <g id="Primary-Information" transform="translate(20.000000, 0.000000)">
                        <path d="M3.41538462,1.97230769 L2.53538462,1.09230769 C1.05846154,2.21846154 0.0861538462,3.95384615 0,5.92307692 L1.23076923,5.92307692 C1.32307692,4.29230769 2.16,2.86461538 3.41538462,1.97230769 L3.41538462,1.97230769 Z M11.04,5.92307692 L12.2707692,5.92307692 C12.1784615,3.95384615 11.2061538,2.21846154 9.73538462,1.09230769 L8.86153846,1.97230769 C10.1046154,2.86461538 10.9476923,4.29230769 11.04,5.92307692 Z M9.82769231,6.23076923 C9.82769231,4.34153846 8.81846154,2.76 7.05846154,2.34153846 L7.05846154,1.92307692 C7.05846154,1.41230769 6.64615385,1 6.13538462,1 C5.62461538,1 5.21230769,1.41230769 5.21230769,1.92307692 L5.21230769,2.34153846 C3.44615385,2.76 2.44307692,4.33538462 2.44307692,6.23076923 L2.44307692,9.30769231 L1.21230769,10.5384615 L1.21230769,11.1538462 L11.0584615,11.1538462 L11.0584615,10.5384615 L9.82769231,9.30769231 L9.82769231,6.23076923 Z M6.13538462,13 C6.22153846,13 6.30153846,12.9938462 6.38153846,12.9753846 C6.78153846,12.8892308 7.10769231,12.6184615 7.26769231,12.2492308 C7.32923077,12.1015385 7.36,11.9415385 7.36,11.7692308 L4.89846154,11.7692308 C4.90461538,12.4461538 5.45230769,13 6.13538462,13 Z" id="Shape"></path>
                    </g>
                </g>
            </g>
        </g>
    </g>
</svg>