<?xml version="1.0" encoding="UTF-8"?>
<svg width="32px" height="31px" viewBox="0 0 32 31" version="1.1" xmlns="http://www.w3.org/2000/svg" xmlns:xlink="http://www.w3.org/1999/xlink">
    <!-- Generator: Sketch 48.1 (47250) - http://www.bohemiancoding.com/sketch -->
    <title>Shape</title>
    <desc>Created with Sketch.</desc>
    <defs>
        <path d="M10.68,1 C8.48,1 6.68,2.8 6.68,5 C6.68,5.48 6.76,5.92 6.92,6.32 L0,6.32 L0,14.32 L1.32,14.32 L1.32,31.64 L30.64,31.64 L30.64,14.32 L32,14.32 L32,6.32 L25.08,6.32 C25.24,5.88 25.32,5.44 25.32,5 C25.32,2.8 23.52,1 21.32,1 C19,1 17.4,2.76 16.36,4.24 C16.2,4.44 16.12,4.64 16,4.84 C15.88,4.64 15.76,4.44 15.64,4.24 C14.6,2.76 13,1 10.68,1 Z M10.68,3.68 C11.52,3.68 12.6,4.56 13.44,5.76 C13.64,6.04 13.6,6.08 13.76,6.36 L10.68,6.36 C9.92,6.36 9.36,5.8 9.36,5.04 C9.36,4.28 9.92,3.68 10.68,3.68 Z M21.32,3.68 C22.08,3.68 22.64,4.24 22.64,5 C22.64,5.76 22.08,6.32 21.32,6.32 L18.24,6.32 C18.4,6.04 18.36,6.04 18.56,5.72 C19.4,4.56 20.48,3.68 21.32,3.68 Z M2.68,9 L29.36,9 L29.36,11.68 L17.36,11.68 L17.36,10.36 L14.68,10.36 L14.68,11.68 L2.68,11.68 L2.68,9 Z M4,14.32 L28,14.32 L28,29 L17.32,29 L17.32,15.68 L14.64,15.68 L14.64,29 L4,29 L4,14.32 Z" id="path-1"></path>
    </defs>
    <g id="Icons/Privilege" stroke="none" stroke-width="1" fill="none" fill-rule="evenodd" transform="translate(0.000000, -1.000000)">
        <mask id="mask-2" fill="white">
            <use xlink:href="#path-1"></use>
        </mask>
        <use id="Shape" fill="#000000" fill-rule="nonzero" xlink:href="#path-1"></use>
    </g>
</svg>