<?xml version="1.0" encoding="UTF-8"?>
<svg width="26px" height="24px" viewBox="0 0 26 24" version="1.1" xmlns="http://www.w3.org/2000/svg"
>
  <!-- Generator: Sketch 46.2 (44496) - http://www.bohemiancoding.com/sketch -->
  <title>icons8-sms</title>
  <desc>Created with Sketch.</desc>
  <defs></defs>
  <g id="Page-1" stroke="none" stroke-width="1" fill="none" fill-rule="evenodd">
    <g id="Celcom---Notifications-full-screen-1" transform="translate(-34.000000, -69.000000)" fill-rule="nonzero"
       fill="#219BD7">
      <g id="entire-notification-page">
        <g id="icons8-sms" transform="translate(34.076923, 69.000000)">
          <path
            d="M0,0 L0,18.4615385 L4.61538462,18.4615385 L4.61538462,23.1634615 L6.11538462,21.9519231 L10.4711538,18.4615385 L25.8461538,18.4615385 L25.8461538,0 L0,0 Z M1.84615385,1.84615385 L24,1.84615385 L24,16.6153846 L9.83653846,16.6153846 L9.57692308,16.8173077 L6.46153846,19.2980769 L6.46153846,16.6153846 L1.84615385,16.6153846 L1.84615385,1.84615385 Z M5.53846154,6.46153846 L5.53846154,8.30769231 L20.3076923,8.30769231 L20.3076923,6.46153846 L5.53846154,6.46153846 Z M5.53846154,10.1538462 L5.53846154,12 L16.6153846,12 L16.6153846,10.1538462 L5.53846154,10.1538462 Z"
            id="Shape"></path>
        </g>
      </g>
    </g>
  </g>
</svg>
