<?xml version="1.0" encoding="UTF-8"?>
<svg width="60px" height="60px" viewBox="0 0 60 60" version="1.1" xmlns="http://www.w3.org/2000/svg" xmlns:xlink="http://www.w3.org/1999/xlink">
    <!-- Generator: Sketch 48.1 (47250) - http://www.bohemiancoding.com/sketch -->
    <title>Path</title>
    <desc>Created with Sketch.</desc>
    <defs></defs>
    <g id="CONTACT-US_2" stroke="none" stroke-width="1" fill="none" fill-rule="evenodd" transform="translate(-72.000000, -167.000000)">
        <g id="Group-Copy-4" transform="translate(16.000000, 167.000000)" fill="#009ADE">
            <path d="M58,0 L114,0 C115.104569,-2.02906125e-16 116,0.8954305 116,2 L116,58 C116,59.1045695 115.104569,60 114,60 L98.7083333,60 L98.7083333,37.5 L107.354167,37.5 L108.604167,27.5 L98.7083333,27.5 L98.7083333,21.0416667 C98.7083333,18.125 99.42448,16.1458333 103.604167,16.1458333 L109.020833,16.1458333 L109.020833,7.08333333 C108.096353,6.96614667 104.89323,6.77083333 101.208333,6.77083333 C93.5260433,6.77083333 88.2916667,11.39323 88.2916667,20 L88.2916667,27.5 L79.5416667,27.5 L79.5416667,37.5 L88.2916667,37.5 L88.2916667,60 L58,60 C56.8954305,60 56,59.1045695 56,58 L56,2 C56,0.8954305 56.8954305,2.02906125e-16 58,0 Z" id="Path"></path>
        </g>
    </g>
</svg>