<?xml version="1.0" encoding="UTF-8"?>
<svg width="20px" height="20px" viewBox="0 0 20 20" version="1.1" xmlns="http://www.w3.org/2000/svg" xmlns:xlink="http://www.w3.org/1999/xlink">
    <!-- Generator: Sketch 47.1 (45422) - http://www.bohemiancoding.com/sketch -->
    <title>internet</title>
    <desc>Created with Sketch.</desc>
    <defs></defs>
    <g id="Reload|WIP" stroke="none" stroke-width="1" fill="none" fill-rule="evenodd">
        <g id="MA_reload-1-Copy" transform="translate(-178.000000, -196.000000)" fill="#D1209B">
            <g id="reloadmethod-card" transform="translate(-37.000000, 159.000000)">
                <g id="Tab1" transform="translate(35.000000, 36.000000)">
                    <g id="Group-4">
                        <g id="tab">
                            <g id="Tab1" transform="translate(128.000000, 1.000000)">
                                <g id="Page-1" transform="translate(52.000000, 0.000000)">
                                    <g id="internet">
                                        <g id="Group" transform="translate(0.555556, 0.000000)">
                                            <g id="icons8-domain" fill-rule="nonzero">
                                                <path d="M9.47368421,0 C5.34961792,0 1.78898492,2.39583333 0.165362731,5.83333333 L2.08570413,5.83333333 C3.00586771,4.28710917 4.41945235,3.05664083 6.11308677,2.34375 C5.54631977,3.284505 5.08290384,4.46940083 4.77951636,5.83333333 L6.56650071,5.83333333 C7.21328279,3.30078167 8.38349018,1.66666667 9.47368421,1.66666667 C10.5638782,1.66666667 11.7340865,3.30078167 12.3808677,5.83333333 L14.1678521,5.83333333 C13.8644646,4.46940083 13.4010495,3.284505 12.8342817,2.34375 C14.5279161,3.05664083 15.9415007,4.28710917 16.8616643,5.83333333 L18.7820057,5.83333333 C17.1583835,2.39583333 13.5977505,0 9.47368421,0 Z M0.165362731,14.1666667 C1.78898492,17.6041667 5.34961792,20 9.47368421,20 C13.5977505,20 17.1583835,17.6041667 18.7820057,14.1666667 L16.8616643,14.1666667 C15.9415007,15.7128908 14.5279161,16.9433592 12.8342817,17.65625 C13.4010495,16.715495 13.8644646,15.5305992 14.1678521,14.1666667 L12.3808677,14.1666667 C11.7340865,16.6992192 10.5638782,18.3333333 9.47368421,18.3333333 C8.38349018,18.3333333 7.21328279,16.6992192 6.56650071,14.1666667 L4.77951636,14.1666667 C5.08290384,15.5305992 5.54631977,16.715495 6.11308677,17.65625 C4.41945235,16.9433592 3.00586771,15.7128908 2.08570413,14.1666667 L0.165362731,14.1666667 Z" id="Shape"></path>
                                            </g>
                                            <path d="M3.03334259,10.796962 L3.03334259,12.2727052 L2.0091101,12.2727052 L2.0091101,7.85759652 L3.56667076,7.85759652 C3.87778041,7.85759652 4.14494686,7.89446448 4.36817814,7.96820151 C4.59140942,8.04193854 4.77524418,8.14345169 4.91968795,8.27274401 C5.06413171,8.40203634 5.17069527,8.55455859 5.23938182,8.73031534 C5.30806836,8.90607209 5.34241112,9.09596734 5.34241112,9.30000678 C5.34241112,9.52020777 5.30705828,9.722224 5.23635154,9.90606152 C5.1656448,10.089899 5.05756612,10.2474717 4.91211226,10.3787842 C4.7666584,10.5100967 4.58231859,10.61262 4.35908732,10.686357 C4.13585604,10.760094 3.87171983,10.796962 3.56667076,10.796962 L3.03334259,10.796962 Z M3.03334259,10.0242422 L3.56667076,10.0242422 C3.83333617,10.0242422 4.02525158,9.96060708 4.14242275,9.83333495 C4.25959392,9.70606282 4.31817862,9.52828854 4.31817862,9.30000678 C4.31817862,9.19899716 4.30302741,9.10707978 4.27272452,9.02425188 C4.24242163,8.94142399 4.19646294,8.87021327 4.13484707,8.81061759 C4.0732312,8.75102191 3.99545495,8.70506322 3.901516,8.67274014 C3.80757704,8.64041706 3.69596308,8.62425576 3.56667076,8.62425576 L3.03334259,8.62425576 L3.03334259,10.0242422 Z M6.89997178,11.4545314 L8.53631956,11.4545314 L8.53631956,12.2727052 L5.87573929,12.2727052 L5.87573929,7.85759652 L6.89997178,7.85759652 L6.89997178,11.4545314 Z M13.1302144,12.2727052 L12.3362827,12.2727052 C12.2473943,12.2727052 12.1741634,12.2519986 12.1165879,12.2105846 C12.0590124,12.1691707 12.0191142,12.1161414 11.9968921,12.0514953 L11.7362885,11.2818058 L10.0575169,11.2818058 L9.7969134,12.0514953 C9.77671148,12.1080607 9.73731831,12.1590698 9.67873273,12.2045241 C9.62014714,12.2499784 9.54843139,12.2727052 9.4635833,12.2727052 L8.66359105,12.2727052 L10.3726654,7.85759652 L11.4211401,7.85759652 L13.1302144,12.2727052 Z M10.2938783,10.5848428 L11.4999272,10.5848428 L11.0938705,9.37576363 C11.067608,9.29899631 11.0368006,9.20859405 11.0014472,9.10455413 C10.9660938,9.00051422 10.931246,8.88789017 10.8969027,8.76667862 C10.8645797,8.88991037 10.831247,9.00404953 10.7969037,9.10909954 C10.7625604,9.21414956 10.7302378,9.30505686 10.699935,9.38182417 L10.2938783,10.5848428 Z M14.0271754,7.85759652 C14.0716197,7.85759652 14.1089927,7.85961668 14.1392956,7.86365707 C14.1695984,7.86769746 14.1968706,7.87527306 14.2211129,7.88638412 C14.2453553,7.89749518 14.2685871,7.91315144 14.2908092,7.93335336 C14.3130314,7.95355529 14.3382834,7.98082748 14.3665661,8.01517075 L16.4635155,10.6666602 C16.4554347,10.5818121 16.4493742,10.4994905 16.4453338,10.4196929 C16.4412934,10.3398953 16.4392733,10.2646443 16.4392733,10.1939375 L16.4392733,7.85759652 L17.3422948,7.85759652 L17.3422948,12.2727052 L16.8089666,12.2727052 C16.7301791,12.2727052 16.6635138,12.2605843 16.6089686,12.236342 C16.5544234,12.2120997 16.5018992,12.1676561 16.4513944,12.1030099 L14.3695964,9.47273238 C14.3756569,9.5494997 14.3807073,9.62475074 14.3847477,9.69848777 C14.3887881,9.7722248 14.3908083,9.84141536 14.3908083,9.90606152 L14.3908083,12.2727052 L13.4877867,12.2727052 L13.4877867,7.85759652 L14.0271754,7.85759652 Z" id="PLAN"></path>
                                        </g>
                                    </g>
                                </g>
                            </g>
                        </g>
                    </g>
                </g>
            </g>
        </g>
    </g>
</svg>