<?xml version="1.0" encoding="UTF-8"?>
<svg width="32px" height="23px" viewBox="0 0 32 23" version="1.1" xmlns="http://www.w3.org/2000/svg" xmlns:xlink="http://www.w3.org/1999/xlink">
    <!-- Generator: Sketch 48.1 (47250) - http://www.bohemiancoding.com/sketch -->
    <title>Shape</title>
    <desc>Created with Sketch.</desc>
    <defs>
        <path d="M0,7 L0,26 C1.3527075e-16,27.1045695 0.8954305,28 2,28 L30,28 C31.1045695,28 32,27.1045695 32,26 L32,7 C32,5.8954305 31.1045695,5 30,5 L2,5 C0.8954305,5 -1.3527075e-16,5.8954305 0,7 Z M3.42857143,7.33382966 L28.5714286,7.33382966 C29.2187497,7.33382966 29.7142857,7.84872253 29.7142857,8.52132966 L29.7142857,24.5197946 C29.7142857,25.1924017 29.2187497,25.7072946 28.5714286,25.7072946 L3.42857143,25.7072946 C2.78125029,25.7072946 2.28571429,25.1924017 2.28571429,24.5197946 L2.28571429,8.52132966 C2.28571429,7.84872253 2.78125029,7.33382966 3.42857143,7.33382966 Z M5,10 L5,15 L11,15 L11,10 L5,10 Z M16,10 L16,12.2222222 L27,12.2222222 L27,10 L16,10 Z M4.99616103,19.4444444 L4.99616103,21.9941985 L9.62372459,21.9941985 L9.62372459,19.4444444 L4.99616103,19.4444444 Z M10.7806155,19.4444444 L10.7806155,21.9941985 L15.4081791,21.9941985 L15.4081791,19.4444444 L10.7806155,19.4444444 Z M16.5650699,19.4444444 L16.5650699,21.9941985 L21.1926335,21.9941985 L21.1926335,19.4444444 L16.5650699,19.4444444 Z M22.3495244,19.4444444 L22.3495244,21.9941985 L26.977088,21.9941985 L26.977088,19.4444444 L22.3495244,19.4444444 Z" id="path-1"></path>
    </defs>
    <g id="Icons/Credit-Card" stroke="none" stroke-width="1" fill="none" fill-rule="evenodd" transform="translate(0.000000, -5.000000)">
        <mask id="mask-2" fill="white">
            <use xlink:href="#path-1"></use>
        </mask>
        <use id="Shape" fill="#000000" fill-rule="nonzero" xlink:href="#path-1"></use>
    </g>
</svg>