<?xml version="1.0" encoding="UTF-8" standalone="no"?>
<svg width="19px" height="22px" viewBox="0 0 19 22" version="1.1" xmlns="http://www.w3.org/2000/svg"
>
  <!-- Generator: Sketch 47.1 (45422) - http://www.bohemiancoding.com/sketch -->
  <title>Icon_Services</title>
  <desc>Created with Sketch.</desc>
  <defs></defs>
  <g id="Symbols" stroke="none" stroke-width="1" fill="none" fill-rule="evenodd">
    <g id="QuickLink_Services" transform="translate(-23.000000, -13.000000)" fill="#333333">
      <g id="Services">
        <g id="Icon_Services" transform="translate(23.000000, 13.000000)">
          <g id="icons8-headset">
            <path
              d="M9.5,0 C4.27769886,0 0,4.19110577 0,9.30769231 L0,14.3846154 C0,15.4786661 0.728693182,16.410757 1.72727273,16.7644231 L1.72727273,16.9230769 C1.72727273,19.2466949 3.67382791,21.1538462 6.04545455,21.1538462 L7.15198864,21.1538462 C7.452237,21.6595551 7.99875732,22 8.63636364,22 L10.3636364,22 C11.3149862,22 12.0909091,21.2397841 12.0909091,20.3076923 C12.0909091,19.3756014 11.3149862,18.6153846 10.3636364,18.6153846 L8.63636364,18.6153846 C7.99875732,18.6153846 7.452237,18.9558295 7.15198864,19.4615385 L6.04545455,19.4615385 C4.61505682,19.4615385 3.45454545,18.3245192 3.45454545,16.9230769 L5.18181818,16.9230769 L5.18181818,9.30769231 L1.72727273,9.30769231 C1.72727273,5.11658654 5.22230114,1.69230769 9.5,1.69230769 C13.7776989,1.69230769 17.2727273,5.11658654 17.2727273,9.30769231 L13.8181818,9.30769231 L13.8181818,16.9230769 L16.4090909,16.9230769 C17.8293677,16.9230769 19,15.7761416 19,14.3846154 L19,9.30769231 C19,4.19110577 14.7223011,0 9.5,0 Z M1.72727273,11 L3.45454545,11 L3.45454545,15.2307692 L2.59090909,15.2307692 C2.11186123,15.2307692 1.72727273,14.8539668 1.72727273,14.3846154 L1.72727273,11 Z M15.5454545,11 L17.2727273,11 L17.2727273,14.3846154 C17.2727273,14.8539668 16.8881396,15.2307692 16.4090909,15.2307692 L15.5454545,15.2307692 L15.5454545,11 Z"
              id="Shape" fill-rule="nonzero"></path>
          </g>
        </g>
      </g>
    </g>
  </g>
</svg>
