<?xml version="1.0" encoding="UTF-8" standalone="no"?>
<svg width="20px" height="16px" viewBox="0 0 20 16" version="1.1" xmlns="http://www.w3.org/2000/svg" xmlns:xlink="http://www.w3.org/1999/xlink">
    <!-- Generator: Sketch 47.1 (45422) - http://www.bohemiancoding.com/sketch -->
    <title>call_icon</title>
    <desc>Created with Sketch.</desc>
    <defs>
        <path d="M3.33333333,0.5 C2.23697933,0.5 1.19791667,1.19531267 0.833333333,2.29166667 C0.416666667,3.54166667 0,5.29427067 0,7.83333333 C0,10.372396 0.416666667,12.125 0.833333333,13.375 C1.19791667,14.471354 2.23697933,15.1666667 3.33333333,15.1666667 L5.33333333,15.1666667 C5.682292,15.1666667 6.03906267,15.0442707 6.29166667,14.7916667 C6.54427067,14.5390627 6.66666667,14.182292 6.66666667,13.8333333 L6.66666667,11.1666667 C6.66666667,10.8177087 6.54427067,10.4609373 6.29166667,10.2083333 C6.03906267,9.95572933 5.682292,9.83333333 5.33333333,9.83333333 L4,9.83333333 C3.86458333,9.47916667 3.66666667,8.86718733 3.66666667,7.83333333 C3.66666667,6.79947933 3.86458333,6.1875 4,5.83333333 L5.33333333,5.83333333 C5.682292,5.83333333 6.03906267,5.71093733 6.29166667,5.45833333 C6.54427067,5.20572933 6.66666667,4.84895867 6.66666667,4.5 L6.66666667,1.83333333 C6.66666667,1.48437533 6.54427067,1.127604 6.29166667,0.875 C6.03906267,0.622396 5.682292,0.5 5.33333333,0.5 L3.33333333,0.5 Z M16.6666667,0.5 C15.5364587,0.5 14.5494793,1.22395867 14.1875,2.27083333 C14.184896,2.28125 14.1692707,2.28125 14.1666667,2.29166667 C13.744792,3.494792 13.3333333,5.30468733 13.3333333,7.83333333 C13.3333333,10.372396 13.75,12.125 14.1666667,13.375 C14.53125,14.471354 15.5703127,15.1666667 16.6666667,15.1666667 L18.6666667,15.1666667 C19.0156253,15.1666667 19.372396,15.0442707 19.625,14.7916667 C19.877604,14.5390627 20,14.182292 20,13.8333333 L20,11.1666667 C20,10.8177087 19.877604,10.4609373 19.625,10.2083333 C19.372396,9.95572933 19.0156253,9.83333333 18.6666667,9.83333333 L17.3333333,9.83333333 C17.1979167,9.47916667 17,8.86718733 17,7.83333333 C17,6.79947933 17.1979167,6.1875 17.3333333,5.83333333 L18.6666667,5.83333333 C19.0156253,5.83333333 19.372396,5.71093733 19.625,5.45833333 C19.877604,5.20572933 20,4.84895867 20,4.5 L20,1.83333333 C20,1.48437533 19.877604,1.127604 19.625,0.875 C19.372396,0.622396 19.0156253,0.5 18.6666667,0.5 L16.6666667,0.5 Z M3.33333333,1.83333333 L5.33333333,1.83333333 L5.33333333,4.5 L3.125,4.5 L2.9375,4.875 C2.9375,4.875 2.33333333,6.08593733 2.33333333,7.83333333 C2.33333333,9.58072933 2.9375,10.7916667 2.9375,10.7916667 L3.125,11.1666667 L5.33333333,11.1666667 L5.33333333,13.8333333 L3.33333333,13.8333333 C2.83072933,13.8333333 2.27343733,13.463542 2.10416667,12.9583333 C1.721354,11.807292 1.33333333,10.2291667 1.33333333,7.83333333 C1.33333333,5.4375 1.721354,3.85937533 2.10416667,2.70833333 C2.27343733,2.20312533 2.83072933,1.83333333 3.33333333,1.83333333 Z M16.6666667,1.83333333 L18.6666667,1.83333333 L18.6666667,4.5 L16.4583333,4.5 L16.2708333,4.875 C16.2708333,4.875 15.6666667,6.08593733 15.6666667,7.83333333 C15.6666667,9.58072933 16.2708333,10.7916667 16.2708333,10.7916667 L16.4583333,11.1666667 L18.6666667,11.1666667 L18.6666667,13.8333333 L16.6666667,13.8333333 C16.1640627,13.8333333 15.6067707,13.463542 15.4375,12.9583333 C15.0546873,11.807292 14.6666667,10.2291667 14.6666667,7.83333333 C14.6666667,5.4375 15.0625,3.79166667 15.4375,2.72916667 L15.4375,2.70833333 C15.6171873,2.17187533 16.0729167,1.83333333 16.6666667,1.83333333 Z M9.66666667,4.6875 L8.72916667,5.64583333 L10.25,7.16666667 L6,7.16666667 L6,8.5 L10.25,8.5 L8.72916667,10.0208333 L9.66666667,10.9791667 L12.8125,7.83333333 L9.66666667,4.6875 Z" id="path-1"></path>
    </defs>
    <g id="Drop2_Bucket2_VisualDesign" stroke="none" stroke-width="1" fill="none" fill-rule="evenodd">
        <g id="LATEST-PLAN-UPDATE_1" transform="translate(-16.000000, -166.000000)">
            <g id="Mobileapp/Listitem/Single-Line-Item" transform="translate(0.000000, 160.000000)">
                <g id="Label" transform="translate(16.000000, 4.000000)">
                    <g id="Icon">
                        <g id="call_icon" transform="translate(0.000000, 2.000000)">
                            <mask id="mask-2" fill="white">
                                <use xlink:href="#path-1"></use>
                            </mask>
                            <use id="Shape" fill="#999999" fill-rule="nonzero" xlink:href="#path-1"></use>
                        </g>
                    </g>
                </g>
            </g>
        </g>
    </g>
</svg>