<?xml version="1.0" encoding="UTF-8"?>
<svg width="20px" height="16px" viewBox="0 0 20 16" version="1.1" xmlns="http://www.w3.org/2000/svg" xmlns:xlink="http://www.w3.org/1999/xlink">
    <!-- Generator: Sketch 47.1 (45422) - http://www.bohemiancoding.com/sketch -->
    <title>Shape</title>
    <desc>Created with Sketch.</desc>
    <defs></defs>
    <g id="Product-Detail" stroke="none" stroke-width="1" fill="none" fill-rule="evenodd">
        <g id="MASTER-PRODUCT-DETAIL-PAGE" transform="translate(-339.000000, -3239.000000)" fill-rule="nonzero" fill="#009ADE">
            <g id="Group-11" transform="translate(0.000000, 3102.000000)">
                <g id="Group-Copy" transform="translate(16.000000, 137.000000)">
                    <path d="M323,0 L323,14.9147727 L325.857143,14.9147727 L325.857143,15.625 L328.714286,15.625 L328.714286,14.9147727 L337.285714,14.9147727 L337.285714,15.625 L340.142857,15.625 L340.142857,14.9147727 L343,14.9147727 L343,1.42045455 L333.714286,1.42045455 L333.714286,0 L323,0 Z M324.25,1.25 L332.270833,1.25 L332.270833,2.64705882 L341.75,2.64705882 L341.75,13.125 L340.291667,13.125 L340.291667,12.4264706 L337.375,12.4264706 L337.375,13.125 L328.625,13.125 L328.625,12.4264706 L325.708333,12.4264706 L325.708333,13.125 L324.25,13.125 L324.25,1.25 Z M329.5625,4.375 C328.431885,4.375 327.5,5.30688494 327.5,6.4375 C327.5,7.09545881 327.808838,7.69165056 328.294922,8.0703125 C327.030029,8.57788069 326.125,9.8078615 326.125,11.25 L327.5,11.25 C327.5,10.1032713 328.415771,9.1875 329.5625,9.1875 C330.709229,9.1875 331.625,10.1032713 331.625,11.25 L333,11.25 C333,9.8078615 332.094971,8.57788069 330.830078,8.0703125 C331.316162,7.69165056 331.625,7.09545881 331.625,6.4375 C331.625,5.30688494 330.693115,4.375 329.5625,4.375 Z M329.25,5.625 C329.601562,5.625 329.875,5.8984375 329.875,6.25 C329.875,6.6015625 329.601562,6.875 329.25,6.875 C328.898438,6.875 328.625,6.6015625 328.625,6.25 C328.625,5.8984375 328.898438,5.625 329.25,5.625 Z M334.25,5.625 L334.25,6.875 L339.875,6.875 L339.875,5.625 L334.25,5.625 Z M334.25,8.75 L334.25,10 L339.875,10 L339.875,8.75 L334.25,8.75 Z" id="Shape"></path>
                </g>
            </g>
        </g>
    </g>
</svg>