<?xml version="1.0" encoding="UTF-8" standalone="no"?>
<svg width="20px" height="15px" viewBox="0 0 20 15" version="1.1" xmlns="http://www.w3.org/2000/svg" xmlns:xlink="http://www.w3.org/1999/xlink">
    <!-- Generator: Sketch 48.2 (47327) - http://www.bohemiancoding.com/sketch -->
    <title>Icon</title>
    <desc>Created with Sketch.</desc>
    <defs>
        <path d="M2.14285714,3.125 C0.968192143,3.125 0,4.09319214 0,5.26785714 L0,15.2678571 C0,16.4425221 0.968192143,17.4107143 2.14285714,17.4107143 L17.8571429,17.4107143 C19.0318079,17.4107143 20,16.4425221 20,15.2678571 L20,5.26785714 C20,4.09319214 19.0318079,3.125 17.8571429,3.125 L2.14285714,3.125 Z M2.14285714,4.55357143 L17.8571429,4.55357143 C18.2617186,4.55357143 18.5714286,4.86328143 18.5714286,5.26785714 L18.5714286,7.41071429 L3.24113029,7.41071429 L3.24113029,8.83928571 L18.5714286,8.83928571 L18.5714286,15.2678571 C18.5714286,15.6724329 18.2617186,15.9821429 17.8571429,15.9821429 L2.14285714,15.9821429 C1.73828143,15.9821429 1.42857143,15.6724329 1.42857143,15.2678571 L1.42857143,5.26785714 C1.42857143,4.86328143 1.73828143,4.55357143 2.14285714,4.55357143 Z" id="path-1"></path>
    </defs>
    <g id="ADD-CREDIT-CARD-Copy" stroke="none" stroke-width="1" fill="none" fill-rule="evenodd" transform="translate(-16.000000, -123.000000)">
        <g id="Group-2" transform="translate(0.000000, 116.583208)">
            <g id="Mobileapp/Listitem/Single-Line-Item-Copy-3">
                <g id="Label" transform="translate(16.000000, 4.000000)">
                    <g id="Icons/CreditCard_Opt">
                        <mask id="mask-2" fill="white">
                            <use xlink:href="#path-1"></use>
                        </mask>
                        <use id="Shape" fill="#000000" fill-rule="nonzero" xlink:href="#path-1"></use>
                        <g id="Colours/Flat/Neutral/333333" mask="url(#mask-2)" fill="#333333" fill-rule="evenodd">
                            <rect id="Rectangle-Copy" x="0" y="0" width="20" height="20"></rect>
                        </g>
                    </g>
                </g>
            </g>
        </g>
    </g>
</svg>