<?xml version="1.0" encoding="UTF-8" standalone="no"?>
<svg width="20px" height="19px" viewBox="0 0 20 19" version="1.1" xmlns="http://www.w3.org/2000/svg" xmlns:xlink="http://www.w3.org/1999/xlink">
    <!-- Generator: Sketch 47.1 (45422) - http://www.bohemiancoding.com/sketch -->
    <title>mms-icon</title>
    <desc>Created with Sketch.</desc>
    <defs>
        <path d="M0,0.25 L0,14.5357143 L3.57142857,14.5357143 L3.57142857,18.1741071 L4.73214286,17.2366071 L8.10267857,14.5357143 L20,14.5357143 L20,0.25 L0,0.25 Z M1.42857143,1.67857143 L18.5714286,1.67857143 L18.5714286,13.1071429 L7.61160714,13.1071429 L7.41071429,13.2633929 L5,15.1830357 L5,13.1071429 L1.42857143,13.1071429 L1.42857143,1.67857143 Z M4.94625,7.8355 L3.7275,5.43375 C3.70583322,5.39258313 3.68362511,5.36062511 3.660875,5.337875 C3.63812489,5.31512489 3.61266681,5.29833339 3.5845,5.2875 C3.55633319,5.27666661 3.52437518,5.27016668 3.488625,5.268 C3.45287482,5.26583332 3.4111669,5.26475 3.3635,5.26475 L2.525,5.26475 L2.525,10 L3.4935,10 L3.4935,7.2765 C3.4935,7.21366635 3.49133335,7.14487537 3.487,7.070125 C3.48266664,6.99537463 3.47616671,6.92008371 3.4675,6.84425 L4.7285,9.28175 C4.76750019,9.35758371 4.82004134,9.41499981 4.886125,9.454 C4.95220866,9.4930002 5.02749958,9.5125 5.112,9.5125 L5.2615,9.5125 C5.34600042,9.5125 5.42129134,9.4930002 5.487375,9.454 C5.55345866,9.41499981 5.6059998,9.35758371 5.645,9.28175 L6.8995,6.8475 C6.88649993,7.0013341 6.88,7.14433267 6.88,7.2765 L6.88,10 L7.8485,10 L7.8485,5.26475 L7.01,5.26475 C6.96233309,5.26475 6.92062518,5.26583332 6.884875,5.268 C6.84912482,5.27016668 6.81716681,5.27666661 6.789,5.2875 C6.76083319,5.29833339 6.73537511,5.31512489 6.712625,5.337875 C6.68987489,5.36062511 6.66766677,5.39258313 6.646,5.43375 L5.4305,7.82575 C5.38716645,7.91025042 5.34491687,7.99745788 5.30375,8.087375 C5.26258313,8.17729212 5.22358352,8.26991619 5.18675,8.36525 C5.14991648,8.27208287 5.11145853,8.18108378 5.071375,8.09225 C5.03129147,8.00341622 4.98958355,7.91783375 4.94625,7.8355 Z M11.04975,7.8355 L9.831,5.43375 C9.80933322,5.39258313 9.78712511,5.36062511 9.764375,5.337875 C9.74162489,5.31512489 9.71616681,5.29833339 9.688,5.2875 C9.65983319,5.27666661 9.62787518,5.27016668 9.592125,5.268 C9.55637482,5.26583332 9.5146669,5.26475 9.467,5.26475 L8.6285,5.26475 L8.6285,10 L9.597,10 L9.597,7.2765 C9.597,7.21366635 9.59483335,7.14487537 9.5905,7.070125 C9.58616664,6.99537463 9.57966671,6.92008371 9.571,6.84425 L10.832,9.28175 C10.8710002,9.35758371 10.9235413,9.41499981 10.989625,9.454 C11.0557087,9.4930002 11.1309996,9.5125 11.2155,9.5125 L11.365,9.5125 C11.4495004,9.5125 11.5247913,9.4930002 11.590875,9.454 C11.6569587,9.41499981 11.7094998,9.35758371 11.7485,9.28175 L13.003,6.8475 C12.9899999,7.0013341 12.9835,7.14433267 12.9835,7.2765 L12.9835,10 L13.952,10 L13.952,5.26475 L13.1135,5.26475 C13.0658331,5.26475 13.0241252,5.26583332 12.988375,5.268 C12.9526248,5.27016668 12.9206668,5.27666661 12.8925,5.2875 C12.8643332,5.29833339 12.8388751,5.31512489 12.816125,5.337875 C12.7933749,5.36062511 12.7711668,5.39258313 12.7495,5.43375 L11.534,7.82575 C11.4906664,7.91025042 11.4484169,7.99745788 11.40725,8.087375 C11.3660831,8.17729212 11.3270835,8.26991619 11.29025,8.36525 C11.2534165,8.27208287 11.2149585,8.18108378 11.174875,8.09225 C11.1347915,8.00341622 11.0930835,7.91783375 11.04975,7.8355 Z M17.371,6.22675 L17.644,5.7165 C17.5594996,5.63849961 17.4636255,5.56862531 17.356375,5.506875 C17.2491245,5.44512469 17.1337506,5.39204189 17.01025,5.347625 C16.8867494,5.30320811 16.756209,5.26962511 16.618625,5.246875 C16.481041,5.22412489 16.3396674,5.21275 16.1945,5.21275 C15.9344987,5.21275 15.703751,5.25229127 15.50225,5.331375 C15.300749,5.41045873 15.1306674,5.51608267 14.992,5.64825 C14.8533326,5.78041733 14.7482504,5.93099915 14.67675,6.1 C14.6052496,6.26900084 14.5695,6.44233244 14.5695,6.62 C14.5695,6.8410011 14.599833,7.02679091 14.6605,7.177375 C14.721167,7.32795909 14.8007912,7.4536245 14.899375,7.554375 C14.9979588,7.6551255 15.1100827,7.73637469 15.23575,7.798125 C15.3614173,7.85987531 15.4903327,7.91187479 15.6225,7.954125 C15.7546673,7.99637521 15.8835827,8.03483316 16.00925,8.0695 C16.1349173,8.10416684 16.2470412,8.14424977 16.345625,8.18975 C16.4442088,8.23525023 16.523833,8.29266632 16.5845,8.362 C16.645167,8.43133368 16.6755,8.52124945 16.6755,8.63175 C16.6755,8.82241762 16.6202506,8.96162456 16.50975,9.049375 C16.3992494,9.13712544 16.2443343,9.181 16.045,9.181 C15.8976659,9.181 15.7698339,9.16041687 15.6615,9.11925 C15.5531661,9.07808313 15.4572921,9.03258358 15.373875,8.98275 C15.2904579,8.93291642 15.2157087,8.88741687 15.149625,8.84625 C15.0835413,8.80508313 15.0180003,8.7845 14.953,8.7845 C14.9031664,8.7845 14.8565835,8.79641655 14.81325,8.82025 C14.7699164,8.84408345 14.7363335,8.87549981 14.7125,8.9145 L14.3875,9.428 C14.4806671,9.52116713 14.5900827,9.60566629 14.71575,9.6815 C14.8414173,9.75733371 14.9757493,9.82287472 15.11875,9.878125 C15.2617507,9.93337528 15.4096242,9.97616651 15.562375,10.0065 C15.7151258,10.0368335 15.8651659,10.052 16.0125,10.052 C16.281168,10.052 16.5211239,10.0113754 16.732375,9.930125 C16.9436261,9.84887459 17.1212909,9.73729238 17.265375,9.595375 C17.4094591,9.45345762 17.5194163,9.28716762 17.59525,9.0965 C17.6710837,8.90583238 17.709,8.70108443 17.709,8.48225 C17.709,8.28508235 17.678667,8.1166257 17.618,7.976875 C17.557333,7.8371243 17.4777088,7.71850049 17.379125,7.621 C17.2805412,7.52349951 17.1678756,7.44333365 17.041125,7.3805 C16.9143744,7.31766635 16.7849173,7.26295857 16.65275,7.216375 C16.5205827,7.16979143 16.3911256,7.12754186 16.264375,7.089625 C16.1376244,7.05170814 16.0249588,7.01000023 15.926375,6.9645 C15.8277912,6.91899977 15.748167,6.86483365 15.6875,6.802 C15.626833,6.73916635 15.5965,6.66008381 15.5965,6.56475 C15.5965,6.41524925 15.6468745,6.29662544 15.747625,6.208875 C15.8483755,6.12112456 16.0016656,6.07725 16.2075,6.07725 C16.3266673,6.07725 16.4328329,6.09295818 16.526,6.124375 C16.6191671,6.15579182 16.7020413,6.1909998 16.774625,6.23 C16.8472087,6.26900019 16.912208,6.30420818 16.969625,6.335625 C17.027042,6.36704182 17.0806664,6.38275 17.1305,6.38275 C17.1868336,6.38275 17.2328748,6.36975013 17.268625,6.34375 C17.3043752,6.31774987 17.3384998,6.27875026 17.371,6.22675 Z" id="path-1"></path>
    </defs>
    <g id="Drop2_Bucket2_VisualDesign" stroke="none" stroke-width="1" fill="none" fill-rule="evenodd">
        <g id="LATEST-PLAN-UPDATE_1" transform="translate(-16.000000, -405.000000)">
            <g id="Mobileapp/Listitem/Single-Line-Item-Copy-2" transform="translate(0.000000, 400.000000)">
                <g id="Label" transform="translate(16.000000, 4.000000)">
                    <g id="Icon">
                        <g id="mms-icon" transform="translate(0.000000, 1.000000)">
                            <mask id="mask-2" fill="white">
                                <use xlink:href="#path-1"></use>
                            </mask>
                            <use id="Combined-Shape" fill="#999999" fill-rule="nonzero" xlink:href="#path-1"></use>
                        </g>
                    </g>
                </g>
            </g>
        </g>
    </g>
</svg>