<?xml version="1.0" encoding="UTF-8"?>
<svg width="32px" height="32px" viewBox="0 0 32 32" version="1.1" xmlns="http://www.w3.org/2000/svg" xmlns:xlink="http://www.w3.org/1999/xlink">
    <!-- Generator: Sketch 48.2 (47327) - http://www.bohemiancoding.com/sketch -->
    <title>icon/icon_gb-share</title>
    <desc>Created with Sketch.</desc>
    <defs></defs>
    <g id="Page-1" stroke="none" stroke-width="1" fill="none" fill-rule="evenodd">
        <g id="icon/icon_gb-share" fill="#000000">
            <path d="M9.62067655,9.85442797 L15.6776891,9.85442797 L15.6776891,17.1398708 C14.7776466,17.7966585 13.8188319,18.2770794 12.8012163,18.5811479 C11.7836006,18.8852163 10.7072146,19.0372482 9.57202585,19.0372482 C8.12060594,19.0372482 6.8070501,18.8122409 5.63131889,18.3622197 C4.45558769,17.9121984 3.45014987,17.2858269 2.61497529,16.4830863 C1.77980071,15.6803457 1.13518534,14.7276123 0.681109844,13.6248575 C0.227034344,12.5221027 0,11.3180098 0,10.0125428 C0,8.69085872 0.216898883,7.47865748 0.650703155,6.3759027 C1.08450743,5.27314791 1.7027706,4.32446869 2.50551121,3.52983656 C3.30825183,2.73520444 4.27922907,2.11491418 5.41847206,1.66894717 C6.55771506,1.22298016 7.83275615,1 9.2436336,1 C9.9733978,1 10.6545008,1.05878568 11.2869631,1.1763588 C11.9194254,1.29393192 12.503228,1.45609931 13.0383884,1.66286583 C13.5735489,1.86963235 14.0641052,2.11491053 14.5100722,2.39870772 C14.9560392,2.6825049 15.3614577,2.99467713 15.7263398,3.33523375 L14.668187,4.96503231 C14.5060172,5.22450402 14.2951996,5.38261723 14.0357279,5.43937666 C13.7762561,5.4961361 13.4924632,5.43126914 13.1843406,5.24477385 C12.8924349,5.06638705 12.6066149,4.90624675 12.3268719,4.76434816 C12.047129,4.62244956 11.7491464,4.49879693 11.4329152,4.39338655 C11.1166841,4.28797616 10.7720784,4.20689247 10.3990878,4.15013303 C10.0260972,4.09337359 9.59635363,4.0649943 9.10984417,4.0649943 C8.29088657,4.0649943 7.54897076,4.20689076 6.8840745,4.49068795 C6.21917823,4.77448514 5.65361946,5.17584943 5.18738122,5.69479285 C4.72114299,6.21373628 4.36234764,6.83808073 4.11098442,7.56784493 C3.85962119,8.29760912 3.73394147,9.11250025 3.73394147,10.0125428 C3.73394147,10.9855617 3.87178375,11.8551843 4.14747244,12.6214367 C4.42316114,13.3876891 4.81236287,14.0343316 5.31508932,14.5613835 C5.81781577,15.0884354 6.4198622,15.4897997 7.12124667,15.7654884 C7.82263115,16.0411771 8.60306171,16.1790194 9.46256176,16.1790194 C10.0463731,16.1790194 10.5673359,16.1202337 11.0254656,16.0026606 C11.4835953,15.8850875 11.9315828,15.7249472 12.3694413,15.5222349 L12.3694413,12.554542 L10.3747624,12.554542 C10.1396162,12.554542 9.9551508,12.4917021 9.8213607,12.3660205 C9.6875706,12.2403389 9.62067655,12.0801986 9.62067655,11.8855948 L9.62067655,9.85442797 Z M25.4321551,16.04523 C26.0159664,16.04523 26.4963873,15.9742817 26.8734322,15.8323831 C27.250477,15.6904845 27.5525138,15.5019649 27.7795515,15.2668187 C28.0065893,15.0316725 28.1647025,14.7620692 28.2538959,14.4580008 C28.3430893,14.1539323 28.3876853,13.839733 28.3876853,13.5153934 C28.3876853,13.1586198 28.3349809,12.8383392 28.2295705,12.554542 C28.1241601,12.2707448 27.9538844,12.0295208 27.7187381,11.8308628 C27.4835919,11.6322048 27.1775009,11.4801728 26.8004561,11.3747624 C26.4234113,11.2693521 25.9592071,11.2166477 25.4078297,11.2166477 L22.3063474,11.2166477 L22.3063474,16.04523 L25.4321551,16.04523 Z M22.3063474,3.96769289 L22.3063474,8.7354618 L24.7023945,8.7354618 C25.2132295,8.7354618 25.6672982,8.69289286 26.0646142,8.60775371 C26.4619303,8.52261455 26.7943734,8.38679936 27.0619536,8.20030407 C27.3295338,8.01380877 27.5342702,7.7685306 27.6761688,7.46446218 C27.8180674,7.16039377 27.8890156,6.79349005 27.8890156,6.36374002 C27.8890156,5.92588151 27.8302299,5.55289651 27.7126568,5.24477385 C27.5950837,4.93665119 27.4146724,4.68934592 27.1714177,4.50285063 C26.928163,4.31635533 26.6200449,4.18054014 26.2470544,4.09540099 C25.8740638,4.01026183 25.4321576,3.96769289 24.9213227,3.96769289 L22.3063474,3.96769289 Z M24.9213227,1.19460281 C26.1051624,1.19460281 27.1166815,1.30609289 27.9559103,1.5290764 C28.7951391,1.7520599 29.4802963,2.06828631 30.0114025,2.47776511 C30.5425087,2.88724391 30.9296833,3.38388154 31.172938,3.96769289 C31.4161928,4.55150425 31.5378183,5.20422799 31.5378183,5.92588369 C31.5378183,6.33130825 31.4790326,6.72050998 31.3614595,7.09350057 C31.2438864,7.46649116 31.0614481,7.81717814 30.8141391,8.14557203 C30.5668301,8.47396591 30.2485766,8.77194849 29.8593691,9.0395287 C29.4701615,9.3071089 29.0079844,9.53414325 28.472824,9.72063854 C29.6728807,10.0044357 30.5607472,10.4666128 31.13645,11.1071836 C31.7121529,11.7477544 32,12.5788622 32,13.6005321 C32,14.3465133 31.8560764,15.0397789 31.568225,15.6803497 C31.2803736,16.3209205 30.8607655,16.8763438 30.3093881,17.3466363 C29.7580107,17.8169287 29.0789347,18.1838325 28.2721399,18.4473584 C27.465345,18.7108844 26.5389638,18.8426454 25.4929685,18.8426454 L18.6575447,18.8426454 L18.6575447,1.19460281 L24.9213227,1.19460281 Z" id="GB"></path>
            <path d="M5.7703867,23.03887 C5.71054535,23.1371807 5.64963632,23.2087756 5.58765778,23.2536566 C5.52567925,23.2985376 5.44553579,23.3209778 5.34722501,23.3209778 C5.2531886,23.3209778 5.15167356,23.2878518 5.04267682,23.2215989 C4.93368008,23.155346 4.80651913,23.0837511 4.66119014,23.0068123 C4.51586116,22.9298734 4.34916276,22.8582786 4.16108996,22.7920256 C3.97301716,22.7257727 3.75288979,22.6926468 3.50070126,22.6926468 C3.05616555,22.6926468 2.72276876,22.7920247 2.5005009,22.9907834 C2.27823304,23.1895422 2.16710078,23.449207 2.16710078,23.7697856 C2.16710078,23.9749559 2.22800981,24.1448601 2.34982969,24.2795031 C2.47164958,24.4141461 2.63193649,24.5306213 2.83069525,24.6289321 C3.02945401,24.7272429 3.25492427,24.8148664 3.5071128,24.8918052 C3.75930133,24.9687441 4.01789756,25.0531619 4.28290924,25.1450611 C4.54792091,25.2369603 4.80651714,25.3448868 5.05870567,25.4688439 C5.3108942,25.592801 5.53636446,25.7488136 5.73512322,25.9368864 C5.93388198,26.1249592 6.0941689,26.3547038 6.21598878,26.626127 C6.33780866,26.8975503 6.39871769,27.2277413 6.39871769,27.6167101 C6.39871769,28.0398739 6.32498571,28.4363169 6.17751954,28.8060509 C6.03005336,29.1757849 5.81740605,29.4984959 5.53957123,29.7741935 C5.26173641,30.0498912 4.9187224,30.2668128 4.51051893,30.4249649 C4.10231546,30.5831171 3.63962057,30.6621919 3.12242036,30.6621919 C2.82748801,30.6621919 2.53362866,30.6322717 2.2408335,30.5724304 C1.94803834,30.512589 1.66593337,30.4292398 1.39451012,30.3223803 C1.12308687,30.2155207 0.867696381,30.0872912 0.628330996,29.9376878 C0.38896561,29.7880845 0.179524039,29.6213861 0,29.4375877 L0.564215588,28.5271489 C0.611233789,28.4587588 0.673211397,28.402124 0.75015027,28.357243 C0.827089144,28.312362 0.908301182,28.2899219 0.99378882,28.2899219 C1.10919713,28.2899219 1.23101519,28.332665 1.35924664,28.4181527 C1.4874781,28.5036403 1.63494206,28.5976753 1.80164296,28.7002605 C1.96834385,28.8028456 2.16175673,28.8968806 2.3818874,28.9823683 C2.60201806,29.0678559 2.86595719,29.1105991 3.17371268,29.1105991 C3.62252278,29.1105991 3.9698111,29.0080155 4.21558806,28.8028451 C4.46136502,28.5976748 4.58425165,28.2920611 4.58425165,27.8859948 C4.58425165,27.6509038 4.52334262,27.4606966 4.40152274,27.3153677 C4.27970286,27.1700387 4.12048452,27.0482206 3.92386295,26.9499098 C3.72724139,26.8515991 3.5028397,26.7671813 3.25065117,26.696654 C2.99846264,26.6261267 2.73986642,26.5481204 2.47485474,26.4626327 C2.20984306,26.3771451 1.95124684,26.2745615 1.6990583,26.1548788 C1.44686977,26.0351961 1.22246809,25.8770463 1.02584652,25.6804248 C0.829224957,25.4838032 0.67000662,25.2401671 0.548186736,24.9495091 C0.426366852,24.6588511 0.365457824,24.2976713 0.365457824,23.8659587 C0.365457824,23.5197338 0.433846908,23.1841998 0.570627129,22.8593468 C0.707407349,22.5344938 0.908300285,22.2459774 1.17331196,21.9937888 C1.43832364,21.7416003 1.76424037,21.5385702 2.15107193,21.3846924 C2.53790349,21.2308147 2.98136396,21.153877 3.48146664,21.153877 C4.04141067,21.153877 4.5596717,21.2404319 5.03626528,21.4135444 C5.51285886,21.5866568 5.91571331,21.8270872 6.24484071,22.1348427 L5.7703867,23.03887 Z M9.32238028,24.5968744 C9.44633736,24.4857404 9.57563547,24.3842254 9.7102785,24.2923262 C9.84492153,24.200427 9.98811118,24.1213521 10.1398517,24.0550992 C10.2915923,23.9888463 10.4540164,23.9375544 10.6271288,23.9012222 C10.8002413,23.86489 10.9872427,23.8467241 11.1881386,23.8467241 C11.5471867,23.8467241 11.8656234,23.9087017 12.1434582,24.0326588 C12.421293,24.1566159 12.6553119,24.3297257 12.8455219,24.5519936 C13.0357319,24.7742614 13.1789216,25.0392691 13.2750952,25.3470246 C13.3712688,25.6547801 13.4193548,25.9924512 13.4193548,26.3600481 L13.4193548,30.5596073 L11.6561811,30.5596073 L11.6561811,26.3600481 C11.6561811,25.9924512 11.5706948,25.7071405 11.3997195,25.5041074 C11.2287442,25.3010743 10.9765595,25.1995592 10.6431577,25.1995592 C10.3952435,25.1995592 10.1622932,25.2529882 9.94429974,25.3598477 C9.72630626,25.4667073 9.51900185,25.6163084 9.32238028,25.8086556 L9.32238028,30.5596073 L7.55279503,30.5596073 L7.55279503,21 L9.32238028,21 L9.32238028,24.5968744 Z M18.2793027,27.7962332 C17.8475902,27.8176051 17.4885475,27.8550054 17.2021639,27.9084352 C16.9157803,27.961865 16.6881729,28.0313226 16.5193348,28.1168103 C16.3504967,28.2022979 16.2308158,28.2995386 16.1602885,28.4085354 C16.0897612,28.5175321 16.0544981,28.6361444 16.0544981,28.7643759 C16.0544981,29.0208388 16.1260929,29.2024973 16.2692847,29.3093568 C16.4124765,29.4162164 16.6123009,29.4696454 16.8687638,29.4696454 C17.1636961,29.4696454 17.4190866,29.417285 17.6349429,29.3125626 C17.8507992,29.2078403 18.0655837,29.0443476 18.2793027,28.8220797 L18.2793027,27.7962332 Z M14.6760168,24.8661591 C15.0649856,24.5156598 15.4945545,24.2538578 15.9647365,24.0807453 C16.4349185,23.9076329 16.9435623,23.8210779 17.4906832,23.8210779 C17.8839264,23.8210779 18.235489,23.8851927 18.5453817,24.0134242 C18.8552744,24.1416556 19.1181449,24.3201084 19.3340012,24.5487878 C19.5498575,24.7774672 19.7154873,25.049955 19.8308956,25.3662593 C19.9463039,25.6825635 20.0040072,26.0287833 20.0040072,26.4049289 L20.0040072,30.5596073 L19.1961531,30.5596073 C19.0294522,30.5596073 18.9022912,30.5360985 18.8146664,30.4890803 C18.7270416,30.4420621 18.6554467,30.3437528 18.5998798,30.1941495 L18.4588259,29.7709878 C18.292125,29.9163168 18.1307695,30.0445463 17.9747546,30.1556802 C17.8187396,30.2668142 17.6573841,30.3597806 17.4906832,30.4345822 C17.3239823,30.5093839 17.1455296,30.5660186 16.9553196,30.6044881 C16.7651096,30.6429575 16.5524623,30.6621919 16.3173713,30.6621919 C16.0267133,30.6621919 15.7617056,30.6237231 15.5223402,30.5467842 C15.2829748,30.4698453 15.076739,30.3555073 14.9036265,30.2037668 C14.7305141,30.0520262 14.5969416,29.8628877 14.5029052,29.6363454 C14.4088688,29.4098032 14.3618513,29.1490698 14.3618513,28.8541374 C14.3618513,28.6104977 14.4238289,28.3668616 14.547786,28.1232218 C14.6717431,27.879582 14.8843904,27.6583861 15.1857343,27.4596273 C15.4870782,27.2608686 15.8888641,27.0963073 16.391104,26.9659387 C16.8933439,26.83557 17.5227372,26.7618381 18.2793027,26.7447405 L18.2793027,26.4049289 C18.2793027,25.9903138 18.1916792,25.6857687 18.0164296,25.4912843 C17.8411799,25.2967999 17.5889952,25.1995592 17.2598678,25.1995592 C17.016228,25.1995592 16.8131979,25.2284109 16.6507714,25.286115 C16.4883449,25.3438192 16.3462238,25.4057968 16.2244039,25.4720497 C16.102584,25.5383026 15.988246,25.6002802 15.8813865,25.6579844 C15.7745269,25.7156885 15.6505717,25.7445402 15.5095171,25.7445402 C15.3855601,25.7445402 15.2819079,25.7135514 15.1985574,25.6515728 C15.115207,25.5895943 15.0457493,25.5158623 14.9901823,25.4303747 L14.6760168,24.8661591 Z M23.0494891,25.0392707 C23.2589338,24.6631251 23.5004327,24.36606 23.7739932,24.1480665 C24.0475536,23.930073 24.3681275,23.8210779 24.7357243,23.8210779 C25.034931,23.8210779 25.2785671,23.8916042 25.46664,24.0326588 L25.3512322,25.3406131 C25.3298603,25.4261007 25.2967343,25.4848726 25.2518533,25.5169305 C25.2069723,25.5489883 25.1460633,25.565017 25.0691244,25.565017 C25.0007343,25.565017 24.902425,25.5553998 24.7741935,25.5361651 C24.6459621,25.5169304 24.5262812,25.5073132 24.4151473,25.5073132 C24.2527208,25.5073132 24.1084625,25.5308219 23.9823683,25.5778401 C23.856274,25.6248583 23.7440732,25.6911102 23.6457624,25.7765979 C23.5474516,25.8620855 23.4587595,25.9668063 23.3796834,26.0907634 C23.3006074,26.2147204 23.2268754,26.3557729 23.1584853,26.5139251 L23.1584853,30.5596073 L21.3889,30.5596073 L21.3889,23.9493088 L22.4339812,23.9493088 C22.6135052,23.9493088 22.7374604,23.9813661 22.8058505,24.0454819 C22.8742406,24.1095976 22.9233953,24.2207299 22.953316,24.378882 L23.0494891,25.0392707 Z M30.4163494,26.4754558 C30.4163494,26.2916574 30.3917721,26.1164104 30.3426167,25.9497095 C30.2934613,25.7830086 30.215455,25.6355446 30.1085955,25.5073132 C30.0017359,25.3790817 29.8670949,25.2775667 29.7046684,25.202765 C29.5422419,25.1279633 29.3477604,25.090563 29.1212182,25.090563 C28.6980544,25.090563 28.3667948,25.2102439 28.1274294,25.4496093 C27.888064,25.6889747 27.7320514,26.0309201 27.6593869,26.4754558 L30.4163494,26.4754558 Z M27.6337407,27.5269485 C27.6893077,28.1467339 27.8656233,28.5998116 28.1626928,28.8861952 C28.4597624,29.1725787 28.8476567,29.3157684 29.3263875,29.3157684 C29.5700273,29.3157684 29.7805374,29.2869167 29.9579243,29.2292126 C30.1353111,29.1715084 30.2913237,29.1073937 30.4259667,29.0368664 C30.5606098,28.9663391 30.6824278,28.9022243 30.7914246,28.8445201 C30.9004213,28.786816 31.0083478,28.7579643 31.1152074,28.7579643 C31.2519876,28.7579643 31.3588455,28.8092561 31.4357844,28.9118413 L31.9487077,29.5529954 C31.7606349,29.7709889 31.5533305,29.9515788 31.3267882,30.0947706 C31.100246,30.2379624 30.8651585,30.3512318 30.6215187,30.4345822 C30.377879,30.5179327 30.1321057,30.575636 29.8841915,30.6076938 C29.6362774,30.6397517 29.3969156,30.6557804 29.166099,30.6557804 C28.7044657,30.6557804 28.2738282,30.5799113 27.8741735,30.4281707 C27.4745188,30.2764302 27.1261619,30.0520285 26.8290924,29.7549589 C26.5320228,29.4578894 26.2980039,29.0892295 26.1270287,28.6489681 C25.9560534,28.2087068 25.870567,27.6979258 25.870567,27.1166099 C25.870567,26.6677998 25.944299,26.2446423 26.0917652,25.8471248 C26.2392314,25.4496073 26.4518787,25.1033876 26.7297135,24.8084552 C27.0075483,24.5135229 27.3452194,24.279504 27.7427369,24.1063915 C28.1402544,23.933279 28.5890578,23.8467241 29.0891605,23.8467241 C29.5123243,23.8467241 29.9023558,23.9140446 30.2592667,24.0486876 C30.6161776,24.1833307 30.9239284,24.3788807 31.1825286,24.6353436 C31.4411287,24.8918065 31.6420216,25.2070375 31.7852134,25.5810459 C31.9284052,25.9550543 32,26.3814175 32,26.8601483 C32,26.9926541 31.9935885,27.1016492 31.9807654,27.1871368 C31.9679422,27.2726245 31.9465706,27.3410136 31.91665,27.3923062 C31.8867293,27.4435987 31.8461233,27.4788619 31.7948307,27.4980966 C31.7435381,27.5173313 31.6772862,27.5269485 31.5960729,27.5269485 L27.6337407,27.5269485 Z" id="Share"></path>
        </g>
    </g>
</svg>