<?xml version="1.0" encoding="UTF-8"?>
<svg width="32px" height="32px" viewBox="0 0 32 32" version="1.1" xmlns="http://www.w3.org/2000/svg" xmlns:xlink="http://www.w3.org/1999/xlink">
    <!-- Generator: Sketch 48.2 (47327) - http://www.bohemiancoding.com/sketch -->
    <title>icon/icon_auto-reload</title>
    <desc>Created with Sketch.</desc>
    <defs>
        <path d="M15.8333333,0 C9.01562533,0 3.32291733,4.21354133 1,10.1666667 L3.45833333,11.1666667 C5.40104133,6.1875 10.114584,2.66666667 15.8333333,2.66666667 C20.1562507,2.66666667 24.0104173,4.78645867 26.4166667,8 L21.1666667,8 L21.1666667,10.6666667 L30.5,10.6666667 L30.5,1.33333333 L27.8333333,1.33333333 L27.8333333,5.45833333 C24.9114587,2.10937467 20.5937507,0 15.8333333,0 Z M28.2083333,20.8333333 C26.2656253,25.8125 21.552084,29.3333333 15.8333333,29.3333333 C11.4635413,29.3333333 7.625,27.182292 5.20833333,24 L10.5,24 L10.5,21.3333333 L1.16666667,21.3333333 L1.16666667,30.6666667 L3.83333333,30.6666667 L3.83333333,26.5416667 C6.75,29.8489587 11.0260413,32 15.8333333,32 C22.6510413,32 28.3437507,27.7864587 30.6666667,21.8333333 L28.2083333,20.8333333 Z" id="path-1"></path>
    </defs>
    <g id="Page-1" stroke="none" stroke-width="1" fill="none" fill-rule="evenodd">
        <g id="icon/icon_auto-reload">
            <mask id="mask-2" fill="white">
                <use xlink:href="#path-1"></use>
            </mask>
            <use id="Shape" fill="#000000" fill-rule="nonzero" xlink:href="#path-1"></use>
        </g>
    </g>
</svg>