<?xml version="1.0" encoding="UTF-8"?>
<svg width="32px" height="32px" viewBox="0 0 32 32" version="1.1" xmlns="http://www.w3.org/2000/svg" xmlns:xlink="http://www.w3.org/1999/xlink">
    <!-- Generator: Sketch 48.2 (47327) - http://www.bohemiancoding.com/sketch -->
    <title>icon/icon_device-setting</title>
    <desc>Created with Sketch.</desc>
    <defs>
        <path d="M20.1259,24.7312 C18.8419,24.7312 17.7959,23.6852 17.7959,22.4002 C17.7959,21.1152 18.8419,20.0692 20.1259,20.0692 C21.4109,20.0692 22.4569,21.1152 22.4569,22.4002 C22.4569,23.6852 21.4109,24.7312 20.1259,24.7312 M27.495,22.9253 L29.03,24.1253 C29.49,24.4893 29.614,25.1393 29.324,25.6693 L27.564,28.7143 C27.272,29.2463 26.647,29.4743 26.073,29.2493 L24.259,28.5213 C23.961,28.7223 23.659,28.8993 23.358,29.0463 L23.083,30.9623 C23.01,31.5533 22.498,31.9993 21.894,31.9993 L18.358,31.9993 C17.754,31.9993 17.243,31.5583 17.17,30.9733 L16.894,29.0483 C16.585,28.8983 16.281,28.7213 15.989,28.5223 L14.159,29.2573 C13.602,29.4623 12.972,29.2333 12.695,28.7273 L10.921,25.6573 C10.634,25.1333 10.763,24.4893 11.225,24.1233 L12.758,22.9243 C12.743,22.7423 12.735,22.5693 12.735,22.4003 C12.735,22.2313 12.743,22.0583 12.758,21.8753 L11.223,20.6753 C10.753,20.3043 10.627,19.6393 10.93,19.1273 L12.688,16.0853 C12.975,15.5613 13.616,15.3303 14.179,15.5503 L15.993,16.2793 C16.29,16.0783 16.593,15.9013 16.894,15.7523 L17.169,13.8373 C17.242,13.2473 17.754,12.8003 18.358,12.8003 L21.894,12.8003 C22.498,12.8003 23.009,13.2423 23.082,13.8283 L23.358,15.7523 C23.669,15.9033 23.973,16.0803 24.263,16.2783 L26.093,15.5423 C26.649,15.3403 27.28,15.5673 27.557,16.0733 L29.332,19.1433 C29.617,19.6673 29.488,20.3123 29.026,20.6763 L27.495,21.8743 C27.51,22.0593 27.517,22.2283 27.517,22.4003 C27.517,22.5723 27.51,22.7413 27.495,22.9253 Z M26.373,27.7273 L27.863,25.1503 L25.882,23.6003 L25.935,23.1713 C25.974,22.8633 25.991,22.6323 25.991,22.4003 C25.991,22.1673 25.974,21.9373 25.935,21.6283 L25.882,21.2003 L27.863,19.6503 L26.374,17.0733 L24.036,18.0123 L23.691,17.7473 C23.277,17.4273 22.834,17.1703 22.373,16.9823 L21.97,16.8173 L21.612,14.3263 L18.641,14.3263 L18.283,16.8173 L17.879,16.9823 C17.436,17.1633 17.003,17.4143 16.555,17.7523 L16.21,18.0103 L15.812,17.8493 L13.879,17.0733 L12.389,19.6503 L14.371,21.2003 L14.317,21.6283 C14.279,21.9303 14.261,22.1753 14.261,22.4003 C14.261,22.6243 14.279,22.8703 14.317,23.1713 L14.371,23.6003 L12.389,25.1503 L13.879,27.7273 L16.216,26.7883 L16.56,27.0533 C16.975,27.3733 17.418,27.6293 17.879,27.8183 L18.283,27.9833 L18.345,28.4163 L18.641,30.4753 L21.612,30.4753 L21.97,27.9833 L22.373,27.8183 C22.815,27.6373 23.249,27.3853 23.698,27.0473 L24.042,26.7903 L24.439,26.9513 L26.373,27.7273 Z M20.1259,18.5442 C22.2519,18.5442 23.9809,20.2742 23.9809,22.4002 C23.9809,24.5262 22.2519,26.2552 20.1259,26.2552 C17.9999,26.2552 16.2709,24.5262 16.2709,22.4002 C16.2709,20.2742 17.9999,18.5442 20.1259,18.5442 Z M9.608,25.657 L10.472,27.152 C10.548,27.284 10.453,27.449 10.3,27.449 L4.745,27.449 C4.027,27.449 3.292,27.197 2.772,26.677 C2.252,26.158 2,25.422 2,24.704 L2,21.959 L2,19.214 L2,17.842 L2,15.097 L2,2.745 C2,2.026 2.252,1.292 2.772,0.772 C3.292,0.252 4.027,0 4.745,0 L7.49,0 L10.235,0 L18.47,0 C19.188,0 19.923,0.252 20.443,0.772 C20.962,1.292 21.215,2.026 21.215,2.745 L21.215,11.502 L19.097,11.502 L19.097,2.125 L4.127,2.125 L4.127,25.322 L9.495,25.322 C9.519,25.436 9.549,25.55 9.608,25.657 Z" id="path-1"></path>
    </defs>
    <g id="Page-1" stroke="none" stroke-width="1" fill="none" fill-rule="evenodd">
        <g id="icon/icon_device-setting">
            <mask id="mask-2" fill="white">
                <use xlink:href="#path-1"></use>
            </mask>
            <use id="Combined-Shape" fill="#333333" xlink:href="#path-1"></use>
        </g>
    </g>
</svg>