<?xml version="1.0" encoding="UTF-8"?>
<svg width="32px" height="32px" viewBox="0 0 32 32" version="1.1" xmlns="http://www.w3.org/2000/svg" xmlns:xlink="http://www.w3.org/1999/xlink">
    <!-- Generator: Sketch 48.2 (47327) - http://www.bohemiancoding.com/sketch -->
    <title>icon/icon_new</title>
    <desc>Created with Sketch.</desc>
    <defs>
        <path d="M28.8,3 L3.2,3 C1.424,3 0.016,4.424 0.016,6.2 L0,25.4 C0,27.176 1.424,28.6 3.2,28.6 L28.8,28.6 C30.576,28.6 32,27.176 32,25.4 L32,6.2 C32,4.424 30.576,3 28.8,3 Z M10.4,20.6 L8.48,20.6 L4.4,15 L4.4,20.6 L2.4,20.6 L2.4,11 L4.4,11 L8.4,16.6 L8.4,11 L10.4,11 L10.4,20.6 Z M18.4,13.016 L14.4,13.016 L14.4,14.808 L18.4,14.808 L18.4,16.824 L14.4,16.824 L14.4,18.6 L18.4,18.6 L18.4,20.6 L12,20.6 L12,11 L18.4,11 L18.4,13.016 Z M29.6,19 C29.6,19.88 28.88,20.6 28,20.6 L21.6,20.6 C20.72,20.6 20,19.88 20,19 L20,11 L22,11 L22,18.216 L23.808,18.216 L23.808,12.584 L25.808,12.584 L25.808,18.2 L27.6,18.2 L27.6,11 L29.6,11 L29.6,19 Z" id="path-1"></path>
    </defs>
    <g id="Page-1" stroke="none" stroke-width="1" fill="none" fill-rule="evenodd">
        <g id="icon/icon_new">
            <mask id="mask-2" fill="white">
                <use xlink:href="#path-1"></use>
            </mask>
            <use id="Shape" fill="#000000" fill-rule="nonzero" xlink:href="#path-1"></use>
        </g>
    </g>
</svg>