<?xml version="1.0" encoding="UTF-8"?>
<svg width="32px" height="33px" viewBox="0 0 32 33" version="1.1" xmlns="http://www.w3.org/2000/svg" xmlns:xlink="http://www.w3.org/1999/xlink">
    <!-- Generator: Sketch 48.2 (47327) - http://www.bohemiancoding.com/sketch -->
    <title>Combined Shape</title>
    <desc>Created with Sketch.</desc>
    <defs>
        <path d="M16,0 C11.588542,0 8,3.588542 8,8 C8,12.4114587 11.588542,16 16,16 C20.4114587,16 24,12.4114587 24,8 C24,3.588542 20.4114587,0 16,0 Z M16,1.33333333 C16.119792,1.33333333 16.3020833,1.40625 16.5416667,1.6875 C16.78125,1.96875 17.026042,2.42968734 17.25,3.04166666 C17.3541667,3.32812534 17.4557293,3.65625 17.5416667,4 L14.4583333,4 C14.5442707,3.65625 14.6458333,3.32812534 14.75,3.04166666 C14.9739587,2.42968734 15.21875,1.96875 15.4583333,1.6875 C15.6979167,1.40625 15.8802087,1.33333333 16,1.33333333 Z M13.875,1.66666667 C13.7265627,1.94531267 13.5989587,2.252604 13.4791667,2.58333334 C13.3229167,3.01302066 13.1979167,3.49218734 13.0833333,4 L10.6666667,4 C11.46875,2.92968734 12.5807293,2.10156266 13.875,1.66666667 Z M18.125,1.66666667 C19.4192707,2.10156266 20.53125,2.92968734 21.3333333,4 L18.9166667,4 C18.8020833,3.49218734 18.6770833,3.01302066 18.5208333,2.58333334 C18.401042,2.252604 18.2734373,1.94531267 18.125,1.66666667 Z M9.875,5.33333334 L12.8541667,5.33333334 C12.7682293,5.966146 12.7083333,6.63802066 12.6875,7.33333334 L9.375,7.33333334 C9.44270867,6.63020866 9.60677067,5.95572934 9.875,5.33333334 Z M14.2083333,5.33333334 L17.7916667,5.33333334 C17.8854167,5.95833334 17.9531253,6.63020866 17.9791667,7.33333334 L14.0208333,7.33333334 C14.0468753,6.63020866 14.1145833,5.95833334 14.2083333,5.33333334 Z M19.1458333,5.33333334 L22.125,5.33333334 C22.3932293,5.95572934 22.557292,6.63020866 22.625,7.33333334 L19.3125,7.33333334 C19.2916667,6.63802066 19.2317707,5.966146 19.1458333,5.33333334 Z M9.375,8.66666666 L12.6875,8.66666666 C12.7083333,9.36197934 12.7682293,10.033854 12.8541667,10.6666667 L9.875,10.6666667 C9.60677067,10.0442707 9.44270867,9.369792 9.375,8.66666666 Z M14.0208333,8.66666666 L17.9791667,8.66666666 C17.9531253,9.369792 17.8854167,10.0416667 17.7916667,10.6666667 L14.2083333,10.6666667 C14.1145833,10.0416667 14.0468753,9.369792 14.0208333,8.66666666 Z M19.3125,8.66666666 L22.625,8.66666666 C22.557292,9.369792 22.3932293,10.0442707 22.125,10.6666667 L19.1458333,10.6666667 C19.2317707,10.033854 19.2916667,9.36197934 19.3125,8.66666666 Z M10.6666667,12 L13.0833333,12 C13.1979167,12.5078127 13.3229167,12.9869793 13.4791667,13.4166667 C13.5989587,13.747396 13.7265627,14.0546873 13.875,14.3333333 C12.5807293,13.8984373 11.46875,13.0703127 10.6666667,12 Z M14.4583333,12 L17.5416667,12 C17.4557293,12.34375 17.3541667,12.6718753 17.25,12.9583333 C17.026042,13.5703127 16.78125,14.03125 16.5416667,14.3125 C16.3020833,14.59375 16.119792,14.6666667 16,14.6666667 C15.8802087,14.6666667 15.6979167,14.59375 15.4583333,14.3125 C15.21875,14.03125 14.9739587,13.5703127 14.75,12.9583333 C14.6458333,12.6718753 14.5442707,12.34375 14.4583333,12 Z M18.9166667,12 L21.3333333,12 C20.53125,13.0703127 19.4192707,13.8984373 18.125,14.3333333 C18.2734373,14.0546873 18.401042,13.747396 18.5208333,13.4166667 C18.6770833,12.9869793 18.8020833,12.5078127 18.9166667,12 Z M11.6,20.9 L11.7,20.9 L11.7,23.8 C12.4,24.1 13.8,24.5 16,24.5 C18.2,24.5 19.5,24.1 20.3,23.8 L20.3,21 C20.3,20.2 20.5,19.4 21.1,18.9 C21.7,18.4 22.4,18.1 23.2,18.1 L29,18.1 C29.8,18.1 30.6,18.3 31.1,18.9 C31.6,19.5 31.9,20.2 31.9,21 L31.9,25.3 C31.9,27.6 30.4,29.9 28,30.7 C25.3,31.6 21.5,32.5 16,32.5 C10.5,32.5 6.6,31.6 3.9,30.7 C1.5,29.9 -7.10542736e-15,27.7 -7.10542736e-15,25.3 L-7.10542736e-15,20.9 C-7.10542736e-15,20.1 0.3,19.3 0.8,18.8 C1.4,18.3 2.1,18 2.9,18 L8.7,18 C9.5,18 10.3,18.2 10.8,18.8 C11.3,19.4 11.6,20.1 11.6,20.9 Z M22.4,26.1 C22.4,26.1 19.8,27.4 15.9,27.4 C12.1,27.4 9.5,26.1 9.5,26.1 L8.7,25.7 L8.7,21 L2.9,21 L2.9,25.3 C2.9,26.4 3.7,27.6 4.9,28 C7.4,28.9 10.8,29.7 16,29.7 C21.2,29.7 24.6,28.8 27.1,28 C28.2,27.6 29,26.4 29,25.3 L29,20.9 L23.2,20.9 L23.2,25.7 L22.4,26.1 Z" id="path-1"></path>
    </defs>
    <g id="Icons/IDD" stroke="none" stroke-width="1" fill="none" fill-rule="evenodd">
        <mask id="mask-2" fill="white">
            <use xlink:href="#path-1"></use>
        </mask>
        <use id="Combined-Shape" fill="#000000" fill-rule="nonzero" transform="translate(15.950000, 16.250000) rotate(-180.000000) translate(-15.950000, -16.250000) " xlink:href="#path-1"></use>
    </g>
</svg>