<?xml version="1.0" encoding="UTF-8"?>
<svg width="32px" height="32px" viewBox="0 0 32 32" version="1.1" xmlns="http://www.w3.org/2000/svg" xmlns:xlink="http://www.w3.org/1999/xlink">
    <!-- Generator: Sketch 48.2 (47327) - http://www.bohemiancoding.com/sketch -->
    <title>icon/icon_add-ons</title>
    <desc>Created with Sketch.</desc>
    <defs>
        <path d="M13.9757976,1 L13.6237624,1.31683168 L0.77447745,14.3069307 L0,15.0814081 L0.77447745,15.8910891 L11.4763476,26.5929593 L12.2860286,27.3674367 L14.4334433,25.220022 C15.6215627,28.8107811 19.0055008,31.4158416 22.9878988,31.4158416 C27.9515952,31.4158416 32,27.3674367 32,22.4037404 C32,18.4653463 29.4433446,15.10341 25.909791,13.8844884 L26.0506051,13.7436744 L26.3674368,13.3916392 L26.3674368,1 L13.9757976,1 Z M14.9262926,3.2530253 L24.1144115,3.2530253 L24.1144115,12.4411441 L23.1639164,13.3916392 C23.1067109,13.3916392 23.0495055,13.3916392 22.9878988,13.3916392 C18.0242024,13.3916392 13.9757976,17.440044 13.9757976,22.4037404 C13.9757976,22.4389439 13.9757976,22.4741474 13.9757976,22.5093509 L12.2860286,24.1991199 L3.16831683,15.0814081 L14.9262926,3.2530253 Z M20.7348735,5.50605062 C20.1144117,5.50605062 19.6083608,6.0121015 19.6083608,6.63256324 C19.6083608,7.25302502 20.1144117,7.75907589 20.7348735,7.75907589 C21.3553353,7.75907589 21.8613861,7.25302502 21.8613861,6.63256324 C21.8613861,6.0121015 21.3553353,5.50605062 20.7348735,5.50605062 Z M22.9878988,15.6446645 C26.7326736,15.6446645 29.7469747,18.6589656 29.7469747,22.4037404 C29.7469747,26.1485151 26.7326736,29.1628163 22.9878988,29.1628163 C19.243124,29.1628163 16.2288229,26.1485151 16.2288229,22.4037404 C16.2288229,18.6589656 19.243124,15.6446645 22.9878988,15.6446645 Z M21.8613861,17.8976897 L21.8613861,21.2772277 L18.4818482,21.2772277 L18.4818482,23.530253 L21.8613861,23.530253 L21.8613861,26.909791 L24.1144115,26.909791 L24.1144115,23.530253 L27.4939494,23.530253 L27.4939494,21.2772277 L24.1144115,21.2772277 L24.1144115,17.8976897 L21.8613861,17.8976897 Z" id="path-1"></path>
    </defs>
    <g id="Page-1" stroke="none" stroke-width="1" fill="none" fill-rule="evenodd">
        <g id="icon/icon_add-ons">
            <mask id="mask-2" fill="white">
                <use xlink:href="#path-1"></use>
            </mask>
            <use id="Shape" fill="#000000" fill-rule="nonzero" xlink:href="#path-1"></use>
        </g>
    </g>
</svg>