<?xml version="1.0" encoding="UTF-8"?>
<svg width="32px" height="32px" viewBox="0 0 32 32" version="1.1" xmlns="http://www.w3.org/2000/svg" xmlns:xlink="http://www.w3.org/1999/xlink">
    <!-- Generator: Sketch 48.2 (47327) - http://www.bohemiancoding.com/sketch -->
    <title>icon/icon_notifications-filled</title>
    <desc>Created with Sketch.</desc>
    <defs>
        <path d="M8.90672016,2.53560682 L6.61183551,0.240722166 C2.76028084,3.1775326 0.224674022,7.70310933 0,12.8385155 L3.20962889,12.8385155 C3.45035105,8.58575727 5.6328987,4.86258776 8.90672016,2.53560682 Z M28.7903711,12.8385155 L32,12.8385155 C31.7592778,7.70310933 29.223671,3.1775326 25.3881645,0.240722166 L23.109328,2.53560682 C26.3510532,4.86258776 28.5496489,8.58575727 28.7903711,12.8385155 Z M25.6288867,13.6409228 C25.6288867,8.71414243 22.996991,4.58976931 18.4072217,3.49849549 L18.4072217,2.40722166 C18.4072217,1.07522568 17.331996,0 16,0 C14.668004,0 13.5927783,1.07522568 13.5927783,2.40722166 L13.5927783,3.49849549 C8.98696088,4.58976931 6.37111334,8.69809428 6.37111334,13.6409228 L6.37111334,21.664995 L3.16148445,24.8746239 L3.16148445,26.4794383 L28.8385155,26.4794383 L28.8385155,24.8746239 L25.6288867,21.664995 L25.6288867,13.6409228 Z M16,31.2938816 C16.224674,31.2938816 16.4332999,31.2778335 16.6419258,31.2296891 C17.6850552,31.005015 18.5356068,30.2988967 18.9528586,29.336008 C19.11334,28.9508526 19.1935807,28.5336008 19.1935807,28.0842528 L12.774323,28.0842528 C12.7903711,29.8495486 14.218656,31.2938816 16,31.2938816 Z" id="path-1"></path>
    </defs>
    <g id="Page-1" stroke="none" stroke-width="1" fill="none" fill-rule="evenodd">
        <g id="icon/icon_notifications-filled">
            <mask id="mask-2" fill="white">
                <use xlink:href="#path-1"></use>
            </mask>
            <use id="Shape" fill="#000000" fill-rule="nonzero" xlink:href="#path-1"></use>
        </g>
    </g>
</svg>