<?xml version="1.0" encoding="UTF-8"?>
<svg width="32px" height="32px" viewBox="0 0 32 32" version="1.1" xmlns="http://www.w3.org/2000/svg" xmlns:xlink="http://www.w3.org/1999/xlink">
    <!-- Generator: Sketch 48.2 (47327) - http://www.bohemiancoding.com/sketch -->
    <title>icon/icon_twitter</title>
    <desc>Created with Sketch.</desc>
    <defs></defs>
    <g id="Page-1" stroke="none" stroke-width="1" fill="none" fill-rule="evenodd">
        <g id="icon/icon_twitter" fill="#000000" fill-rule="nonzero">
            <path d="M32,6.08333333 C30.8229173,6.60416667 29.557292,6.95833333 28.2291667,7.11458267 C29.5833333,6.30208267 30.625,5.01562533 31.114584,3.48437467 C29.8489587,4.23437467 28.442708,4.78124933 26.9479173,5.07812533 C25.75,3.80208267 24.0416667,3 22.1562507,3 C18.5312507,3 15.5885413,5.942708 15.5885413,9.567708 C15.5885413,10.0833333 15.6458333,10.5833333 15.7604173,11.0625 C10.302084,10.7916667 5.46354133,8.17708267 2.22916667,4.20312533 C1.66145867,5.17187467 1.33854133,6.30208267 1.33854133,7.505208 C1.33854133,9.78124933 2.494792,11.7916667 4.26041733,12.9687493 C3.182292,12.932292 2.17187467,12.6406253 1.28645867,12.1458333 C1.28645867,12.1770827 1.28645867,12.2031253 1.28645867,12.2291667 C1.28645867,15.4114587 3.54687467,18.067708 6.552084,18.6666667 C6,18.817708 5.42187467,18.9010413 4.82291733,18.9010413 C4.40104133,18.9010413 3.98437467,18.8593747 3.58854133,18.7812493 C4.42187467,21.3906253 6.84895867,23.2864587 9.71875067,23.3437493 C7.47395867,25.1041667 4.64062533,26.1510413 1.567708,26.1510413 C1.03645867,26.1510413 0.515625333,26.119792 0,26.057292 C2.90625067,27.9218747 6.35416667,29.010416 10.0625,29.010416 C22.1406253,29.010416 28.744792,19.005208 28.744792,10.3281253 C28.744792,10.0468747 28.7343747,9.760416 28.7239587,9.47916667 C30.005208,8.55208267 31.119792,7.39583333 32,6.08333333 Z" id="Shape"></path>
        </g>
    </g>
</svg>