<?xml version="1.0" encoding="UTF-8"?>
<svg width="32px" height="32px" viewBox="0 0 32 32" version="1.1" xmlns="http://www.w3.org/2000/svg" xmlns:xlink="http://www.w3.org/1999/xlink">
    <!-- Generator: Sketch 48.2 (47327) - http://www.bohemiancoding.com/sketch -->
    <title>icon/icon_auto-renew</title>
    <desc>Created with Sketch.</desc>
    <defs>
        <path d="M29.323,1.428 L32,1.428 L32,11.425 L29.323,11.425 L29.323,11.424 L29.127,11.424 C26.963,6.317 21.886,2.677 16,2.677 C10.096,2.677 5.02,6.292 2.868,11.424 L0,11.424 C2.279,4.778 8.582,0 16,0 C21.416,0 26.228,2.552 29.323,6.512 L29.323,1.428 Z M16.0006,29.1402 C21.9046,29.1402 26.9816,25.5262 29.1326,20.3942 L32.0006,20.3942 C29.7226,27.0402 23.4196,31.8172 16.0006,31.8172 C10.5856,31.8172 5.7726,29.2652 2.6776,25.3052 L2.6776,30.3892 L0.0006,30.3892 L0.0006,20.3932 L2.6776,20.3932 L2.6776,20.3942 L2.8736,20.3942 C5.0376,25.5002 10.1146,29.1402 16.0006,29.1402 Z M9.0199,10.0475 L10.0849,10.0475 L11.8219,14.5335 L11.0149,14.5335 C10.9239,14.5335 10.8519,14.5125 10.7969,14.4705 C10.7409,14.4275 10.6989,14.3745 10.6699,14.3085 L10.4049,13.5265 L8.6989,13.5265 L8.4349,14.3085 C8.4119,14.3655 8.3719,14.4175 8.3129,14.4645 C8.2549,14.5105 8.1819,14.5335 8.0959,14.5335 L7.2829,14.5335 L9.0199,10.0475 Z M8.9399,12.8185 L10.1679,12.8185 L9.7529,11.5905 C9.7219,11.5115 9.6889,11.4205 9.6539,11.3145 C9.6189,11.2085 9.5839,11.0945 9.5489,10.9715 C9.5189,11.0965 9.4859,11.2125 9.4509,11.3185 C9.4159,11.4255 9.3829,11.5185 9.3519,11.5965 L8.9399,12.8185 Z M12.003,10.0475 L13.043,10.0475 L13.043,12.7015 C13.043,12.8595 13.063,13.0005 13.103,13.1245 C13.143,13.2485 13.202,13.3545 13.277,13.4415 C13.353,13.5295 13.446,13.5955 13.556,13.6415 C13.666,13.6885 13.79,13.7105 13.93,13.7105 C14.069,13.7105 14.194,13.6885 14.304,13.6415 C14.414,13.5955 14.507,13.5295 14.583,13.4435 C14.659,13.3575 14.717,13.2515 14.757,13.1275 C14.797,13.0035 14.817,12.8625 14.817,12.7045 L14.817,10.0475 L15.857,10.0475 L15.857,12.7045 C15.857,12.9795 15.813,13.2315 15.724,13.4615 C15.634,13.6915 15.507,13.8895 15.34,14.0565 C15.174,14.2215 14.972,14.3515 14.733,14.4435 C14.495,14.5365 14.228,14.5825 13.93,14.5825 C13.631,14.5825 13.361,14.5365 13.123,14.4435 C12.885,14.3515 12.683,14.2215 12.517,14.0565 C12.351,13.8895 12.223,13.6915 12.135,13.4615 C12.047,13.2315 12.003,12.9795 12.003,12.7045 L12.003,10.0475 Z M16.3283,10.8728 L16.3283,10.0478 L19.8933,10.0478 L19.8933,10.8728 L18.6313,10.8728 L18.6313,14.5328 L17.5903,14.5328 L17.5903,10.8728 L16.3283,10.8728 Z M24.077,10.6606 C24.281,10.8656 24.438,11.1076 24.55,11.3866 C24.662,11.6656 24.717,11.9666 24.717,12.2886 C24.717,12.6136 24.662,12.9146 24.55,13.1936 C24.438,13.4736 24.281,13.7156 24.077,13.9226 C23.874,14.1286 23.629,14.2906 23.343,14.4066 C23.057,14.5246 22.739,14.5826 22.39,14.5826 C22.041,14.5826 21.723,14.5246 21.436,14.4066 C21.148,14.2906 20.903,14.1286 20.698,13.9226 C20.494,13.7156 20.336,13.4736 20.224,13.1936 C20.113,12.9146 20.056,12.6136 20.056,12.2886 C20.056,11.9646 20.113,11.6626 20.224,11.3836 C20.336,11.1046 20.494,10.8626 20.698,10.6566 C20.903,10.4516 21.148,10.2906 21.436,10.1736 C21.723,10.0566 22.041,9.9986 22.39,9.9986 C22.739,9.9986 23.057,10.0576 23.343,10.1756 C23.629,10.2936 23.874,10.4556 24.077,10.6606 Z M23.566,12.8906 C23.624,12.7136 23.652,12.5126 23.652,12.2886 C23.652,12.0666 23.624,11.8676 23.566,11.6896 C23.509,11.5126 23.426,11.3616 23.318,11.2386 C23.211,11.1156 23.079,11.0216 22.923,10.9556 C22.767,10.8896 22.589,10.8576 22.39,10.8576 C22.189,10.8576 22.01,10.8896 21.853,10.9556 C21.696,11.0216 21.564,11.1156 21.456,11.2386 C21.348,11.3616 21.266,11.5126 21.208,11.6896 C21.15,11.8676 21.122,12.0666 21.122,12.2886 C21.122,12.5126 21.15,12.7136 21.208,12.8906 C21.266,13.0686 21.348,13.2186 21.456,13.3416 C21.564,13.4646 21.696,13.5586 21.853,13.6236 C22.01,13.6876 22.189,13.7206 22.39,13.7206 C22.589,13.7206 22.767,13.6876 22.923,13.6236 C23.079,13.5586 23.211,13.4646 23.318,13.3416 C23.426,13.2186 23.509,13.0686 23.566,12.8906 Z M5.0008,15.6094 L6.4598,15.6094 C6.7838,15.6094 7.0608,15.6434 7.2898,15.7094 C7.5188,15.7764 7.7048,15.8694 7.8498,15.9884 C7.9948,16.1074 8.0998,16.2474 8.1648,16.4104 C8.2308,16.5724 8.2638,16.7484 8.2638,16.9394 C8.2638,17.0854 8.2448,17.2224 8.2058,17.3524 C8.1658,17.4814 8.1088,17.6004 8.0328,17.7104 C7.9578,17.8204 7.8628,17.9184 7.7518,18.0044 C7.6398,18.0904 7.5108,18.1614 7.3648,18.2174 C7.4328,18.2524 7.4968,18.2954 7.5558,18.3474 C7.6158,18.4004 7.6688,18.4624 7.7158,18.5344 L8.6708,20.0954 L7.7288,20.0954 C7.5538,20.0954 7.4288,20.0294 7.3528,19.8984 L6.6078,18.5954 C6.5728,18.5404 6.5338,18.4994 6.4908,18.4744 C6.4478,18.4484 6.3858,18.4354 6.3058,18.4354 L6.0408,18.4354 L6.0408,20.0954 L5.0008,20.0954 L5.0008,15.6094 Z M7.2478,17.0164 C7.2478,16.8194 7.1838,16.6654 7.0558,16.5544 C6.9268,16.4434 6.7288,16.3884 6.4598,16.3884 L6.0408,16.3884 L6.0408,17.7184 L6.4598,17.7184 C6.6018,17.7184 6.7218,17.7004 6.8218,17.6644 C6.9208,17.6284 7.0028,17.5784 7.0668,17.5154 C7.1298,17.4514 7.1758,17.3774 7.2048,17.2924 C7.2338,17.2064 7.2478,17.1154 7.2478,17.0164 Z M11.9364,16.41 L10.0954,16.41 L10.0954,17.457 L11.5054,17.457 L11.5054,18.226 L10.0954,18.226 L10.0954,19.295 L11.9364,19.295 L11.9364,20.095 L9.0484,20.095 L9.0484,15.609 L11.9364,15.609 L11.9364,16.41 Z M15.5757,17.9829 L15.5757,15.6089 L16.4927,15.6089 L16.4927,20.0949 L15.9507,20.0949 C15.8707,20.0949 15.8037,20.0819 15.7497,20.0559 C15.6947,20.0309 15.6417,19.9859 15.5877,19.9229 L13.4727,17.2469 C13.4817,17.3279 13.4867,17.4049 13.4897,17.4799 C13.4927,17.5549 13.4947,17.6249 13.4947,17.6909 L13.4947,20.0949 L12.5767,20.0949 L12.5767,15.6089 L13.1247,15.6089 C13.1697,15.6089 13.2077,15.6109 13.2387,15.6149 C13.2697,15.6199 13.2977,15.6269 13.3217,15.6389 C13.3467,15.6499 13.3697,15.6659 13.3927,15.6869 C13.4147,15.7069 13.4407,15.7349 13.4697,15.7699 L15.6037,18.4639 C15.5927,18.3769 15.5857,18.2939 15.5817,18.2119 C15.5777,18.1309 15.5757,18.0549 15.5757,17.9829 Z M17.3611,20.095 L17.3611,15.609 L20.2491,15.609 L20.2491,16.41 L18.4081,16.41 L18.4081,17.457 L19.8181,17.457 L19.8181,18.226 L18.4081,18.226 L18.4081,19.295 L20.2491,19.295 L20.2491,20.095 L17.3611,20.095 Z M24.1402,15.6724 C24.1962,15.7144 24.2382,15.7684 24.2662,15.8344 L24.9872,18.1734 C25.0402,18.3174 25.0862,18.4814 25.1222,18.6634 C25.1392,18.5714 25.1562,18.4844 25.1732,18.4034 C25.1902,18.3224 25.2082,18.2464 25.2272,18.1734 L25.8432,15.8344 C25.8592,15.7744 25.8982,15.7224 25.9592,15.6774 C26.0212,15.6314 26.0952,15.6094 26.1812,15.6094 L27.0002,15.6094 L25.6152,20.0954 L24.6732,20.0954 L23.8292,17.3154 C23.8132,17.2714 23.7972,17.2244 23.7832,17.1714 C23.7692,17.1194 23.7542,17.0644 23.7402,17.0074 C23.7262,17.0644 23.7112,17.1194 23.6972,17.1714 C23.6822,17.2244 23.6672,17.2714 23.6502,17.3154 L22.7952,20.0954 L21.8532,20.0954 L20.4682,15.6094 L21.3412,15.6094 C21.4322,15.6094 21.5072,15.6294 21.5682,15.6714 C21.6292,15.7124 21.6682,15.7664 21.6872,15.8344 L22.3022,18.1734 C22.3212,18.2484 22.3392,18.3284 22.3582,18.4154 C22.3762,18.5034 22.3952,18.5934 22.4132,18.6884 C22.4502,18.4954 22.4952,18.3234 22.5492,18.1734 L23.2752,15.8344 C23.2942,15.7764 23.3332,15.7254 23.3932,15.6784 C23.4542,15.6324 23.5282,15.6094 23.6142,15.6094 L23.9212,15.6094 C24.0122,15.6094 24.0852,15.6304 24.1402,15.6724 Z" id="path-1"></path>
    </defs>
    <g id="Page-1" stroke="none" stroke-width="1" fill="none" fill-rule="evenodd">
        <g id="icon/icon_auto-renew">
            <mask id="mask-2" fill="white">
                <use xlink:href="#path-1"></use>
            </mask>
            <use id="Combined-Shape" fill="#000000" xlink:href="#path-1"></use>
        </g>
    </g>
</svg>