<?xml version="1.0" encoding="UTF-8"?>
<svg width="32px" height="32px" viewBox="0 0 32 32" version="1.1" xmlns="http://www.w3.org/2000/svg" xmlns:xlink="http://www.w3.org/1999/xlink">
    <!-- Generator: Sketch 48.2 (47327) - http://www.bohemiancoding.com/sketch -->
    <title>icon/icon_damaged-sim</title>
    <desc>Created with Sketch.</desc>
    <defs>
        <path d="M23.193,29.1213 C19.229,29.1213 16.004,25.8923 16.004,21.9223 C16.004,17.9533 19.229,14.7243 23.193,14.7243 C27.167,14.7243 30.4,17.9533 30.4,21.9223 C30.4,25.8923 27.167,29.1213 23.193,29.1213 M23.193,13.1243 C28.059,13.1243 32,17.0663 32,21.9223 C32,26.7793 28.059,30.7213 23.193,30.7213 C18.336,30.7213 14.404,26.7793 14.404,21.9223 C14.404,17.0663 18.336,13.1243 23.193,13.1243 Z M22.322,22.8023 L24.082,22.8023 L24.082,17.5233 L22.322,17.5233 L22.322,22.8023 Z M22.322,26.3223 L24.082,26.3223 L24.082,24.5623 L22.322,24.5623 L22.322,26.3223 Z M1.9704,18.8316 C1.9954,18.8386 2.0244,18.8436 2.0514,18.8436 L13.9674,18.8436 C13.7344,19.4666 13.5694,20.1216 13.4824,20.8016 L2.0514,20.8016 C1.4814,20.8016 0.9114,20.5736 0.5694,20.2326 C0.2284,19.8906 0.0004,19.3206 0.0004,18.7506 L0.0004,9.7486 C0.0004,9.1786 0.3414,8.6096 0.5694,8.2676 L6.2674,2.5696 C6.6094,2.3416 7.1784,1.9996 7.7484,1.9996 L23.0184,1.9996 C23.4744,1.9996 24.1574,2.2276 24.4994,2.5696 C24.8414,2.9116 25.0694,3.4816 25.0694,4.0506 L25.0694,12.3286 C24.4644,12.1966 23.8374,12.1236 23.1934,12.1236 C23.1654,12.1236 23.1384,12.1276 23.1104,12.1276 L23.1104,4.0506 C23.1104,4.0306 23.1074,4.0076 23.1034,3.9866 C23.0594,3.9726 23.0144,3.9606 22.9854,3.9576 L7.7954,3.9586 C7.7574,3.9706 7.6664,4.0056 7.5024,4.1046 L2.1044,9.5026 C2.0054,9.6666 1.9704,9.7576 1.9584,9.7956 L1.9584,18.7506 C1.9584,18.7776 1.9634,18.8066 1.9704,18.8316 Z M9.8476,10.7681 C10.0906,10.7681 10.2786,10.7151 10.4136,10.6081 C10.5476,10.5011 10.6146,10.3321 10.6146,10.0991 C10.6146,9.9651 10.5776,9.8561 10.5046,9.7711 C10.4306,9.6861 10.3336,9.6171 10.2136,9.5621 C10.0936,9.5061 9.9566,9.4571 9.8046,9.4151 C9.6516,9.3731 9.4946,9.3261 9.3336,9.2741 C9.1726,9.2231 9.0156,9.1601 8.8626,9.0851 C8.7096,9.0101 8.5736,8.9111 8.4536,8.7881 C8.3336,8.6661 8.2366,8.5131 8.1626,8.3291 C8.0886,8.1461 8.0516,7.9201 8.0516,7.6511 C8.0516,7.4351 8.0956,7.2241 8.1826,7.0181 C8.2696,6.8131 8.3976,6.6291 8.5666,6.4681 C8.7346,6.3071 8.9416,6.1791 9.1876,6.0831 C9.4326,5.9871 9.7126,5.9391 10.0296,5.9391 C10.2066,5.9391 10.3776,5.9521 10.5456,5.9801 C10.7136,6.0071 10.8726,6.0491 11.0216,6.1031 C11.1726,6.1571 11.3136,6.2211 11.4436,6.2971 C11.5746,6.3721 11.6906,6.4571 11.7936,6.5511 L11.4616,7.1731 C11.4216,7.2361 11.3806,7.2831 11.3366,7.3151 C11.2936,7.3461 11.2376,7.3631 11.1686,7.3631 C11.1076,7.3631 11.0426,7.3431 10.9726,7.3051 C10.9026,7.2671 10.8236,7.2241 10.7356,7.1771 C10.6476,7.1291 10.5466,7.0861 10.4336,7.0481 C10.3196,7.0101 10.1906,6.9901 10.0456,6.9901 C9.7946,6.9901 9.6086,7.0441 9.4856,7.1511 C9.3636,7.2581 9.3016,7.4021 9.3016,7.5841 C9.3016,7.7001 9.3386,7.7961 9.4126,7.8721 C9.4866,7.9491 9.5836,8.0151 9.7026,8.0711 C9.8236,8.1261 9.9606,8.1761 10.1146,8.2231 C10.2686,8.2691 10.4266,8.3201 10.5876,8.3771 C10.7476,8.4341 10.9056,8.5001 11.0596,8.5771 C11.2136,8.6531 11.3506,8.7501 11.4716,8.8701 C11.5916,8.9881 11.6876,9.1321 11.7616,9.3021 C11.8356,9.4731 11.8726,9.6771 11.8726,9.9181 C11.8726,10.1841 11.8266,10.4331 11.7336,10.6651 C11.6416,10.8971 11.5086,11.0991 11.3326,11.2721 C11.1576,11.4451 10.9416,11.5801 10.6846,11.6791 C10.4266,11.7791 10.1346,11.8281 9.8076,11.8281 C9.6286,11.8281 9.4466,11.8101 9.2606,11.7721 C9.0746,11.7361 8.8946,11.6831 8.7206,11.6161 C8.5466,11.5491 8.3826,11.4691 8.2296,11.3771 C8.0766,11.2851 7.9436,11.1821 7.8306,11.0691 L8.2256,10.4441 C8.2576,10.3981 8.2986,10.3611 8.3506,10.3311 C8.4016,10.3011 8.4576,10.2851 8.5186,10.2851 C8.5976,10.2851 8.6776,10.3101 8.7576,10.3601 C8.8386,10.4111 8.9296,10.4661 9.0306,10.5271 C9.1326,10.5871 9.2486,10.6421 9.3806,10.6931 C9.5126,10.7431 9.6686,10.7681 9.8476,10.7681 Z M12.66,11.7643 L12.66,6.0013 L14.005,6.0013 L14.005,11.7643 L12.66,11.7643 Z M20.4199,8.4499 C20.4199,8.3739 20.4219,8.2909 20.4259,8.2009 C20.4299,8.1109 20.4369,8.0209 20.4479,7.9279 L18.9169,10.8899 C18.8699,10.9829 18.8049,11.0529 18.7249,11.0999 C18.6449,11.1479 18.5529,11.1709 18.4499,11.1709 L18.2679,11.1709 C18.1649,11.1709 18.0739,11.1479 17.9929,11.0999 C17.9129,11.0529 17.8489,10.9829 17.8019,10.8899 L16.2709,7.9199 C16.2789,8.0149 16.2849,8.1079 16.2909,8.1989 C16.2959,8.2899 16.2979,8.3739 16.2979,8.4499 L16.2979,11.7649 L15.1199,11.7649 L15.1199,6.0019 L16.1399,6.0019 C16.1979,6.0019 16.2489,6.0029 16.2929,6.0059 C16.3359,6.0079 16.3749,6.0169 16.4089,6.0299 C16.4439,6.0429 16.4739,6.0629 16.5019,6.0909 C16.5299,6.1179 16.5569,6.1579 16.5829,6.2079 L18.0659,9.1299 C18.1189,9.2309 18.1699,9.3349 18.2189,9.4429 C18.2679,9.5509 18.3139,9.6619 18.3589,9.7759 C18.4039,9.6589 18.4509,9.5459 18.4999,9.4349 C18.5479,9.3239 18.5999,9.2189 18.6559,9.1189 L20.1349,6.2079 C20.1619,6.1579 20.1889,6.1179 20.2159,6.0909 C20.2439,6.0629 20.2749,6.0429 20.3089,6.0299 C20.3429,6.0169 20.3819,6.0079 20.4259,6.0059 C20.4689,6.0029 20.5199,6.0019 20.5779,6.0019 L21.5979,6.0019 L21.5979,11.7649 L20.4199,11.7649 L20.4199,8.4499 Z" id="path-1"></path>
    </defs>
    <g id="Page-1" stroke="none" stroke-width="1" fill="none" fill-rule="evenodd">
        <g id="icon/icon_damaged-sim">
            <mask id="mask-2" fill="white">
                <use xlink:href="#path-1"></use>
            </mask>
            <use id="Combined-Shape" fill="#333333" xlink:href="#path-1"></use>
        </g>
    </g>
</svg>