<?xml version="1.0" encoding="UTF-8"?>
<svg width="34px" height="24px" viewBox="0 0 34 24" version="1.1" xmlns="http://www.w3.org/2000/svg"
>
  <!-- Generator: Sketch 46.2 (44496) - http://www.bohemiancoding.com/sketch -->
  <title>Icon_GroupSharingData</title>
  <desc>Created with Sketch.</desc>
  <defs></defs>
  <g id="Page-1" stroke="none" stroke-width="1" fill="none" fill-rule="evenodd">
    <g id="Celcom_DetailedUsage_Internet" transform="translate(-36.000000, -836.000000)" fill-rule="nonzero"
       fill="#333333">
      <g id="Cards" transform="translate(16.000000, 180.000000)">
        <g id="Card_FreeBasicInternet" transform="translate(0.000000, 636.000000)">
          <g id="20:20:24:20" transform="translate(20.000000, 20.000000)">
            <g id="Header">
              <g id="Icon_Internet">
                <path
                  d="M0,7.0252371 L3.04159124,10.1115576 C10.5999455,2.44205112 22.8575582,2.44205112 30.4159124,10.1115576 L33.4575037,7.0252371 C24.2262743,-2.3417457 9.24643738,-2.3417457 0,7.0252371 Z M12.166365,19.3705192 L16.7287518,24 L21.2911387,19.3705192 C18.7818259,16.8088732 14.6908857,16.8088732 12.166365,19.3705192 Z M6.08318249,13.1978782 L9.12477373,16.2841987 C13.3221696,12.0250764 20.135334,12.0250764 24.33273,16.2841987 L27.3743212,13.1978782 C21.5040501,7.24127954 11.9686615,7.24127954 6.08318249,13.1978782 Z"
                  id="Shape"></path>
              </g>
            </g>
          </g>
        </g>
      </g>
    </g>
  </g>
</svg>
